%!PS-Adobe-3.0
%%Creator: graphviz version 2.26.3 (20100126.1600)
%%Title: message
%%Pages: (atend)
%%BoundingBox: (atend)
%%EndComments
save
%%BeginProlog
/DotDict 200 dict def
DotDict begin

/setupLatin1 {
mark
/EncodingVector 256 array def
 EncodingVector 0

ISOLatin1Encoding 0 255 getinterval putinterval
EncodingVector 45 /hyphen put

% Set up ISO Latin 1 character encoding
/starnetISO {
        dup dup findfont dup length dict begin
        { 1 index /FID ne { def }{ pop pop } ifelse
        } forall
        /Encoding EncodingVector def
        currentdict end definefont
} def
/Times-Roman starnetISO def
/Times-Italic starnetISO def
/Times-Bold starnetISO def
/Times-BoldItalic starnetISO def
/Helvetica starnetISO def
/Helvetica-Oblique starnetISO def
/Helvetica-Bold starnetISO def
/Helvetica-BoldOblique starnetISO def
/Courier starnetISO def
/Courier-Oblique starnetISO def
/Courier-Bold starnetISO def
/Courier-BoldOblique starnetISO def
cleartomark
} bind def

%%BeginResource: procset graphviz 0 0
/coord-font-family /Times-Roman def
/default-font-family /Times-Roman def
/coordfont coord-font-family findfont 8 scalefont def

/InvScaleFactor 1.0 def
/set_scale {
       dup 1 exch div /InvScaleFactor exch def
       scale
} bind def

% styles
/solid { [] 0 setdash } bind def
/dashed { [9 InvScaleFactor mul dup ] 0 setdash } bind def
/dotted { [1 InvScaleFactor mul 6 InvScaleFactor mul] 0 setdash } bind def
/invis {/fill {newpath} def /stroke {newpath} def /show {pop newpath} def} bind def
/bold { 2 setlinewidth } bind def
/filled { } bind def
/unfilled { } bind def
/rounded { } bind def
/diagonals { } bind def

% hooks for setting color 
/nodecolor { sethsbcolor } bind def
/edgecolor { sethsbcolor } bind def
/graphcolor { sethsbcolor } bind def
/nopcolor {pop pop pop} bind def

/beginpage {	% i j npages
	/npages exch def
	/j exch def
	/i exch def
	/str 10 string def
	npages 1 gt {
		gsave
			coordfont setfont
			0 0 moveto
			(\() show i str cvs show (,) show j str cvs show (\)) show
		grestore
	} if
} bind def

/set_font {
	findfont exch
	scalefont setfont
} def

% draw text fitted to its expected width
/alignedtext {			% width text
	/text exch def
	/width exch def
	gsave
		width 0 gt {
			[] 0 setdash
			text stringwidth pop width exch sub text length div 0 text ashow
		} if
	grestore
} def

/boxprim {				% xcorner ycorner xsize ysize
		4 2 roll
		moveto
		2 copy
		exch 0 rlineto
		0 exch rlineto
		pop neg 0 rlineto
		closepath
} bind def

/ellipse_path {
	/ry exch def
	/rx exch def
	/y exch def
	/x exch def
	matrix currentmatrix
	newpath
	x y translate
	rx ry scale
	0 0 1 0 360 arc
	setmatrix
} bind def

/endpage { showpage } bind def
/showpage { } def

/layercolorseq
	[	% layer color sequence - darkest to lightest
		[0 0 0]
		[.2 .8 .8]
		[.4 .8 .8]
		[.6 .8 .8]
		[.8 .8 .8]
	]
def

/layerlen layercolorseq length def

/setlayer {/maxlayer exch def /curlayer exch def
	layercolorseq curlayer 1 sub layerlen mod get
	aload pop sethsbcolor
	/nodecolor {nopcolor} def
	/edgecolor {nopcolor} def
	/graphcolor {nopcolor} def
} bind def

/onlayer { curlayer ne {invis} if } def

/onlayers {
	/myupper exch def
	/mylower exch def
	curlayer mylower lt
	curlayer myupper gt
	or
	{invis} if
} def

/curlayer 0 def

%%EndResource
%%EndProlog
%%BeginSetup
14 default-font-family set_font
1 setmiterlimit
% /arrowlength 10 def
% /arrowwidth 5 def

% make sure pdfmark is harmless for PS-interpreters other than Distiller
/pdfmark where {pop} {userdict /pdfmark /cleartomark load put} ifelse
% make '<<' and '>>' safe on PS Level 1 devices
/languagelevel where {pop languagelevel}{1} ifelse
2 lt {
    userdict (<<) cvn ([) cvn load put
    userdict (>>) cvn ([) cvn load put
} if

%%EndSetup
setupLatin1
%%Page: 1 1
%%PageBoundingBox: 36 36 169 470
%%PageOrientation: Portrait
0 0 1 beginpage
gsave
36 36 133 434 boxprim clip newpath
1 1 set_scale 0 rotate 40 41 translate
% node0
gsave
1 setlinewidth
0 0 0 nodecolor
82 404 18.07 18.07 ellipse_path stroke
1 setlinewidth
0 0 0 nodecolor
82 404 22.07 22.07 ellipse_path stroke
0 0 0 nodecolor
14 /Times-Roman set_font
77 399.9 moveto 10 (0) alignedtext
grestore
% node12
gsave
1 setlinewidth
0 0 0 nodecolor
47 301 27.1 27.1 ellipse_path stroke
0 0 0 nodecolor
14 /Times-Roman set_font
35.5 296.9 moveto 23 (0 1) alignedtext
grestore
% node0->node12
gsave
1 setlinewidth
0 0 0 edgecolor
newpath 74.92 383.16 moveto
70.39 369.85 64.41 352.24 59.15 336.75 curveto
stroke
0 0 0 edgecolor
newpath 62.34 335.28 moveto
55.81 326.93 lineto
55.72 337.53 lineto
closepath fill
1 setlinewidth
solid
0 0 0 edgecolor
newpath 62.34 335.28 moveto
55.81 326.93 lineto
55.72 337.53 lineto
closepath stroke
0 0 0 edgecolor
14 /Times-Roman set_font
67 350.9 moveto 10 (0) alignedtext
grestore
% node13
gsave
1 setlinewidth
0 0 0 nodecolor
37 183 36.83 36.83 ellipse_path stroke
0 0 0 nodecolor
14 /Times-Roman set_font
18.5 178.9 moveto 37 (0 1 2) alignedtext
grestore
% node12->node13
gsave
1 setlinewidth
0 0 0 edgecolor
newpath 33.64 277.4 moveto
30.5 270.69 27.61 263.24 26 256 curveto
24.06 247.27 24 237.88 24.93 228.84 curveto
stroke
0 0 0 edgecolor
newpath 28.41 229.22 moveto
26.36 218.83 lineto
21.48 228.23 lineto
closepath fill
1 setlinewidth
solid
0 0 0 edgecolor
newpath 28.41 229.22 moveto
26.36 218.83 lineto
21.48 228.23 lineto
closepath stroke
0 0 0 edgecolor
14 /Times-Roman set_font
26 242.9 moveto 10 (1) alignedtext
grestore
% node5
gsave
1 setlinewidth
0 0 0 nodecolor
79 46 45.86 45.86 ellipse_path stroke
0 0 0 nodecolor
14 /Times-Roman set_font
54 41.9 moveto 50 (0 1 2 3) alignedtext
grestore
% node5->node0
gsave
1 setlinewidth
0 0 0 edgecolor
newpath 81.23 92.04 moveto
81.95 109 82.65 128.37 83 146 curveto
84.62 226.87 83.53 247.11 83 328 curveto
82.91 342.26 82.71 358.03 82.52 371.49 curveto
stroke
0 0 0 edgecolor
newpath 79.02 371.67 moveto
82.37 381.72 lineto
86.02 371.77 lineto
closepath fill
1 setlinewidth
solid
0 0 0 edgecolor
newpath 79.02 371.67 moveto
82.37 381.72 lineto
86.02 371.77 lineto
closepath stroke
0 0 0 edgecolor
14 /Times-Roman set_font
83 242.9 moveto 10 (3) alignedtext
grestore
% node13->node12
gsave
1 setlinewidth
0 0 0 edgecolor
newpath 40.15 220.23 moveto
41.33 234.11 42.67 249.86 43.84 263.74 curveto
stroke
0 0 0 edgecolor
newpath 40.37 264.26 moveto
44.71 273.93 lineto
47.35 263.67 lineto
closepath fill
1 setlinewidth
solid
0 0 0 edgecolor
newpath 40.37 264.26 moveto
44.71 273.93 lineto
47.35 263.67 lineto
closepath stroke
0 0 0 edgecolor
14 /Times-Roman set_font
42 242.9 moveto 10 (0) alignedtext
grestore
% node13->node5
gsave
1 setlinewidth
0 0 0 edgecolor
newpath 47.93 147.36 moveto
52.37 132.85 57.61 115.76 62.51 99.8 curveto
stroke
0 0 0 edgecolor
newpath 65.92 100.62 moveto
65.5 90.03 lineto
59.22 98.57 lineto
closepath fill
1 setlinewidth
solid
0 0 0 edgecolor
newpath 65.92 100.62 moveto
65.5 90.03 lineto
59.22 98.57 lineto
closepath stroke
0 0 0 edgecolor
14 /Times-Roman set_font
59 114.9 moveto 10 (2) alignedtext
grestore
endpage
showpage
grestore
%%PageTrailer
%%EndPage: 1
%%Trailer
%%Pages: 1
%%BoundingBox: 36 36 169 470
end
restore
%%EOF
