%!PS-Adobe-3.0
%%Creator: graphviz version 2.26.3 (20100126.1600)
%%Title: message
%%Pages: (atend)
%%BoundingBox: (atend)
%%EndComments
save
%%BeginProlog
/DotDict 200 dict def
DotDict begin

/setupLatin1 {
mark
/EncodingVector 256 array def
 EncodingVector 0

ISOLatin1Encoding 0 255 getinterval putinterval
EncodingVector 45 /hyphen put

% Set up ISO Latin 1 character encoding
/starnetISO {
        dup dup findfont dup length dict begin
        { 1 index /FID ne { def }{ pop pop } ifelse
        } forall
        /Encoding EncodingVector def
        currentdict end definefont
} def
/Times-Roman starnetISO def
/Times-Italic starnetISO def
/Times-Bold starnetISO def
/Times-BoldItalic starnetISO def
/Helvetica starnetISO def
/Helvetica-Oblique starnetISO def
/Helvetica-Bold starnetISO def
/Helvetica-BoldOblique starnetISO def
/Courier starnetISO def
/Courier-Oblique starnetISO def
/Courier-Bold starnetISO def
/Courier-BoldOblique starnetISO def
cleartomark
} bind def

%%BeginResource: procset graphviz 0 0
/coord-font-family /Times-Roman def
/default-font-family /Times-Roman def
/coordfont coord-font-family findfont 8 scalefont def

/InvScaleFactor 1.0 def
/set_scale {
       dup 1 exch div /InvScaleFactor exch def
       scale
} bind def

% styles
/solid { [] 0 setdash } bind def
/dashed { [9 InvScaleFactor mul dup ] 0 setdash } bind def
/dotted { [1 InvScaleFactor mul 6 InvScaleFactor mul] 0 setdash } bind def
/invis {/fill {newpath} def /stroke {newpath} def /show {pop newpath} def} bind def
/bold { 2 setlinewidth } bind def
/filled { } bind def
/unfilled { } bind def
/rounded { } bind def
/diagonals { } bind def

% hooks for setting color 
/nodecolor { sethsbcolor } bind def
/edgecolor { sethsbcolor } bind def
/graphcolor { sethsbcolor } bind def
/nopcolor {pop pop pop} bind def

/beginpage {	% i j npages
	/npages exch def
	/j exch def
	/i exch def
	/str 10 string def
	npages 1 gt {
		gsave
			coordfont setfont
			0 0 moveto
			(\() show i str cvs show (,) show j str cvs show (\)) show
		grestore
	} if
} bind def

/set_font {
	findfont exch
	scalefont setfont
} def

% draw text fitted to its expected width
/alignedtext {			% width text
	/text exch def
	/width exch def
	gsave
		width 0 gt {
			[] 0 setdash
			text stringwidth pop width exch sub text length div 0 text ashow
		} if
	grestore
} def

/boxprim {				% xcorner ycorner xsize ysize
		4 2 roll
		moveto
		2 copy
		exch 0 rlineto
		0 exch rlineto
		pop neg 0 rlineto
		closepath
} bind def

/ellipse_path {
	/ry exch def
	/rx exch def
	/y exch def
	/x exch def
	matrix currentmatrix
	newpath
	x y translate
	rx ry scale
	0 0 1 0 360 arc
	setmatrix
} bind def

/endpage { showpage } bind def
/showpage { } def

/layercolorseq
	[	% layer color sequence - darkest to lightest
		[0 0 0]
		[.2 .8 .8]
		[.4 .8 .8]
		[.6 .8 .8]
		[.8 .8 .8]
	]
def

/layerlen layercolorseq length def

/setlayer {/maxlayer exch def /curlayer exch def
	layercolorseq curlayer 1 sub layerlen mod get
	aload pop sethsbcolor
	/nodecolor {nopcolor} def
	/edgecolor {nopcolor} def
	/graphcolor {nopcolor} def
} bind def

/onlayer { curlayer ne {invis} if } def

/onlayers {
	/myupper exch def
	/mylower exch def
	curlayer mylower lt
	curlayer myupper gt
	or
	{invis} if
} def

/curlayer 0 def

%%EndResource
%%EndProlog
%%BeginSetup
14 default-font-family set_font
1 setmiterlimit
% /arrowlength 10 def
% /arrowwidth 5 def

% make sure pdfmark is harmless for PS-interpreters other than Distiller
/pdfmark where {pop} {userdict /pdfmark /cleartomark load put} ifelse
% make '<<' and '>>' safe on PS Level 1 devices
/languagelevel where {pop languagelevel}{1} ifelse
2 lt {
    userdict (<<) cvn ([) cvn load put
    userdict (>>) cvn ([) cvn load put
} if

%%EndSetup
setupLatin1
%%Page: 1 1
%%PageBoundingBox: 36 36 168 1238
%%PageOrientation: Portrait
0 0 1 beginpage
gsave
36 36 132 1202 boxprim clip newpath
1 1 set_scale 0 rotate 40 41 translate
% node0
gsave
1 setlinewidth
0 0 0 nodecolor
62 1165 25.02 25.02 ellipse_path stroke
1 setlinewidth
0 0 0 nodecolor
62 1165 29.02 29.02 ellipse_path stroke
0 0 0 nodecolor
14 /Times-Roman set_font
52 1160.9 moveto 20 ([0]) alignedtext
grestore
% node1
gsave
1 setlinewidth
0 0 0 nodecolor
62 1044 37.02 37.52 ellipse_path stroke
0 0 0 nodecolor
14 /Times-Roman set_font
43 1039.9 moveto 38 ([0, 1]) alignedtext
grestore
% node0->node1
gsave
1 setlinewidth
0 0 0 edgecolor
newpath 62 1135.71 moveto
62 1122.53 62 1106.62 62 1091.78 curveto
stroke
0 0 0 edgecolor
newpath 65.5 1091.73 moveto
62 1081.73 lineto
58.5 1091.73 lineto
closepath fill
1 setlinewidth
solid
0 0 0 edgecolor
newpath 65.5 1091.73 moveto
62 1081.73 lineto
58.5 1091.73 lineto
closepath stroke
0 0 0 edgecolor
14 /Times-Roman set_font
62 1104.9 moveto 10 (0) alignedtext
grestore
% node2
gsave
1 setlinewidth
0 0 0 nodecolor
62 902 50.03 50.03 ellipse_path stroke
0 0 0 nodecolor
14 /Times-Roman set_font
34 897.9 moveto 56 ([0, 1, 2]) alignedtext
grestore
% node1->node2
gsave
1 setlinewidth
0 0 0 edgecolor
newpath 62 1006.32 moveto
62 992.83 62 977.27 62 962.36 curveto
stroke
0 0 0 edgecolor
newpath 65.5 962.17 moveto
62 952.17 lineto
58.5 962.17 lineto
closepath fill
1 setlinewidth
solid
0 0 0 edgecolor
newpath 65.5 962.17 moveto
62 952.17 lineto
58.5 962.17 lineto
closepath stroke
0 0 0 edgecolor
14 /Times-Roman set_font
62 974.9 moveto 10 (1) alignedtext
grestore
% node3
gsave
1 setlinewidth
0 0 0 nodecolor
62 760 37.02 37.52 ellipse_path stroke
0 0 0 nodecolor
14 /Times-Roman set_font
43 755.9 moveto 38 ([0, 1]) alignedtext
grestore
% node2->node3
gsave
1 setlinewidth
0 0 0 edgecolor
newpath 62 851.94 moveto
62 837.54 62 821.89 62 807.65 curveto
stroke
0 0 0 edgecolor
newpath 65.5 807.56 moveto
62 797.56 lineto
58.5 807.56 lineto
closepath fill
1 setlinewidth
solid
0 0 0 edgecolor
newpath 65.5 807.56 moveto
62 797.56 lineto
58.5 807.56 lineto
closepath stroke
0 0 0 edgecolor
14 /Times-Roman set_font
62 820.9 moveto 10 (0) alignedtext
grestore
% node4
gsave
1 setlinewidth
0 0 0 nodecolor
62 618 50.03 50.03 ellipse_path stroke
0 0 0 nodecolor
14 /Times-Roman set_font
34 613.9 moveto 56 ([0, 1, 2]) alignedtext
grestore
% node3->node4
gsave
1 setlinewidth
0 0 0 edgecolor
newpath 62 722.32 moveto
62 708.83 62 693.27 62 678.36 curveto
stroke
0 0 0 edgecolor
newpath 65.5 678.17 moveto
62 668.17 lineto
58.5 678.17 lineto
closepath fill
1 setlinewidth
solid
0 0 0 edgecolor
newpath 65.5 678.17 moveto
62 668.17 lineto
58.5 678.17 lineto
closepath stroke
0 0 0 edgecolor
14 /Times-Roman set_font
62 690.9 moveto 10 (1) alignedtext
grestore
% node5
gsave
1 setlinewidth
0 0 0 nodecolor
62 451 62.04 62.54 ellipse_path stroke
0 0 0 nodecolor
14 /Times-Roman set_font
25 446.9 moveto 74 ([0, 1, 2, 3]) alignedtext
grestore
% node4->node5
gsave
1 setlinewidth
0 0 0 edgecolor
newpath 62 567.89 moveto
62 554 62 538.63 62 523.72 curveto
stroke
0 0 0 edgecolor
newpath 65.5 523.5 moveto
62 513.5 lineto
58.5 523.5 lineto
closepath fill
1 setlinewidth
solid
0 0 0 edgecolor
newpath 65.5 523.5 moveto
62 513.5 lineto
58.5 523.5 lineto
closepath stroke
0 0 0 edgecolor
14 /Times-Roman set_font
62 536.9 moveto 10 (2) alignedtext
grestore
% node6
gsave
1 setlinewidth
0 0 0 nodecolor
62 309 25.02 25.02 ellipse_path stroke
0 0 0 nodecolor
14 /Times-Roman set_font
52 304.9 moveto 20 ([0]) alignedtext
grestore
% node5->node6
gsave
1 setlinewidth
0 0 0 edgecolor
newpath 62 388.3 moveto
62 373.18 62 357.54 62 344.2 curveto
stroke
0 0 0 edgecolor
newpath 65.5 344.03 moveto
62 334.03 lineto
58.5 344.03 lineto
closepath fill
1 setlinewidth
solid
0 0 0 edgecolor
newpath 65.5 344.03 moveto
62 334.03 lineto
58.5 344.03 lineto
closepath stroke
0 0 0 edgecolor
14 /Times-Roman set_font
62 356.9 moveto 10 (3) alignedtext
grestore
% node7
gsave
1 setlinewidth
0 0 0 nodecolor
62 192 37.02 37.52 ellipse_path stroke
0 0 0 nodecolor
14 /Times-Roman set_font
43 187.9 moveto 38 ([0, 1]) alignedtext
grestore
% node6->node7
gsave
1 setlinewidth
0 0 0 edgecolor
newpath 62 283.9 moveto
62 271.03 62 254.9 62 239.77 curveto
stroke
0 0 0 edgecolor
newpath 65.5 239.51 moveto
62 229.51 lineto
58.5 239.51 lineto
closepath fill
1 setlinewidth
solid
0 0 0 edgecolor
newpath 65.5 239.51 moveto
62 229.51 lineto
58.5 239.51 lineto
closepath stroke
0 0 0 edgecolor
14 /Times-Roman set_font
62 252.9 moveto 10 (0) alignedtext
grestore
% node8
gsave
2 setlinewidth
bold
0 0 0 nodecolor
62 50 50.03 50.03 ellipse_path stroke
0 0 0 nodecolor
14 /Times-Roman set_font
34 45.9 moveto 56 ([0, 1, 2]) alignedtext
grestore
% node7->node8
gsave
1 setlinewidth
0 0 0 edgecolor
newpath 62 154.32 moveto
62 140.83 62 125.27 62 110.36 curveto
stroke
0 0 0 edgecolor
newpath 65.5 110.17 moveto
62 100.17 lineto
58.5 110.17 lineto
closepath fill
1 setlinewidth
solid
0 0 0 edgecolor
newpath 65.5 110.17 moveto
62 100.17 lineto
58.5 110.17 lineto
closepath stroke
0 0 0 edgecolor
14 /Times-Roman set_font
62 122.9 moveto 10 (1) alignedtext
grestore
endpage
showpage
grestore
%%PageTrailer
%%EndPage: 1
%%Trailer
%%Pages: 1
%%BoundingBox: 36 36 168 1238
end
restore
%%EOF
