%!PS-Adobe-3.0
%%Creator: graphviz version 2.26.3 (20100126.1600)
%%Title: message
%%Pages: (atend)
%%BoundingBox: (atend)
%%EndComments
save
%%BeginProlog
/DotDict 200 dict def
DotDict begin

/setupLatin1 {
mark
/EncodingVector 256 array def
 EncodingVector 0

ISOLatin1Encoding 0 255 getinterval putinterval
EncodingVector 45 /hyphen put

% Set up ISO Latin 1 character encoding
/starnetISO {
        dup dup findfont dup length dict begin
        { 1 index /FID ne { def }{ pop pop } ifelse
        } forall
        /Encoding EncodingVector def
        currentdict end definefont
} def
/Times-Roman starnetISO def
/Times-Italic starnetISO def
/Times-Bold starnetISO def
/Times-BoldItalic starnetISO def
/Helvetica starnetISO def
/Helvetica-Oblique starnetISO def
/Helvetica-Bold starnetISO def
/Helvetica-BoldOblique starnetISO def
/Courier starnetISO def
/Courier-Oblique starnetISO def
/Courier-Bold starnetISO def
/Courier-BoldOblique starnetISO def
cleartomark
} bind def

%%BeginResource: procset graphviz 0 0
/coord-font-family /Times-Roman def
/default-font-family /Times-Roman def
/coordfont coord-font-family findfont 8 scalefont def

/InvScaleFactor 1.0 def
/set_scale {
       dup 1 exch div /InvScaleFactor exch def
       scale
} bind def

% styles
/solid { [] 0 setdash } bind def
/dashed { [9 InvScaleFactor mul dup ] 0 setdash } bind def
/dotted { [1 InvScaleFactor mul 6 InvScaleFactor mul] 0 setdash } bind def
/invis {/fill {newpath} def /stroke {newpath} def /show {pop newpath} def} bind def
/bold { 2 setlinewidth } bind def
/filled { } bind def
/unfilled { } bind def
/rounded { } bind def
/diagonals { } bind def

% hooks for setting color 
/nodecolor { sethsbcolor } bind def
/edgecolor { sethsbcolor } bind def
/graphcolor { sethsbcolor } bind def
/nopcolor {pop pop pop} bind def

/beginpage {	% i j npages
	/npages exch def
	/j exch def
	/i exch def
	/str 10 string def
	npages 1 gt {
		gsave
			coordfont setfont
			0 0 moveto
			(\() show i str cvs show (,) show j str cvs show (\)) show
		grestore
	} if
} bind def

/set_font {
	findfont exch
	scalefont setfont
} def

% draw text fitted to its expected width
/alignedtext {			% width text
	/text exch def
	/width exch def
	gsave
		width 0 gt {
			[] 0 setdash
			text stringwidth pop width exch sub text length div 0 text ashow
		} if
	grestore
} def

/boxprim {				% xcorner ycorner xsize ysize
		4 2 roll
		moveto
		2 copy
		exch 0 rlineto
		0 exch rlineto
		pop neg 0 rlineto
		closepath
} bind def

/ellipse_path {
	/ry exch def
	/rx exch def
	/y exch def
	/x exch def
	matrix currentmatrix
	newpath
	x y translate
	rx ry scale
	0 0 1 0 360 arc
	setmatrix
} bind def

/endpage { showpage } bind def
/showpage { } def

/layercolorseq
	[	% layer color sequence - darkest to lightest
		[0 0 0]
		[.2 .8 .8]
		[.4 .8 .8]
		[.6 .8 .8]
		[.8 .8 .8]
	]
def

/layerlen layercolorseq length def

/setlayer {/maxlayer exch def /curlayer exch def
	layercolorseq curlayer 1 sub layerlen mod get
	aload pop sethsbcolor
	/nodecolor {nopcolor} def
	/edgecolor {nopcolor} def
	/graphcolor {nopcolor} def
} bind def

/onlayer { curlayer ne {invis} if } def

/onlayers {
	/myupper exch def
	/mylower exch def
	curlayer mylower lt
	curlayer myupper gt
	or
	{invis} if
} def

/curlayer 0 def

%%EndResource
%%EndProlog
%%BeginSetup
14 default-font-family set_font
1 setmiterlimit
% /arrowlength 10 def
% /arrowwidth 5 def

% make sure pdfmark is harmless for PS-interpreters other than Distiller
/pdfmark where {pop} {userdict /pdfmark /cleartomark load put} ifelse
% make '<<' and '>>' safe on PS Level 1 devices
/languagelevel where {pop languagelevel}{1} ifelse
2 lt {
    userdict (<<) cvn ([) cvn load put
    userdict (>>) cvn ([) cvn load put
} if

%%EndSetup
setupLatin1
%%Page: 1 1
%%PageBoundingBox: 36 36 88 808
%%PageOrientation: Portrait
0 0 1 beginpage
gsave
36 36 52 772 boxprim clip newpath
1 1 set_scale 0 rotate 40 41 translate
% node0
gsave
1 setlinewidth
0 0 0 nodecolor
22 742 18.07 18.07 ellipse_path stroke
1 setlinewidth
0 0 0 nodecolor
22 742 22.07 22.07 ellipse_path stroke
0 0 0 nodecolor
14 /Times-Roman set_font
17 737.9 moveto 10 (0) alignedtext
grestore
% node1
gsave
1 setlinewidth
0 0 0 nodecolor
22 648 18.07 18.07 ellipse_path stroke
0 0 0 nodecolor
14 /Times-Roman set_font
17 643.9 moveto 10 (1) alignedtext
grestore
% node0->node1
gsave
1 setlinewidth
0 0 0 edgecolor
newpath 22 719.72 moveto
22 706.66 22 690.03 22 676.07 curveto
stroke
0 0 0 edgecolor
newpath 25.5 676.03 moveto
22 666.03 lineto
18.5 676.03 lineto
closepath fill
1 setlinewidth
solid
0 0 0 edgecolor
newpath 25.5 676.03 moveto
22 666.03 lineto
18.5 676.03 lineto
closepath stroke
0 0 0 edgecolor
14 /Times-Roman set_font
22 688.9 moveto 10 (0) alignedtext
grestore
% node2
gsave
1 setlinewidth
0 0 0 nodecolor
22 558 18.07 18.07 ellipse_path stroke
0 0 0 nodecolor
14 /Times-Roman set_font
17 553.9 moveto 10 (2) alignedtext
grestore
% node1->node2
gsave
1 setlinewidth
0 0 0 edgecolor
newpath 22 629.79 moveto
22 617.34 22 600.61 22 586.42 curveto
stroke
0 0 0 edgecolor
newpath 25.5 586.19 moveto
22 576.19 lineto
18.5 586.19 lineto
closepath fill
1 setlinewidth
solid
0 0 0 edgecolor
newpath 25.5 586.19 moveto
22 576.19 lineto
18.5 586.19 lineto
closepath stroke
0 0 0 edgecolor
14 /Times-Roman set_font
22 598.9 moveto 10 (1) alignedtext
grestore
% node3
gsave
1 setlinewidth
0 0 0 nodecolor
22 468 18.07 18.07 ellipse_path stroke
0 0 0 nodecolor
14 /Times-Roman set_font
17 463.9 moveto 10 (3) alignedtext
grestore
% node2->node3
gsave
1 setlinewidth
0 0 0 edgecolor
newpath 22 539.79 moveto
22 527.34 22 510.61 22 496.42 curveto
stroke
0 0 0 edgecolor
newpath 25.5 496.19 moveto
22 486.19 lineto
18.5 496.19 lineto
closepath fill
1 setlinewidth
solid
0 0 0 edgecolor
newpath 25.5 496.19 moveto
22 486.19 lineto
18.5 496.19 lineto
closepath stroke
0 0 0 edgecolor
14 /Times-Roman set_font
22 508.9 moveto 10 (0) alignedtext
grestore
% node4
gsave
1 setlinewidth
0 0 0 nodecolor
22 378 18.07 18.07 ellipse_path stroke
0 0 0 nodecolor
14 /Times-Roman set_font
17 373.9 moveto 10 (4) alignedtext
grestore
% node3->node4
gsave
1 setlinewidth
0 0 0 edgecolor
newpath 22 449.79 moveto
22 437.34 22 420.61 22 406.42 curveto
stroke
0 0 0 edgecolor
newpath 25.5 406.19 moveto
22 396.19 lineto
18.5 406.19 lineto
closepath fill
1 setlinewidth
solid
0 0 0 edgecolor
newpath 25.5 406.19 moveto
22 396.19 lineto
18.5 406.19 lineto
closepath stroke
0 0 0 edgecolor
14 /Times-Roman set_font
22 418.9 moveto 10 (1) alignedtext
grestore
% node5
gsave
1 setlinewidth
0 0 0 nodecolor
22 288 18.07 18.07 ellipse_path stroke
0 0 0 nodecolor
14 /Times-Roman set_font
17 283.9 moveto 10 (5) alignedtext
grestore
% node4->node5
gsave
1 setlinewidth
0 0 0 edgecolor
newpath 22 359.79 moveto
22 347.34 22 330.61 22 316.42 curveto
stroke
0 0 0 edgecolor
newpath 25.5 316.19 moveto
22 306.19 lineto
18.5 316.19 lineto
closepath fill
1 setlinewidth
solid
0 0 0 edgecolor
newpath 25.5 316.19 moveto
22 306.19 lineto
18.5 316.19 lineto
closepath stroke
0 0 0 edgecolor
14 /Times-Roman set_font
22 328.9 moveto 10 (2) alignedtext
grestore
% node6
gsave
1 setlinewidth
0 0 0 nodecolor
22 198 18.07 18.07 ellipse_path stroke
0 0 0 nodecolor
14 /Times-Roman set_font
17 193.9 moveto 10 (6) alignedtext
grestore
% node5->node6
gsave
1 setlinewidth
0 0 0 edgecolor
newpath 22 269.79 moveto
22 257.34 22 240.61 22 226.42 curveto
stroke
0 0 0 edgecolor
newpath 25.5 226.19 moveto
22 216.19 lineto
18.5 226.19 lineto
closepath fill
1 setlinewidth
solid
0 0 0 edgecolor
newpath 25.5 226.19 moveto
22 216.19 lineto
18.5 226.19 lineto
closepath stroke
0 0 0 edgecolor
14 /Times-Roman set_font
22 238.9 moveto 10 (3) alignedtext
grestore
% node7
gsave
1 setlinewidth
0 0 0 nodecolor
22 108 18.07 18.07 ellipse_path stroke
0 0 0 nodecolor
14 /Times-Roman set_font
17 103.9 moveto 10 (7) alignedtext
grestore
% node6->node7
gsave
1 setlinewidth
0 0 0 edgecolor
newpath 22 179.79 moveto
22 167.34 22 150.61 22 136.42 curveto
stroke
0 0 0 edgecolor
newpath 25.5 136.19 moveto
22 126.19 lineto
18.5 136.19 lineto
closepath fill
1 setlinewidth
solid
0 0 0 edgecolor
newpath 25.5 136.19 moveto
22 126.19 lineto
18.5 136.19 lineto
closepath stroke
0 0 0 edgecolor
14 /Times-Roman set_font
22 148.9 moveto 10 (0) alignedtext
grestore
% node8
gsave
2 setlinewidth
bold
0 0 0 nodecolor
22 18 18.07 18.07 ellipse_path stroke
0 0 0 nodecolor
14 /Times-Roman set_font
17 13.9 moveto 10 (8) alignedtext
grestore
% node7->node8
gsave
1 setlinewidth
0 0 0 edgecolor
newpath 22 89.79 moveto
22 77.34 22 60.61 22 46.42 curveto
stroke
0 0 0 edgecolor
newpath 25.5 46.19 moveto
22 36.19 lineto
18.5 46.19 lineto
closepath fill
1 setlinewidth
solid
0 0 0 edgecolor
newpath 25.5 46.19 moveto
22 36.19 lineto
18.5 46.19 lineto
closepath stroke
0 0 0 edgecolor
14 /Times-Roman set_font
22 58.9 moveto 10 (1) alignedtext
grestore
endpage
showpage
grestore
%%PageTrailer
%%EndPage: 1
%%Trailer
%%Pages: 1
%%BoundingBox: 36 36 88 808
end
restore
%%EOF
