%!PS-Adobe-3.0
%%Creator: graphviz version 2.26.3 (20100126.1600)
%%Title: message
%%Pages: (atend)
%%BoundingBox: (atend)
%%EndComments
save
%%BeginProlog
/DotDict 200 dict def
DotDict begin

/setupLatin1 {
mark
/EncodingVector 256 array def
 EncodingVector 0

ISOLatin1Encoding 0 255 getinterval putinterval
EncodingVector 45 /hyphen put

% Set up ISO Latin 1 character encoding
/starnetISO {
        dup dup findfont dup length dict begin
        { 1 index /FID ne { def }{ pop pop } ifelse
        } forall
        /Encoding EncodingVector def
        currentdict end definefont
} def
/Times-Roman starnetISO def
/Times-Italic starnetISO def
/Times-Bold starnetISO def
/Times-BoldItalic starnetISO def
/Helvetica starnetISO def
/Helvetica-Oblique starnetISO def
/Helvetica-Bold starnetISO def
/Helvetica-BoldOblique starnetISO def
/Courier starnetISO def
/Courier-Oblique starnetISO def
/Courier-Bold starnetISO def
/Courier-BoldOblique starnetISO def
cleartomark
} bind def

%%BeginResource: procset graphviz 0 0
/coord-font-family /Times-Roman def
/default-font-family /Times-Roman def
/coordfont coord-font-family findfont 8 scalefont def

/InvScaleFactor 1.0 def
/set_scale {
       dup 1 exch div /InvScaleFactor exch def
       scale
} bind def

% styles
/solid { [] 0 setdash } bind def
/dashed { [9 InvScaleFactor mul dup ] 0 setdash } bind def
/dotted { [1 InvScaleFactor mul 6 InvScaleFactor mul] 0 setdash } bind def
/invis {/fill {newpath} def /stroke {newpath} def /show {pop newpath} def} bind def
/bold { 2 setlinewidth } bind def
/filled { } bind def
/unfilled { } bind def
/rounded { } bind def
/diagonals { } bind def

% hooks for setting color 
/nodecolor { sethsbcolor } bind def
/edgecolor { sethsbcolor } bind def
/graphcolor { sethsbcolor } bind def
/nopcolor {pop pop pop} bind def

/beginpage {	% i j npages
	/npages exch def
	/j exch def
	/i exch def
	/str 10 string def
	npages 1 gt {
		gsave
			coordfont setfont
			0 0 moveto
			(\() show i str cvs show (,) show j str cvs show (\)) show
		grestore
	} if
} bind def

/set_font {
	findfont exch
	scalefont setfont
} def

% draw text fitted to its expected width
/alignedtext {			% width text
	/text exch def
	/width exch def
	gsave
		width 0 gt {
			[] 0 setdash
			text stringwidth pop width exch sub text length div 0 text ashow
		} if
	grestore
} def

/boxprim {				% xcorner ycorner xsize ysize
		4 2 roll
		moveto
		2 copy
		exch 0 rlineto
		0 exch rlineto
		pop neg 0 rlineto
		closepath
} bind def

/ellipse_path {
	/ry exch def
	/rx exch def
	/y exch def
	/x exch def
	matrix currentmatrix
	newpath
	x y translate
	rx ry scale
	0 0 1 0 360 arc
	setmatrix
} bind def

/endpage { showpage } bind def
/showpage { } def

/layercolorseq
	[	% layer color sequence - darkest to lightest
		[0 0 0]
		[.2 .8 .8]
		[.4 .8 .8]
		[.6 .8 .8]
		[.8 .8 .8]
	]
def

/layerlen layercolorseq length def

/setlayer {/maxlayer exch def /curlayer exch def
	layercolorseq curlayer 1 sub layerlen mod get
	aload pop sethsbcolor
	/nodecolor {nopcolor} def
	/edgecolor {nopcolor} def
	/graphcolor {nopcolor} def
} bind def

/onlayer { curlayer ne {invis} if } def

/onlayers {
	/myupper exch def
	/mylower exch def
	curlayer mylower lt
	curlayer myupper gt
	or
	{invis} if
} def

/curlayer 0 def

%%EndResource
%%EndProlog
%%BeginSetup
14 default-font-family set_font
1 setmiterlimit
% /arrowlength 10 def
% /arrowwidth 5 def

% make sure pdfmark is harmless for PS-interpreters other than Distiller
/pdfmark where {pop} {userdict /pdfmark /cleartomark load put} ifelse
% make '<<' and '>>' safe on PS Level 1 devices
/languagelevel where {pop languagelevel}{1} ifelse
2 lt {
    userdict (<<) cvn ([) cvn load put
    userdict (>>) cvn ([) cvn load put
} if

%%EndSetup
setupLatin1
%%Page: 1 1
%%PageBoundingBox: 36 36 123 386
%%PageOrientation: Portrait
0 0 1 beginpage
gsave
36 36 87 350 boxprim clip newpath
1 1 set_scale 0 rotate 40 41 translate
% node0
gsave
1 setlinewidth
0 0 0 nodecolor
57 320 18.07 18.07 ellipse_path stroke
1 setlinewidth
0 0 0 nodecolor
57 320 22.07 22.07 ellipse_path stroke
0 0 0 nodecolor
14 /Times-Roman set_font
52 315.9 moveto 10 (0) alignedtext
grestore
% node12
gsave
1 setlinewidth
0 0 0 nodecolor
24 219 23.82 24.32 ellipse_path stroke
0 0 0 nodecolor
14 /Times-Roman set_font
14.5 214.9 moveto 19 (12) alignedtext
grestore
% node0->node12
gsave
1 setlinewidth
0 0 0 edgecolor
newpath 50.16 299.07 moveto
45.73 285.52 39.87 267.57 34.82 252.11 curveto
stroke
0 0 0 edgecolor
newpath 38.07 250.79 moveto
31.64 242.37 lineto
31.42 252.96 lineto
closepath fill
1 setlinewidth
solid
0 0 0 edgecolor
newpath 38.07 250.79 moveto
31.64 242.37 lineto
31.42 252.96 lineto
closepath stroke
0 0 0 edgecolor
14 /Times-Roman set_font
43 266.9 moveto 10 (0) alignedtext
grestore
% node13
gsave
1 setlinewidth
0 0 0 nodecolor
24 115 23.82 24.32 ellipse_path stroke
0 0 0 nodecolor
14 /Times-Roman set_font
14.5 110.9 moveto 19 (13) alignedtext
grestore
% node12->node13
gsave
1 setlinewidth
0 0 0 edgecolor
newpath 10.94 198.34 moveto
7.3 191.5 3.85 183.66 2 176 curveto
-.54 165.47 1.94 154.23 6.02 144.31 curveto
stroke
0 0 0 edgecolor
newpath 9.19 145.8 moveto
10.32 135.27 lineto
2.87 142.8 lineto
closepath fill
1 setlinewidth
solid
0 0 0 edgecolor
newpath 9.19 145.8 moveto
10.32 135.27 lineto
2.87 142.8 lineto
closepath stroke
0 0 0 edgecolor
14 /Times-Roman set_font
2 162.9 moveto 10 (1) alignedtext
grestore
% node5
gsave
1 setlinewidth
0 0 0 nodecolor
57 18 18.07 18.07 ellipse_path stroke
0 0 0 nodecolor
14 /Times-Roman set_font
52 13.9 moveto 10 (5) alignedtext
grestore
% node5->node0
gsave
1 setlinewidth
0 0 0 edgecolor
newpath 57.61 36.31 moveto
57.77 41.98 57.92 48.25 58 54 curveto
58.11 62 58.02 64 58 72 curveto
57.84 149.29 57.42 240.13 57.17 287.52 curveto
stroke
0 0 0 edgecolor
newpath 53.67 287.75 moveto
57.12 297.77 lineto
60.67 287.79 lineto
closepath fill
1 setlinewidth
solid
0 0 0 edgecolor
newpath 53.67 287.75 moveto
57.12 297.77 lineto
60.67 287.79 lineto
closepath stroke
0 0 0 edgecolor
14 /Times-Roman set_font
57 162.9 moveto 10 (3) alignedtext
grestore
% node13->node12
gsave
1 setlinewidth
0 0 0 edgecolor
newpath 24 139.83 moveto
24 153.1 24 169.66 24 184.2 curveto
stroke
0 0 0 edgecolor
newpath 20.5 184.35 moveto
24 194.35 lineto
27.5 184.35 lineto
closepath fill
1 setlinewidth
solid
0 0 0 edgecolor
newpath 20.5 184.35 moveto
24 194.35 lineto
27.5 184.35 lineto
closepath stroke
0 0 0 edgecolor
14 /Times-Roman set_font
24 162.9 moveto 10 (0) alignedtext
grestore
% node13->node5
gsave
1 setlinewidth
0 0 0 edgecolor
newpath 31.99 91.52 moveto
36.79 77.4 42.92 59.38 47.91 44.71 curveto
stroke
0 0 0 edgecolor
newpath 51.25 45.78 moveto
51.15 35.18 lineto
44.62 43.52 lineto
closepath fill
1 setlinewidth
solid
0 0 0 edgecolor
newpath 51.25 45.78 moveto
51.15 35.18 lineto
44.62 43.52 lineto
closepath stroke
0 0 0 edgecolor
14 /Times-Roman set_font
44 58.9 moveto 10 (2) alignedtext
grestore
endpage
showpage
grestore
%%PageTrailer
%%EndPage: 1
%%Trailer
%%Pages: 1
%%BoundingBox: 36 36 123 386
end
restore
%%EOF
