%!PS-Adobe-3.0
%%Creator: graphviz version 2.26.3 (20100126.1600)
%%Title: message
%%Pages: (atend)
%%BoundingBox: (atend)
%%EndComments
save
%%BeginProlog
/DotDict 200 dict def
DotDict begin

/setupLatin1 {
mark
/EncodingVector 256 array def
 EncodingVector 0

ISOLatin1Encoding 0 255 getinterval putinterval
EncodingVector 45 /hyphen put

% Set up ISO Latin 1 character encoding
/starnetISO {
        dup dup findfont dup length dict begin
        { 1 index /FID ne { def }{ pop pop } ifelse
        } forall
        /Encoding EncodingVector def
        currentdict end definefont
} def
/Times-Roman starnetISO def
/Times-Italic starnetISO def
/Times-Bold starnetISO def
/Times-BoldItalic starnetISO def
/Helvetica starnetISO def
/Helvetica-Oblique starnetISO def
/Helvetica-Bold starnetISO def
/Helvetica-BoldOblique starnetISO def
/Courier starnetISO def
/Courier-Oblique starnetISO def
/Courier-Bold starnetISO def
/Courier-BoldOblique starnetISO def
cleartomark
} bind def

%%BeginResource: procset graphviz 0 0
/coord-font-family /Times-Roman def
/default-font-family /Times-Roman def
/coordfont coord-font-family findfont 8 scalefont def

/InvScaleFactor 1.0 def
/set_scale {
       dup 1 exch div /InvScaleFactor exch def
       scale
} bind def

% styles
/solid { [] 0 setdash } bind def
/dashed { [9 InvScaleFactor mul dup ] 0 setdash } bind def
/dotted { [1 InvScaleFactor mul 6 InvScaleFactor mul] 0 setdash } bind def
/invis {/fill {newpath} def /stroke {newpath} def /show {pop newpath} def} bind def
/bold { 2 setlinewidth } bind def
/filled { } bind def
/unfilled { } bind def
/rounded { } bind def
/diagonals { } bind def

% hooks for setting color 
/nodecolor { sethsbcolor } bind def
/edgecolor { sethsbcolor } bind def
/graphcolor { sethsbcolor } bind def
/nopcolor {pop pop pop} bind def

/beginpage {	% i j npages
	/npages exch def
	/j exch def
	/i exch def
	/str 10 string def
	npages 1 gt {
		gsave
			coordfont setfont
			0 0 moveto
			(\() show i str cvs show (,) show j str cvs show (\)) show
		grestore
	} if
} bind def

/set_font {
	findfont exch
	scalefont setfont
} def

% draw text fitted to its expected width
/alignedtext {			% width text
	/text exch def
	/width exch def
	gsave
		width 0 gt {
			[] 0 setdash
			text stringwidth pop width exch sub text length div 0 text ashow
		} if
	grestore
} def

/boxprim {				% xcorner ycorner xsize ysize
		4 2 roll
		moveto
		2 copy
		exch 0 rlineto
		0 exch rlineto
		pop neg 0 rlineto
		closepath
} bind def

/ellipse_path {
	/ry exch def
	/rx exch def
	/y exch def
	/x exch def
	matrix currentmatrix
	newpath
	x y translate
	rx ry scale
	0 0 1 0 360 arc
	setmatrix
} bind def

/endpage { showpage } bind def
/showpage { } def

/layercolorseq
	[	% layer color sequence - darkest to lightest
		[0 0 0]
		[.2 .8 .8]
		[.4 .8 .8]
		[.6 .8 .8]
		[.8 .8 .8]
	]
def

/layerlen layercolorseq length def

/setlayer {/maxlayer exch def /curlayer exch def
	layercolorseq curlayer 1 sub layerlen mod get
	aload pop sethsbcolor
	/nodecolor {nopcolor} def
	/edgecolor {nopcolor} def
	/graphcolor {nopcolor} def
} bind def

/onlayer { curlayer ne {invis} if } def

/onlayers {
	/myupper exch def
	/mylower exch def
	curlayer mylower lt
	curlayer myupper gt
	or
	{invis} if
} def

/curlayer 0 def

%%EndResource
%%EndProlog
%%BeginSetup
14 default-font-family set_font
1 setmiterlimit
% /arrowlength 10 def
% /arrowwidth 5 def

% make sure pdfmark is harmless for PS-interpreters other than Distiller
/pdfmark where {pop} {userdict /pdfmark /cleartomark load put} ifelse
% make '<<' and '>>' safe on PS Level 1 devices
/languagelevel where {pop languagelevel}{1} ifelse
2 lt {
    userdict (<<) cvn ([) cvn load put
    userdict (>>) cvn ([) cvn load put
} if

%%EndSetup
setupLatin1
%%Page: 1 1
%%PageBoundingBox: 36 36 118 2676
%%PageOrientation: Portrait
0 0 1 beginpage
gsave
36 36 82 2640 boxprim clip newpath
1 1 set_scale 0 rotate 40 41 translate
% node0
gsave
1 setlinewidth
0 0 0 nodecolor
37 2603 25.02 25.02 ellipse_path stroke
1 setlinewidth
0 0 0 nodecolor
37 2603 29.02 29.02 ellipse_path stroke
0 0 0 nodecolor
14 /Times-Roman set_font
27 2598.9 moveto 20 ([0]) alignedtext
grestore
% node1
gsave
1 setlinewidth
0 0 0 nodecolor
37 2482 37.02 37.52 ellipse_path stroke
0 0 0 nodecolor
14 /Times-Roman set_font
18 2477.9 moveto 38 ([0, 1]) alignedtext
grestore
% node0->node1
gsave
1 setlinewidth
0 0 0 edgecolor
newpath 37 2573.71 moveto
37 2560.53 37 2544.62 37 2529.78 curveto
stroke
0 0 0 edgecolor
newpath 40.5 2529.73 moveto
37 2519.73 lineto
33.5 2529.73 lineto
closepath fill
1 setlinewidth
solid
0 0 0 edgecolor
newpath 40.5 2529.73 moveto
37 2519.73 lineto
33.5 2529.73 lineto
closepath stroke
0 0 0 edgecolor
14 /Times-Roman set_font
37 2542.9 moveto 10 (0) alignedtext
grestore
% node2
gsave
1 setlinewidth
0 0 0 nodecolor
37 2365 25.02 25.02 ellipse_path stroke
0 0 0 nodecolor
14 /Times-Roman set_font
27 2360.9 moveto 20 ([0]) alignedtext
grestore
% node1->node2
gsave
1 setlinewidth
0 0 0 edgecolor
newpath 37 2444.34 moveto
37 2430.18 37 2414.14 37 2400.21 curveto
stroke
0 0 0 edgecolor
newpath 40.5 2400.04 moveto
37 2390.04 lineto
33.5 2400.04 lineto
closepath fill
1 setlinewidth
solid
0 0 0 edgecolor
newpath 40.5 2400.04 moveto
37 2390.04 lineto
33.5 2400.04 lineto
closepath stroke
0 0 0 edgecolor
14 /Times-Roman set_font
37 2412.9 moveto 10 (1) alignedtext
grestore
% node3
gsave
1 setlinewidth
0 0 0 nodecolor
37 2248 37.02 37.52 ellipse_path stroke
0 0 0 nodecolor
14 /Times-Roman set_font
18 2243.9 moveto 38 ([0, 1]) alignedtext
grestore
% node2->node3
gsave
1 setlinewidth
0 0 0 edgecolor
newpath 37 2339.9 moveto
37 2327.03 37 2310.9 37 2295.77 curveto
stroke
0 0 0 edgecolor
newpath 40.5 2295.51 moveto
37 2285.51 lineto
33.5 2295.51 lineto
closepath fill
1 setlinewidth
solid
0 0 0 edgecolor
newpath 40.5 2295.51 moveto
37 2285.51 lineto
33.5 2295.51 lineto
closepath stroke
0 0 0 edgecolor
14 /Times-Roman set_font
37 2308.9 moveto 10 (0) alignedtext
grestore
% node4
gsave
1 setlinewidth
0 0 0 nodecolor
37 2131 25.02 25.02 ellipse_path stroke
0 0 0 nodecolor
14 /Times-Roman set_font
27 2126.9 moveto 20 ([0]) alignedtext
grestore
% node3->node4
gsave
1 setlinewidth
0 0 0 edgecolor
newpath 37 2210.34 moveto
37 2196.18 37 2180.14 37 2166.21 curveto
stroke
0 0 0 edgecolor
newpath 40.5 2166.04 moveto
37 2156.04 lineto
33.5 2166.04 lineto
closepath fill
1 setlinewidth
solid
0 0 0 edgecolor
newpath 40.5 2166.04 moveto
37 2156.04 lineto
33.5 2166.04 lineto
closepath stroke
0 0 0 edgecolor
14 /Times-Roman set_font
37 2178.9 moveto 10 (1) alignedtext
grestore
% node5
gsave
1 setlinewidth
0 0 0 nodecolor
37 2014 37.02 37.52 ellipse_path stroke
0 0 0 nodecolor
14 /Times-Roman set_font
18 2009.9 moveto 38 ([0, 1]) alignedtext
grestore
% node4->node5
gsave
1 setlinewidth
0 0 0 edgecolor
newpath 37 2105.9 moveto
37 2093.03 37 2076.9 37 2061.77 curveto
stroke
0 0 0 edgecolor
newpath 40.5 2061.51 moveto
37 2051.51 lineto
33.5 2061.51 lineto
closepath fill
1 setlinewidth
solid
0 0 0 edgecolor
newpath 40.5 2061.51 moveto
37 2051.51 lineto
33.5 2061.51 lineto
closepath stroke
0 0 0 edgecolor
14 /Times-Roman set_font
37 2074.9 moveto 10 (0) alignedtext
grestore
% node6
gsave
1 setlinewidth
0 0 0 nodecolor
37 1897 25.02 25.02 ellipse_path stroke
0 0 0 nodecolor
14 /Times-Roman set_font
27 1892.9 moveto 20 ([0]) alignedtext
grestore
% node5->node6
gsave
1 setlinewidth
0 0 0 edgecolor
newpath 37 1976.34 moveto
37 1962.18 37 1946.14 37 1932.21 curveto
stroke
0 0 0 edgecolor
newpath 40.5 1932.04 moveto
37 1922.04 lineto
33.5 1932.04 lineto
closepath fill
1 setlinewidth
solid
0 0 0 edgecolor
newpath 40.5 1932.04 moveto
37 1922.04 lineto
33.5 1932.04 lineto
closepath stroke
0 0 0 edgecolor
14 /Times-Roman set_font
37 1944.9 moveto 10 (1) alignedtext
grestore
% node7
gsave
1 setlinewidth
0 0 0 nodecolor
37 1780 37.02 37.52 ellipse_path stroke
0 0 0 nodecolor
14 /Times-Roman set_font
18 1775.9 moveto 38 ([0, 1]) alignedtext
grestore
% node6->node7
gsave
1 setlinewidth
0 0 0 edgecolor
newpath 37 1871.9 moveto
37 1859.03 37 1842.9 37 1827.77 curveto
stroke
0 0 0 edgecolor
newpath 40.5 1827.51 moveto
37 1817.51 lineto
33.5 1827.51 lineto
closepath fill
1 setlinewidth
solid
0 0 0 edgecolor
newpath 40.5 1827.51 moveto
37 1817.51 lineto
33.5 1827.51 lineto
closepath stroke
0 0 0 edgecolor
14 /Times-Roman set_font
37 1840.9 moveto 10 (0) alignedtext
grestore
% node8
gsave
1 setlinewidth
0 0 0 nodecolor
37 1663 25.02 25.02 ellipse_path stroke
0 0 0 nodecolor
14 /Times-Roman set_font
27 1658.9 moveto 20 ([0]) alignedtext
grestore
% node7->node8
gsave
1 setlinewidth
0 0 0 edgecolor
newpath 37 1742.34 moveto
37 1728.18 37 1712.14 37 1698.21 curveto
stroke
0 0 0 edgecolor
newpath 40.5 1698.04 moveto
37 1688.04 lineto
33.5 1698.04 lineto
closepath fill
1 setlinewidth
solid
0 0 0 edgecolor
newpath 40.5 1698.04 moveto
37 1688.04 lineto
33.5 1698.04 lineto
closepath stroke
0 0 0 edgecolor
14 /Times-Roman set_font
37 1710.9 moveto 10 (1) alignedtext
grestore
% node9
gsave
1 setlinewidth
0 0 0 nodecolor
37 1546 37.02 37.52 ellipse_path stroke
0 0 0 nodecolor
14 /Times-Roman set_font
18 1541.9 moveto 38 ([0, 1]) alignedtext
grestore
% node8->node9
gsave
1 setlinewidth
0 0 0 edgecolor
newpath 37 1637.9 moveto
37 1625.03 37 1608.9 37 1593.77 curveto
stroke
0 0 0 edgecolor
newpath 40.5 1593.51 moveto
37 1583.51 lineto
33.5 1593.51 lineto
closepath fill
1 setlinewidth
solid
0 0 0 edgecolor
newpath 40.5 1593.51 moveto
37 1583.51 lineto
33.5 1593.51 lineto
closepath stroke
0 0 0 edgecolor
14 /Times-Roman set_font
37 1606.9 moveto 10 (0) alignedtext
grestore
% node10
gsave
1 setlinewidth
0 0 0 nodecolor
37 1429 25.02 25.02 ellipse_path stroke
0 0 0 nodecolor
14 /Times-Roman set_font
27 1424.9 moveto 20 ([0]) alignedtext
grestore
% node9->node10
gsave
1 setlinewidth
0 0 0 edgecolor
newpath 37 1508.34 moveto
37 1494.18 37 1478.14 37 1464.21 curveto
stroke
0 0 0 edgecolor
newpath 40.5 1464.04 moveto
37 1454.04 lineto
33.5 1464.04 lineto
closepath fill
1 setlinewidth
solid
0 0 0 edgecolor
newpath 40.5 1464.04 moveto
37 1454.04 lineto
33.5 1464.04 lineto
closepath stroke
0 0 0 edgecolor
14 /Times-Roman set_font
37 1476.9 moveto 10 (1) alignedtext
grestore
% node11
gsave
1 setlinewidth
0 0 0 nodecolor
37 1312 37.02 37.52 ellipse_path stroke
0 0 0 nodecolor
14 /Times-Roman set_font
18 1307.9 moveto 38 ([0, 1]) alignedtext
grestore
% node10->node11
gsave
1 setlinewidth
0 0 0 edgecolor
newpath 37 1403.9 moveto
37 1391.03 37 1374.9 37 1359.77 curveto
stroke
0 0 0 edgecolor
newpath 40.5 1359.51 moveto
37 1349.51 lineto
33.5 1359.51 lineto
closepath fill
1 setlinewidth
solid
0 0 0 edgecolor
newpath 40.5 1359.51 moveto
37 1349.51 lineto
33.5 1359.51 lineto
closepath stroke
0 0 0 edgecolor
14 /Times-Roman set_font
37 1372.9 moveto 10 (0) alignedtext
grestore
% node12
gsave
1 setlinewidth
0 0 0 nodecolor
37 1195 25.02 25.02 ellipse_path stroke
0 0 0 nodecolor
14 /Times-Roman set_font
27 1190.9 moveto 20 ([0]) alignedtext
grestore
% node11->node12
gsave
1 setlinewidth
0 0 0 edgecolor
newpath 37 1274.34 moveto
37 1260.18 37 1244.14 37 1230.21 curveto
stroke
0 0 0 edgecolor
newpath 40.5 1230.04 moveto
37 1220.04 lineto
33.5 1230.04 lineto
closepath fill
1 setlinewidth
solid
0 0 0 edgecolor
newpath 40.5 1230.04 moveto
37 1220.04 lineto
33.5 1230.04 lineto
closepath stroke
0 0 0 edgecolor
14 /Times-Roman set_font
37 1242.9 moveto 10 (1) alignedtext
grestore
% node13
gsave
1 setlinewidth
0 0 0 nodecolor
37 1078 37.02 37.52 ellipse_path stroke
0 0 0 nodecolor
14 /Times-Roman set_font
18 1073.9 moveto 38 ([0, 1]) alignedtext
grestore
% node12->node13
gsave
1 setlinewidth
0 0 0 edgecolor
newpath 37 1169.9 moveto
37 1157.03 37 1140.9 37 1125.77 curveto
stroke
0 0 0 edgecolor
newpath 40.5 1125.51 moveto
37 1115.51 lineto
33.5 1125.51 lineto
closepath fill
1 setlinewidth
solid
0 0 0 edgecolor
newpath 40.5 1125.51 moveto
37 1115.51 lineto
33.5 1125.51 lineto
closepath stroke
0 0 0 edgecolor
14 /Times-Roman set_font
37 1138.9 moveto 10 (0) alignedtext
grestore
% node14
gsave
1 setlinewidth
0 0 0 nodecolor
37 961 25.02 25.02 ellipse_path stroke
0 0 0 nodecolor
14 /Times-Roman set_font
27 956.9 moveto 20 ([0]) alignedtext
grestore
% node13->node14
gsave
1 setlinewidth
0 0 0 edgecolor
newpath 37 1040.34 moveto
37 1026.18 37 1010.14 37 996.21 curveto
stroke
0 0 0 edgecolor
newpath 40.5 996.04 moveto
37 986.04 lineto
33.5 996.04 lineto
closepath fill
1 setlinewidth
solid
0 0 0 edgecolor
newpath 40.5 996.04 moveto
37 986.04 lineto
33.5 996.04 lineto
closepath stroke
0 0 0 edgecolor
14 /Times-Roman set_font
37 1008.9 moveto 10 (1) alignedtext
grestore
% node15
gsave
1 setlinewidth
0 0 0 nodecolor
37 844 37.02 37.52 ellipse_path stroke
0 0 0 nodecolor
14 /Times-Roman set_font
18 839.9 moveto 38 ([0, 1]) alignedtext
grestore
% node14->node15
gsave
1 setlinewidth
0 0 0 edgecolor
newpath 37 935.9 moveto
37 923.03 37 906.9 37 891.77 curveto
stroke
0 0 0 edgecolor
newpath 40.5 891.51 moveto
37 881.51 lineto
33.5 891.51 lineto
closepath fill
1 setlinewidth
solid
0 0 0 edgecolor
newpath 40.5 891.51 moveto
37 881.51 lineto
33.5 891.51 lineto
closepath stroke
0 0 0 edgecolor
14 /Times-Roman set_font
37 904.9 moveto 10 (0) alignedtext
grestore
% node16
gsave
1 setlinewidth
0 0 0 nodecolor
37 727 25.02 25.02 ellipse_path stroke
0 0 0 nodecolor
14 /Times-Roman set_font
27 722.9 moveto 20 ([0]) alignedtext
grestore
% node15->node16
gsave
1 setlinewidth
0 0 0 edgecolor
newpath 37 806.34 moveto
37 792.18 37 776.14 37 762.21 curveto
stroke
0 0 0 edgecolor
newpath 40.5 762.04 moveto
37 752.04 lineto
33.5 762.04 lineto
closepath fill
1 setlinewidth
solid
0 0 0 edgecolor
newpath 40.5 762.04 moveto
37 752.04 lineto
33.5 762.04 lineto
closepath stroke
0 0 0 edgecolor
14 /Times-Roman set_font
37 774.9 moveto 10 (1) alignedtext
grestore
% node17
gsave
1 setlinewidth
0 0 0 nodecolor
37 610 37.02 37.52 ellipse_path stroke
0 0 0 nodecolor
14 /Times-Roman set_font
18 605.9 moveto 38 ([0, 1]) alignedtext
grestore
% node16->node17
gsave
1 setlinewidth
0 0 0 edgecolor
newpath 37 701.9 moveto
37 689.03 37 672.9 37 657.77 curveto
stroke
0 0 0 edgecolor
newpath 40.5 657.51 moveto
37 647.51 lineto
33.5 657.51 lineto
closepath fill
1 setlinewidth
solid
0 0 0 edgecolor
newpath 40.5 657.51 moveto
37 647.51 lineto
33.5 657.51 lineto
closepath stroke
0 0 0 edgecolor
14 /Times-Roman set_font
37 670.9 moveto 10 (0) alignedtext
grestore
% node18
gsave
1 setlinewidth
0 0 0 nodecolor
37 493 25.02 25.02 ellipse_path stroke
0 0 0 nodecolor
14 /Times-Roman set_font
27 488.9 moveto 20 ([0]) alignedtext
grestore
% node17->node18
gsave
1 setlinewidth
0 0 0 edgecolor
newpath 37 572.34 moveto
37 558.18 37 542.14 37 528.21 curveto
stroke
0 0 0 edgecolor
newpath 40.5 528.04 moveto
37 518.04 lineto
33.5 528.04 lineto
closepath fill
1 setlinewidth
solid
0 0 0 edgecolor
newpath 40.5 528.04 moveto
37 518.04 lineto
33.5 528.04 lineto
closepath stroke
0 0 0 edgecolor
14 /Times-Roman set_font
37 540.9 moveto 10 (1) alignedtext
grestore
% node19
gsave
1 setlinewidth
0 0 0 nodecolor
37 376 37.02 37.52 ellipse_path stroke
0 0 0 nodecolor
14 /Times-Roman set_font
18 371.9 moveto 38 ([0, 1]) alignedtext
grestore
% node18->node19
gsave
1 setlinewidth
0 0 0 edgecolor
newpath 37 467.9 moveto
37 455.03 37 438.9 37 423.77 curveto
stroke
0 0 0 edgecolor
newpath 40.5 423.51 moveto
37 413.51 lineto
33.5 423.51 lineto
closepath fill
1 setlinewidth
solid
0 0 0 edgecolor
newpath 40.5 423.51 moveto
37 413.51 lineto
33.5 423.51 lineto
closepath stroke
0 0 0 edgecolor
14 /Times-Roman set_font
37 436.9 moveto 10 (0) alignedtext
grestore
% node20
gsave
1 setlinewidth
0 0 0 nodecolor
37 259 25.02 25.02 ellipse_path stroke
0 0 0 nodecolor
14 /Times-Roman set_font
27 254.9 moveto 20 ([0]) alignedtext
grestore
% node19->node20
gsave
1 setlinewidth
0 0 0 edgecolor
newpath 37 338.34 moveto
37 324.18 37 308.14 37 294.21 curveto
stroke
0 0 0 edgecolor
newpath 40.5 294.04 moveto
37 284.04 lineto
33.5 294.04 lineto
closepath fill
1 setlinewidth
solid
0 0 0 edgecolor
newpath 40.5 294.04 moveto
37 284.04 lineto
33.5 294.04 lineto
closepath stroke
0 0 0 edgecolor
14 /Times-Roman set_font
37 306.9 moveto 10 (1) alignedtext
grestore
% node21
gsave
1 setlinewidth
0 0 0 nodecolor
37 142 37.02 37.52 ellipse_path stroke
0 0 0 nodecolor
14 /Times-Roman set_font
18 137.9 moveto 38 ([0, 1]) alignedtext
grestore
% node20->node21
gsave
1 setlinewidth
0 0 0 edgecolor
newpath 37 233.9 moveto
37 221.03 37 204.9 37 189.77 curveto
stroke
0 0 0 edgecolor
newpath 40.5 189.51 moveto
37 179.51 lineto
33.5 189.51 lineto
closepath fill
1 setlinewidth
solid
0 0 0 edgecolor
newpath 40.5 189.51 moveto
37 179.51 lineto
33.5 189.51 lineto
closepath stroke
0 0 0 edgecolor
14 /Times-Roman set_font
37 202.9 moveto 10 (0) alignedtext
grestore
% node22
gsave
2 setlinewidth
bold
0 0 0 nodecolor
37 25 25.02 25.02 ellipse_path stroke
0 0 0 nodecolor
14 /Times-Roman set_font
27 20.9 moveto 20 ([0]) alignedtext
grestore
% node21->node22
gsave
1 setlinewidth
0 0 0 edgecolor
newpath 37 104.34 moveto
37 90.18 37 74.14 37 60.21 curveto
stroke
0 0 0 edgecolor
newpath 40.5 60.04 moveto
37 50.04 lineto
33.5 60.04 lineto
closepath fill
1 setlinewidth
solid
0 0 0 edgecolor
newpath 40.5 60.04 moveto
37 50.04 lineto
33.5 60.04 lineto
closepath stroke
0 0 0 edgecolor
14 /Times-Roman set_font
37 72.9 moveto 10 (1) alignedtext
grestore
endpage
showpage
grestore
%%PageTrailer
%%EndPage: 1
%%Trailer
%%Pages: 1
%%BoundingBox: 36 36 118 2676
end
restore
%%EOF
