%!PS-Adobe-3.0
%%Creator: graphviz version 2.26.3 (20100126.1600)
%%Title: message
%%Pages: (atend)
%%BoundingBox: (atend)
%%EndComments
save
%%BeginProlog
/DotDict 200 dict def
DotDict begin

/setupLatin1 {
mark
/EncodingVector 256 array def
 EncodingVector 0

ISOLatin1Encoding 0 255 getinterval putinterval
EncodingVector 45 /hyphen put

% Set up ISO Latin 1 character encoding
/starnetISO {
        dup dup findfont dup length dict begin
        { 1 index /FID ne { def }{ pop pop } ifelse
        } forall
        /Encoding EncodingVector def
        currentdict end definefont
} def
/Times-Roman starnetISO def
/Times-Italic starnetISO def
/Times-Bold starnetISO def
/Times-BoldItalic starnetISO def
/Helvetica starnetISO def
/Helvetica-Oblique starnetISO def
/Helvetica-Bold starnetISO def
/Helvetica-BoldOblique starnetISO def
/Courier starnetISO def
/Courier-Oblique starnetISO def
/Courier-Bold starnetISO def
/Courier-BoldOblique starnetISO def
cleartomark
} bind def

%%BeginResource: procset graphviz 0 0
/coord-font-family /Times-Roman def
/default-font-family /Times-Roman def
/coordfont coord-font-family findfont 8 scalefont def

/InvScaleFactor 1.0 def
/set_scale {
       dup 1 exch div /InvScaleFactor exch def
       scale
} bind def

% styles
/solid { [] 0 setdash } bind def
/dashed { [9 InvScaleFactor mul dup ] 0 setdash } bind def
/dotted { [1 InvScaleFactor mul 6 InvScaleFactor mul] 0 setdash } bind def
/invis {/fill {newpath} def /stroke {newpath} def /show {pop newpath} def} bind def
/bold { 2 setlinewidth } bind def
/filled { } bind def
/unfilled { } bind def
/rounded { } bind def
/diagonals { } bind def

% hooks for setting color 
/nodecolor { sethsbcolor } bind def
/edgecolor { sethsbcolor } bind def
/graphcolor { sethsbcolor } bind def
/nopcolor {pop pop pop} bind def

/beginpage {	% i j npages
	/npages exch def
	/j exch def
	/i exch def
	/str 10 string def
	npages 1 gt {
		gsave
			coordfont setfont
			0 0 moveto
			(\() show i str cvs show (,) show j str cvs show (\)) show
		grestore
	} if
} bind def

/set_font {
	findfont exch
	scalefont setfont
} def

% draw text fitted to its expected width
/alignedtext {			% width text
	/text exch def
	/width exch def
	gsave
		width 0 gt {
			[] 0 setdash
			text stringwidth pop width exch sub text length div 0 text ashow
		} if
	grestore
} def

/boxprim {				% xcorner ycorner xsize ysize
		4 2 roll
		moveto
		2 copy
		exch 0 rlineto
		0 exch rlineto
		pop neg 0 rlineto
		closepath
} bind def

/ellipse_path {
	/ry exch def
	/rx exch def
	/y exch def
	/x exch def
	matrix currentmatrix
	newpath
	x y translate
	rx ry scale
	0 0 1 0 360 arc
	setmatrix
} bind def

/endpage { showpage } bind def
/showpage { } def

/layercolorseq
	[	% layer color sequence - darkest to lightest
		[0 0 0]
		[.2 .8 .8]
		[.4 .8 .8]
		[.6 .8 .8]
		[.8 .8 .8]
	]
def

/layerlen layercolorseq length def

/setlayer {/maxlayer exch def /curlayer exch def
	layercolorseq curlayer 1 sub layerlen mod get
	aload pop sethsbcolor
	/nodecolor {nopcolor} def
	/edgecolor {nopcolor} def
	/graphcolor {nopcolor} def
} bind def

/onlayer { curlayer ne {invis} if } def

/onlayers {
	/myupper exch def
	/mylower exch def
	curlayer mylower lt
	curlayer myupper gt
	or
	{invis} if
} def

/curlayer 0 def

%%EndResource
%%EndProlog
%%BeginSetup
14 default-font-family set_font
1 setmiterlimit
% /arrowlength 10 def
% /arrowwidth 5 def

% make sure pdfmark is harmless for PS-interpreters other than Distiller
/pdfmark where {pop} {userdict /pdfmark /cleartomark load put} ifelse
% make '<<' and '>>' safe on PS Level 1 devices
/languagelevel where {pop languagelevel}{1} ifelse
2 lt {
    userdict (<<) cvn ([) cvn load put
    userdict (>>) cvn ([) cvn load put
} if

%%EndSetup
setupLatin1
%%Page: 1 1
%%PageBoundingBox: 36 36 92 2250
%%PageOrientation: Portrait
0 0 1 beginpage
gsave
36 36 56 2214 boxprim clip newpath
1 1 set_scale 0 rotate 40 41 translate
% node0
gsave
1 setlinewidth
0 0 0 nodecolor
24 2184 18.07 18.07 ellipse_path stroke
1 setlinewidth
0 0 0 nodecolor
24 2184 22.07 22.07 ellipse_path stroke
0 0 0 nodecolor
14 /Times-Roman set_font
19 2179.9 moveto 10 (0) alignedtext
grestore
% node1
gsave
1 setlinewidth
0 0 0 nodecolor
24 2090 18.07 18.07 ellipse_path stroke
0 0 0 nodecolor
14 /Times-Roman set_font
19 2085.9 moveto 10 (1) alignedtext
grestore
% node0->node1
gsave
1 setlinewidth
0 0 0 edgecolor
newpath 24 2161.72 moveto
24 2148.66 24 2132.03 24 2118.07 curveto
stroke
0 0 0 edgecolor
newpath 27.5 2118.03 moveto
24 2108.03 lineto
20.5 2118.03 lineto
closepath fill
1 setlinewidth
solid
0 0 0 edgecolor
newpath 27.5 2118.03 moveto
24 2108.03 lineto
20.5 2118.03 lineto
closepath stroke
0 0 0 edgecolor
14 /Times-Roman set_font
24 2130.9 moveto 10 (0) alignedtext
grestore
% node2
gsave
1 setlinewidth
0 0 0 nodecolor
24 2000 18.07 18.07 ellipse_path stroke
0 0 0 nodecolor
14 /Times-Roman set_font
19 1995.9 moveto 10 (2) alignedtext
grestore
% node1->node2
gsave
1 setlinewidth
0 0 0 edgecolor
newpath 24 2071.79 moveto
24 2059.34 24 2042.61 24 2028.42 curveto
stroke
0 0 0 edgecolor
newpath 27.5 2028.19 moveto
24 2018.19 lineto
20.5 2028.19 lineto
closepath fill
1 setlinewidth
solid
0 0 0 edgecolor
newpath 27.5 2028.19 moveto
24 2018.19 lineto
20.5 2028.19 lineto
closepath stroke
0 0 0 edgecolor
14 /Times-Roman set_font
24 2040.9 moveto 10 (1) alignedtext
grestore
% node3
gsave
1 setlinewidth
0 0 0 nodecolor
24 1910 18.07 18.07 ellipse_path stroke
0 0 0 nodecolor
14 /Times-Roman set_font
19 1905.9 moveto 10 (3) alignedtext
grestore
% node2->node3
gsave
1 setlinewidth
0 0 0 edgecolor
newpath 24 1981.79 moveto
24 1969.34 24 1952.61 24 1938.42 curveto
stroke
0 0 0 edgecolor
newpath 27.5 1938.19 moveto
24 1928.19 lineto
20.5 1938.19 lineto
closepath fill
1 setlinewidth
solid
0 0 0 edgecolor
newpath 27.5 1938.19 moveto
24 1928.19 lineto
20.5 1938.19 lineto
closepath stroke
0 0 0 edgecolor
14 /Times-Roman set_font
24 1950.9 moveto 10 (0) alignedtext
grestore
% node4
gsave
1 setlinewidth
0 0 0 nodecolor
24 1820 18.07 18.07 ellipse_path stroke
0 0 0 nodecolor
14 /Times-Roman set_font
19 1815.9 moveto 10 (4) alignedtext
grestore
% node3->node4
gsave
1 setlinewidth
0 0 0 edgecolor
newpath 24 1891.79 moveto
24 1879.34 24 1862.61 24 1848.42 curveto
stroke
0 0 0 edgecolor
newpath 27.5 1848.19 moveto
24 1838.19 lineto
20.5 1848.19 lineto
closepath fill
1 setlinewidth
solid
0 0 0 edgecolor
newpath 27.5 1848.19 moveto
24 1838.19 lineto
20.5 1848.19 lineto
closepath stroke
0 0 0 edgecolor
14 /Times-Roman set_font
24 1860.9 moveto 10 (1) alignedtext
grestore
% node5
gsave
1 setlinewidth
0 0 0 nodecolor
24 1730 18.07 18.07 ellipse_path stroke
0 0 0 nodecolor
14 /Times-Roman set_font
19 1725.9 moveto 10 (5) alignedtext
grestore
% node4->node5
gsave
1 setlinewidth
0 0 0 edgecolor
newpath 24 1801.79 moveto
24 1789.34 24 1772.61 24 1758.42 curveto
stroke
0 0 0 edgecolor
newpath 27.5 1758.19 moveto
24 1748.19 lineto
20.5 1758.19 lineto
closepath fill
1 setlinewidth
solid
0 0 0 edgecolor
newpath 27.5 1758.19 moveto
24 1748.19 lineto
20.5 1758.19 lineto
closepath stroke
0 0 0 edgecolor
14 /Times-Roman set_font
24 1770.9 moveto 10 (0) alignedtext
grestore
% node6
gsave
1 setlinewidth
0 0 0 nodecolor
24 1640 18.07 18.07 ellipse_path stroke
0 0 0 nodecolor
14 /Times-Roman set_font
19 1635.9 moveto 10 (6) alignedtext
grestore
% node5->node6
gsave
1 setlinewidth
0 0 0 edgecolor
newpath 24 1711.79 moveto
24 1699.34 24 1682.61 24 1668.42 curveto
stroke
0 0 0 edgecolor
newpath 27.5 1668.19 moveto
24 1658.19 lineto
20.5 1668.19 lineto
closepath fill
1 setlinewidth
solid
0 0 0 edgecolor
newpath 27.5 1668.19 moveto
24 1658.19 lineto
20.5 1668.19 lineto
closepath stroke
0 0 0 edgecolor
14 /Times-Roman set_font
24 1680.9 moveto 10 (1) alignedtext
grestore
% node7
gsave
1 setlinewidth
0 0 0 nodecolor
24 1550 18.07 18.07 ellipse_path stroke
0 0 0 nodecolor
14 /Times-Roman set_font
19 1545.9 moveto 10 (7) alignedtext
grestore
% node6->node7
gsave
1 setlinewidth
0 0 0 edgecolor
newpath 24 1621.79 moveto
24 1609.34 24 1592.61 24 1578.42 curveto
stroke
0 0 0 edgecolor
newpath 27.5 1578.19 moveto
24 1568.19 lineto
20.5 1578.19 lineto
closepath fill
1 setlinewidth
solid
0 0 0 edgecolor
newpath 27.5 1578.19 moveto
24 1568.19 lineto
20.5 1578.19 lineto
closepath stroke
0 0 0 edgecolor
14 /Times-Roman set_font
24 1590.9 moveto 10 (0) alignedtext
grestore
% node8
gsave
1 setlinewidth
0 0 0 nodecolor
24 1460 18.07 18.07 ellipse_path stroke
0 0 0 nodecolor
14 /Times-Roman set_font
19 1455.9 moveto 10 (8) alignedtext
grestore
% node7->node8
gsave
1 setlinewidth
0 0 0 edgecolor
newpath 24 1531.79 moveto
24 1519.34 24 1502.61 24 1488.42 curveto
stroke
0 0 0 edgecolor
newpath 27.5 1488.19 moveto
24 1478.19 lineto
20.5 1488.19 lineto
closepath fill
1 setlinewidth
solid
0 0 0 edgecolor
newpath 27.5 1488.19 moveto
24 1478.19 lineto
20.5 1488.19 lineto
closepath stroke
0 0 0 edgecolor
14 /Times-Roman set_font
24 1500.9 moveto 10 (1) alignedtext
grestore
% node9
gsave
1 setlinewidth
0 0 0 nodecolor
24 1370 18.07 18.07 ellipse_path stroke
0 0 0 nodecolor
14 /Times-Roman set_font
19 1365.9 moveto 10 (9) alignedtext
grestore
% node8->node9
gsave
1 setlinewidth
0 0 0 edgecolor
newpath 24 1441.79 moveto
24 1429.34 24 1412.61 24 1398.42 curveto
stroke
0 0 0 edgecolor
newpath 27.5 1398.19 moveto
24 1388.19 lineto
20.5 1398.19 lineto
closepath fill
1 setlinewidth
solid
0 0 0 edgecolor
newpath 27.5 1398.19 moveto
24 1388.19 lineto
20.5 1398.19 lineto
closepath stroke
0 0 0 edgecolor
14 /Times-Roman set_font
24 1410.9 moveto 10 (0) alignedtext
grestore
% node10
gsave
1 setlinewidth
0 0 0 nodecolor
24 1273 23.82 24.32 ellipse_path stroke
0 0 0 nodecolor
14 /Times-Roman set_font
14.5 1268.9 moveto 19 (10) alignedtext
grestore
% node9->node10
gsave
1 setlinewidth
0 0 0 edgecolor
newpath 24 1351.76 moveto
24 1339.48 24 1322.9 24 1308.11 curveto
stroke
0 0 0 edgecolor
newpath 27.5 1307.75 moveto
24 1297.75 lineto
20.5 1307.75 lineto
closepath fill
1 setlinewidth
solid
0 0 0 edgecolor
newpath 27.5 1307.75 moveto
24 1297.75 lineto
20.5 1307.75 lineto
closepath stroke
0 0 0 edgecolor
14 /Times-Roman set_font
24 1320.9 moveto 10 (1) alignedtext
grestore
% node11
gsave
1 setlinewidth
0 0 0 nodecolor
24 1169 23.82 24.32 ellipse_path stroke
0 0 0 nodecolor
14 /Times-Roman set_font
14.5 1164.9 moveto 19 (11) alignedtext
grestore
% node10->node11
gsave
1 setlinewidth
0 0 0 edgecolor
newpath 24 1248.35 moveto
24 1235.11 24 1218.56 24 1204 curveto
stroke
0 0 0 edgecolor
newpath 27.5 1203.83 moveto
24 1193.83 lineto
20.5 1203.83 lineto
closepath fill
1 setlinewidth
solid
0 0 0 edgecolor
newpath 27.5 1203.83 moveto
24 1193.83 lineto
20.5 1203.83 lineto
closepath stroke
0 0 0 edgecolor
14 /Times-Roman set_font
24 1216.9 moveto 10 (0) alignedtext
grestore
% node12
gsave
1 setlinewidth
0 0 0 nodecolor
24 1065 23.82 24.32 ellipse_path stroke
0 0 0 nodecolor
14 /Times-Roman set_font
14.5 1060.9 moveto 19 (12) alignedtext
grestore
% node11->node12
gsave
1 setlinewidth
0 0 0 edgecolor
newpath 24 1144.35 moveto
24 1131.11 24 1114.56 24 1100 curveto
stroke
0 0 0 edgecolor
newpath 27.5 1099.83 moveto
24 1089.83 lineto
20.5 1099.83 lineto
closepath fill
1 setlinewidth
solid
0 0 0 edgecolor
newpath 27.5 1099.83 moveto
24 1089.83 lineto
20.5 1099.83 lineto
closepath stroke
0 0 0 edgecolor
14 /Times-Roman set_font
24 1112.9 moveto 10 (1) alignedtext
grestore
% node13
gsave
1 setlinewidth
0 0 0 nodecolor
24 961 23.82 24.32 ellipse_path stroke
0 0 0 nodecolor
14 /Times-Roman set_font
14.5 956.9 moveto 19 (13) alignedtext
grestore
% node12->node13
gsave
1 setlinewidth
0 0 0 edgecolor
newpath 24 1040.35 moveto
24 1027.11 24 1010.56 24 996 curveto
stroke
0 0 0 edgecolor
newpath 27.5 995.83 moveto
24 985.83 lineto
20.5 995.83 lineto
closepath fill
1 setlinewidth
solid
0 0 0 edgecolor
newpath 27.5 995.83 moveto
24 985.83 lineto
20.5 995.83 lineto
closepath stroke
0 0 0 edgecolor
14 /Times-Roman set_font
24 1008.9 moveto 10 (0) alignedtext
grestore
% node14
gsave
1 setlinewidth
0 0 0 nodecolor
24 857 23.82 24.32 ellipse_path stroke
0 0 0 nodecolor
14 /Times-Roman set_font
14.5 852.9 moveto 19 (14) alignedtext
grestore
% node13->node14
gsave
1 setlinewidth
0 0 0 edgecolor
newpath 24 936.35 moveto
24 923.11 24 906.56 24 892 curveto
stroke
0 0 0 edgecolor
newpath 27.5 891.83 moveto
24 881.83 lineto
20.5 891.83 lineto
closepath fill
1 setlinewidth
solid
0 0 0 edgecolor
newpath 27.5 891.83 moveto
24 881.83 lineto
20.5 891.83 lineto
closepath stroke
0 0 0 edgecolor
14 /Times-Roman set_font
24 904.9 moveto 10 (1) alignedtext
grestore
% node15
gsave
1 setlinewidth
0 0 0 nodecolor
24 753 23.82 24.32 ellipse_path stroke
0 0 0 nodecolor
14 /Times-Roman set_font
14.5 748.9 moveto 19 (15) alignedtext
grestore
% node14->node15
gsave
1 setlinewidth
0 0 0 edgecolor
newpath 24 832.35 moveto
24 819.11 24 802.56 24 788 curveto
stroke
0 0 0 edgecolor
newpath 27.5 787.83 moveto
24 777.83 lineto
20.5 787.83 lineto
closepath fill
1 setlinewidth
solid
0 0 0 edgecolor
newpath 27.5 787.83 moveto
24 777.83 lineto
20.5 787.83 lineto
closepath stroke
0 0 0 edgecolor
14 /Times-Roman set_font
24 800.9 moveto 10 (0) alignedtext
grestore
% node16
gsave
1 setlinewidth
0 0 0 nodecolor
24 649 23.82 24.32 ellipse_path stroke
0 0 0 nodecolor
14 /Times-Roman set_font
14.5 644.9 moveto 19 (16) alignedtext
grestore
% node15->node16
gsave
1 setlinewidth
0 0 0 edgecolor
newpath 24 728.35 moveto
24 715.11 24 698.56 24 684 curveto
stroke
0 0 0 edgecolor
newpath 27.5 683.83 moveto
24 673.83 lineto
20.5 683.83 lineto
closepath fill
1 setlinewidth
solid
0 0 0 edgecolor
newpath 27.5 683.83 moveto
24 673.83 lineto
20.5 683.83 lineto
closepath stroke
0 0 0 edgecolor
14 /Times-Roman set_font
24 696.9 moveto 10 (1) alignedtext
grestore
% node17
gsave
1 setlinewidth
0 0 0 nodecolor
24 545 23.82 24.32 ellipse_path stroke
0 0 0 nodecolor
14 /Times-Roman set_font
14.5 540.9 moveto 19 (17) alignedtext
grestore
% node16->node17
gsave
1 setlinewidth
0 0 0 edgecolor
newpath 24 624.35 moveto
24 611.11 24 594.56 24 580 curveto
stroke
0 0 0 edgecolor
newpath 27.5 579.83 moveto
24 569.83 lineto
20.5 579.83 lineto
closepath fill
1 setlinewidth
solid
0 0 0 edgecolor
newpath 27.5 579.83 moveto
24 569.83 lineto
20.5 579.83 lineto
closepath stroke
0 0 0 edgecolor
14 /Times-Roman set_font
24 592.9 moveto 10 (0) alignedtext
grestore
% node18
gsave
1 setlinewidth
0 0 0 nodecolor
24 441 23.82 24.32 ellipse_path stroke
0 0 0 nodecolor
14 /Times-Roman set_font
14.5 436.9 moveto 19 (18) alignedtext
grestore
% node17->node18
gsave
1 setlinewidth
0 0 0 edgecolor
newpath 24 520.35 moveto
24 507.11 24 490.56 24 476 curveto
stroke
0 0 0 edgecolor
newpath 27.5 475.83 moveto
24 465.83 lineto
20.5 475.83 lineto
closepath fill
1 setlinewidth
solid
0 0 0 edgecolor
newpath 27.5 475.83 moveto
24 465.83 lineto
20.5 475.83 lineto
closepath stroke
0 0 0 edgecolor
14 /Times-Roman set_font
24 488.9 moveto 10 (1) alignedtext
grestore
% node19
gsave
1 setlinewidth
0 0 0 nodecolor
24 337 23.82 24.32 ellipse_path stroke
0 0 0 nodecolor
14 /Times-Roman set_font
14.5 332.9 moveto 19 (19) alignedtext
grestore
% node18->node19
gsave
1 setlinewidth
0 0 0 edgecolor
newpath 24 416.35 moveto
24 403.11 24 386.56 24 372 curveto
stroke
0 0 0 edgecolor
newpath 27.5 371.83 moveto
24 361.83 lineto
20.5 371.83 lineto
closepath fill
1 setlinewidth
solid
0 0 0 edgecolor
newpath 27.5 371.83 moveto
24 361.83 lineto
20.5 371.83 lineto
closepath stroke
0 0 0 edgecolor
14 /Times-Roman set_font
24 384.9 moveto 10 (0) alignedtext
grestore
% node20
gsave
1 setlinewidth
0 0 0 nodecolor
24 233 23.82 24.32 ellipse_path stroke
0 0 0 nodecolor
14 /Times-Roman set_font
14.5 228.9 moveto 19 (20) alignedtext
grestore
% node19->node20
gsave
1 setlinewidth
0 0 0 edgecolor
newpath 24 312.35 moveto
24 299.11 24 282.56 24 268 curveto
stroke
0 0 0 edgecolor
newpath 27.5 267.83 moveto
24 257.83 lineto
20.5 267.83 lineto
closepath fill
1 setlinewidth
solid
0 0 0 edgecolor
newpath 27.5 267.83 moveto
24 257.83 lineto
20.5 267.83 lineto
closepath stroke
0 0 0 edgecolor
14 /Times-Roman set_font
24 280.9 moveto 10 (1) alignedtext
grestore
% node21
gsave
1 setlinewidth
0 0 0 nodecolor
24 129 23.82 24.32 ellipse_path stroke
0 0 0 nodecolor
14 /Times-Roman set_font
14.5 124.9 moveto 19 (21) alignedtext
grestore
% node20->node21
gsave
1 setlinewidth
0 0 0 edgecolor
newpath 24 208.35 moveto
24 195.11 24 178.56 24 164 curveto
stroke
0 0 0 edgecolor
newpath 27.5 163.83 moveto
24 153.83 lineto
20.5 163.83 lineto
closepath fill
1 setlinewidth
solid
0 0 0 edgecolor
newpath 27.5 163.83 moveto
24 153.83 lineto
20.5 163.83 lineto
closepath stroke
0 0 0 edgecolor
14 /Times-Roman set_font
24 176.9 moveto 10 (0) alignedtext
grestore
% node22
gsave
2 setlinewidth
bold
0 0 0 nodecolor
24 25 23.82 24.32 ellipse_path stroke
0 0 0 nodecolor
14 /Times-Roman set_font
14.5 20.9 moveto 19 (22) alignedtext
grestore
% node21->node22
gsave
1 setlinewidth
0 0 0 edgecolor
newpath 24 104.35 moveto
24 91.11 24 74.56 24 60 curveto
stroke
0 0 0 edgecolor
newpath 27.5 59.83 moveto
24 49.83 lineto
20.5 59.83 lineto
closepath fill
1 setlinewidth
solid
0 0 0 edgecolor
newpath 27.5 59.83 moveto
24 49.83 lineto
20.5 59.83 lineto
closepath stroke
0 0 0 edgecolor
14 /Times-Roman set_font
24 72.9 moveto 10 (1) alignedtext
grestore
endpage
showpage
grestore
%%PageTrailer
%%EndPage: 1
%%Trailer
%%Pages: 1
%%BoundingBox: 36 36 92 2250
end
restore
%%EOF
