digraph message{
node0 [label="0" ,shape=doublecircle ];
node1 [label="1" ,shape=circle ];
node2 [label="2" ,shape=circle ];
node3 [label="3" ,shape=circle ];
node4 [label="4" ,shape=circle ];
node5 [label="5" ,shape=circle ];
node6 [label="6" ,shape=circle ];
node7 [label="7" ,shape=circle ];
node8 [label="8" ,shape=circle ];
node9 [label="9" ,shape=circle ];
node10 [label="10" ,shape=circle ];
node11 [label="11" ,shape=circle ];
node12 [label="12" ,shape=circle ];
node13 [label="13" ,shape=circle ];
node14 [label="14" ,shape=circle ];
node15 [label="15" ,shape=circle ];
node16 [label="16" ,shape=circle ];
node17 [label="17" ,shape=circle ];
node18 [label="18" ,shape=circle ];
node19 [label="19" ,shape=circle ];
node20 [label="20" ,shape=circle ];
node21 [label="21" ,shape=circle ];
node22 [label="22" ,shape=circle,style=bold ];
node0 -> node1 [label="0"];
node1 -> node2 [label="1"];
node2 -> node3 [label="0"];
node3 -> node4 [label="1"];
node4 -> node5 [label="0"];
node5 -> node6 [label="1"];
node6 -> node7 [label="0"];
node7 -> node8 [label="1"];
node8 -> node9 [label="0"];
node9 -> node10 [label="1"];
node10 -> node11 [label="0"];
node11 -> node12 [label="1"];
node12 -> node13 [label="0"];
node13 -> node14 [label="1"];
node14 -> node15 [label="0"];
node15 -> node16 [label="1"];
node16 -> node17 [label="0"];
node17 -> node18 [label="1"];
node18 -> node19 [label="0"];
node19 -> node20 [label="1"];
node20 -> node21 [label="0"];
node21 -> node22 [label="1"];
}
