digraph message{
node0 [label="15" ,shape=doublecircle ];
node1 [label="11 15" ,shape=circle ];
node2 [label="10 11 15" ,shape=circle ];
node387 [label="0 1 4 5 6 7 10 11 12 15 16 17 18 19 21 22" ,shape=circle ];
node390 [label="0 1 2 4 5 6 7 9 10 11 12 15 16 17 18 19 21 22" ,shape=circle ];
node391 [label="0 1 4 5 6 7 10 11 12 13 15 16 17 18 19 21 22" ,shape=circle ];
node393 [label="0 1 4 5 6 7 10 11 12 15 17 19 21 22" ,shape=circle ];
node394 [label="" ,shape=circle,style=bold ];
node13 [label="0 3 5 10 11 15" ,shape=circle ];
node14 [label="0 3 5 8 10 11 15" ,shape=circle ];
node210 [label="0 5 10 11 15" ,shape=circle ];
node376 [label="0 1 4 5 6 7 10 11 12 14 15 17 19 20 21 22" ,shape=circle ];
node384 [label="0 1 4 5 6 7 10 11 12 14 15 17 19 21 22" ,shape=circle ];
node0 -> node1 [label="15"];
node1 -> node2 [label="11"];
node2 -> node210 [label="10"];
node387 -> node390 [label="16"];
node387 -> node391 [label="18"];
node390 -> node391 [label="9"];
node390 -> node390 [label="2"];
node391 -> node393 [label="13"];
node393 -> node393 [label="1"];
node393 -> node393 [label="4"];
node393 -> node394 [label="6"];
node393 -> node384 [label="7"];
node393 -> node387 [label="12"];
node393 -> node376 [label="17"];
node393 -> node393 [label="19"];
node393 -> node393 [label="21"];
node393 -> node384 [label="22"];
node13 -> node14 [label="3"];
node14 -> node210 [label="8"];
node210 -> node393 [label="0"];
node210 -> node13 [label="5"];
node376 -> node393 [label="20"];
node376 -> node393 [label="14"];
node384 -> node393 [label="1"];
node384 -> node393 [label="14"];
}
