%!PS-Adobe-3.0 EPSF-3.0
%%Creator: Graphviz version 2.20.2 (Tue Mar  2 19:03:41 UTC 2010)
%%For: (pmilani) Paolo,,,
%%Title: message
%%Pages: (atend)
%%BoundingBox: (atend)
%%EndComments
save
%%BeginProlog
/DotDict 200 dict def
DotDict begin

/setupLatin1 {
mark
/EncodingVector 256 array def
 EncodingVector 0

ISOLatin1Encoding 0 255 getinterval putinterval
EncodingVector 45 /hyphen put

% Set up ISO Latin 1 character encoding
/starnetISO {
        dup dup findfont dup length dict begin
        { 1 index /FID ne { def }{ pop pop } ifelse
        } forall
        /Encoding EncodingVector def
        currentdict end definefont
} def
/Times-Roman starnetISO def
/Times-Italic starnetISO def
/Times-Bold starnetISO def
/Times-BoldItalic starnetISO def
/Helvetica starnetISO def
/Helvetica-Oblique starnetISO def
/Helvetica-Bold starnetISO def
/Helvetica-BoldOblique starnetISO def
/Courier starnetISO def
/Courier-Oblique starnetISO def
/Courier-Bold starnetISO def
/Courier-BoldOblique starnetISO def
cleartomark
} bind def

%%BeginResource: procset graphviz 0 0
/coord-font-family /Times-Roman def
/default-font-family /Times-Roman def
/coordfont coord-font-family findfont 8 scalefont def

/InvScaleFactor 1.0 def
/set_scale {
       dup 1 exch div /InvScaleFactor exch def
       scale
} bind def

% styles
/solid { [] 0 setdash } bind def
/dashed { [9 InvScaleFactor mul dup ] 0 setdash } bind def
/dotted { [1 InvScaleFactor mul 6 InvScaleFactor mul] 0 setdash } bind def
/invis {/fill {newpath} def /stroke {newpath} def /show {pop newpath} def} bind def
/bold { 2 setlinewidth } bind def
/filled { } bind def
/unfilled { } bind def
/rounded { } bind def
/diagonals { } bind def

% hooks for setting color 
/nodecolor { sethsbcolor } bind def
/edgecolor { sethsbcolor } bind def
/graphcolor { sethsbcolor } bind def
/nopcolor {pop pop pop} bind def

/beginpage {	% i j npages
	/npages exch def
	/j exch def
	/i exch def
	/str 10 string def
	npages 1 gt {
		gsave
			coordfont setfont
			0 0 moveto
			(\() show i str cvs show (,) show j str cvs show (\)) show
		grestore
	} if
} bind def

/set_font {
	findfont exch
	scalefont setfont
} def

% draw text fitted to its expected width
/alignedtext {			% width text
	/text exch def
	/width exch def
	gsave
		width 0 gt {
			[] 0 setdash
			text stringwidth pop width exch sub text length div 0 text ashow
		} if
	grestore
} def

/boxprim {				% xcorner ycorner xsize ysize
		4 2 roll
		moveto
		2 copy
		exch 0 rlineto
		0 exch rlineto
		pop neg 0 rlineto
		closepath
} bind def

/ellipse_path {
	/ry exch def
	/rx exch def
	/y exch def
	/x exch def
	matrix currentmatrix
	newpath
	x y translate
	rx ry scale
	0 0 1 0 360 arc
	setmatrix
} bind def

/endpage { showpage } bind def
/showpage { } def

/layercolorseq
	[	% layer color sequence - darkest to lightest
		[0 0 0]
		[.2 .8 .8]
		[.4 .8 .8]
		[.6 .8 .8]
		[.8 .8 .8]
	]
def

/layerlen layercolorseq length def

/setlayer {/maxlayer exch def /curlayer exch def
	layercolorseq curlayer 1 sub layerlen mod get
	aload pop sethsbcolor
	/nodecolor {nopcolor} def
	/edgecolor {nopcolor} def
	/graphcolor {nopcolor} def
} bind def

/onlayer { curlayer ne {invis} if } def

/onlayers {
	/myupper exch def
	/mylower exch def
	curlayer mylower lt
	curlayer myupper gt
	or
	{invis} if
} def

/curlayer 0 def

%%EndResource
%%EndProlog
%%BeginSetup
14 default-font-family set_font
1 setmiterlimit
% /arrowlength 10 def
% /arrowwidth 5 def

% make sure pdfmark is harmless for PS-interpreters other than Distiller
/pdfmark where {pop} {userdict /pdfmark /cleartomark load put} ifelse
% make '<<' and '>>' safe on PS Level 1 devices
/languagelevel where {pop languagelevel}{1} ifelse
2 lt {
    userdict (<<) cvn ([) cvn load put
    userdict (>>) cvn ([) cvn load put
} if

%%EndSetup
setupLatin1
%%Page: 1 1
%%PageBoundingBox: 36 36 1785 2580
%%PageOrientation: Portrait
0 0 1 beginpage
gsave
36 36 1749 2544 boxprim clip newpath
1 1 set_scale 0 rotate 40 40 translate
% node0
gsave
1 setlinewidth
0.000 0.000 0.000 nodecolor
202 2509 23.2 23.2 ellipse_path stroke
1 setlinewidth
0.000 0.000 0.000 nodecolor
202 2509 27.12 27.12 ellipse_path stroke
0.000 0.000 0.000 nodecolor
14 /Times-Roman set_font
193 2504.9 moveto 18 (15) alignedtext
grestore
% node1
gsave
1 setlinewidth
0.000 0.000 0.000 nodecolor
202 2389 39.11 39.11 ellipse_path stroke
0.000 0.000 0.000 nodecolor
14 /Times-Roman set_font
181.5 2384.9 moveto 41 (11 15) alignedtext
grestore
% node0->node1
gsave
1 setlinewidth
0.000 0.000 0.000 edgecolor
newpath 202 2482 moveto
202 2469 202 2453 202 2438 curveto
stroke
0.000 0.000 0.000 edgecolor
newpath 205.5 2438 moveto
202 2428 lineto
198.5 2438 lineto
closepath fill
1 setlinewidth
solid
0.000 0.000 0.000 edgecolor
newpath 205.5 2438 moveto
202 2428 lineto
198.5 2438 lineto
closepath stroke
0.000 0.000 0.000 edgecolor
14 /Times-Roman set_font
202 2450.9 moveto 18 (15) alignedtext
grestore
% node2
gsave
1 setlinewidth
0.000 0.000 0.000 nodecolor
202 2241 54.9 54.9 ellipse_path stroke
0.000 0.000 0.000 nodecolor
14 /Times-Roman set_font
170.5 2236.9 moveto 63 (10 11 15) alignedtext
grestore
% node1->node2
gsave
1 setlinewidth
0.000 0.000 0.000 edgecolor
newpath 202 2350 moveto
202 2337 202 2321 202 2306 curveto
stroke
0.000 0.000 0.000 edgecolor
newpath 205.5 2306 moveto
202 2296 lineto
198.5 2306 lineto
closepath fill
1 setlinewidth
solid
0.000 0.000 0.000 edgecolor
newpath 205.5 2306 moveto
202 2296 lineto
198.5 2306 lineto
closepath stroke
0.000 0.000 0.000 edgecolor
14 /Times-Roman set_font
202 2318.9 moveto 18 (11) alignedtext
grestore
% node210
gsave
1 setlinewidth
0.000 0.000 0.000 nodecolor
202 2059 73.16 73.16 ellipse_path stroke
0.000 0.000 0.000 nodecolor
14 /Times-Roman set_font
157 2054.9 moveto 90 (0 5 10 11 15) alignedtext
grestore
% node2->node210
gsave
1 setlinewidth
0.000 0.000 0.000 edgecolor
newpath 202 2186 moveto
202 2172 202 2157 202 2142 curveto
stroke
0.000 0.000 0.000 edgecolor
newpath 205.5 2142 moveto
202 2132 lineto
198.5 2142 lineto
closepath fill
1 setlinewidth
solid
0.000 0.000 0.000 edgecolor
newpath 205.5 2142 moveto
202 2132 lineto
198.5 2142 lineto
closepath stroke
0.000 0.000 0.000 edgecolor
14 /Times-Roman set_font
202 2154.9 moveto 18 (10) alignedtext
grestore
% node387
gsave
1 setlinewidth
0.000 0.000 0.000 nodecolor
1403 1279 220.97 220.97 ellipse_path stroke
0.000 0.000 0.000 nodecolor
14 /Times-Roman set_font
1252 1274.9 moveto 302 (0 1 4 5 6 7 10 11 12 15 16 17 18 19 21 22) alignedtext
grestore
% node390
gsave
1 setlinewidth
0.000 0.000 0.000 nodecolor
1475 765 239.23 239.23 ellipse_path stroke
0.000 0.000 0.000 nodecolor
14 /Times-Roman set_font
1310.5 760.9 moveto 329 (0 1 2 4 5 6 7 9 10 11 12 15 16 17 18 19 21 22) alignedtext
grestore
% node387->node390
gsave
1 setlinewidth
0.000 0.000 0.000 edgecolor
newpath 1434 1060 moveto
1436 1044 1438 1028 1440 1012 curveto
stroke
0.000 0.000 0.000 edgecolor
newpath 1443.47 1012.49 moveto
1442 1002 lineto
1436.61 1011.12 lineto
closepath fill
1 setlinewidth
solid
0.000 0.000 0.000 edgecolor
newpath 1443.47 1012.49 moveto
1442 1002 lineto
1436.61 1011.12 lineto
closepath stroke
0.000 0.000 0.000 edgecolor
14 /Times-Roman set_font
1438 1026.9 moveto 18 (16) alignedtext
grestore
% node391
gsave
1 setlinewidth
0.000 0.000 0.000 nodecolor
1200 236 235.76 235.76 ellipse_path stroke
0.000 0.000 0.000 nodecolor
14 /Times-Roman set_font
1038 231.9 moveto 324 (0 1 4 5 6 7 10 11 12 13 15 16 17 18 19 21 22) alignedtext
grestore
% node387->node391
gsave
1 setlinewidth
0.000 0.000 0.000 edgecolor
newpath 1261 1110 moveto
1240 1076 1221 1040 1209 1004 curveto
1179 910 1181 669 1188 482 curveto
stroke
0.000 0.000 0.000 edgecolor
newpath 1191.5 482 moveto
1188 472 lineto
1184.5 482 lineto
closepath fill
1 setlinewidth
solid
0.000 0.000 0.000 edgecolor
newpath 1191.5 482 moveto
1188 472 lineto
1184.5 482 lineto
closepath stroke
0.000 0.000 0.000 edgecolor
14 /Times-Roman set_font
1209 760.9 moveto 18 (18) alignedtext
grestore
% node390->node390
gsave
1 setlinewidth
0.000 0.000 0.000 edgecolor
newpath 1712 798 moveto
1724 790 1732 779 1732 765 curveto
1732 755 1728 746 1720 739 curveto
stroke
0.000 0.000 0.000 edgecolor
newpath 1721.83 735.95 moveto
1712 732 lineto
1717.22 741.22 lineto
closepath fill
1 setlinewidth
solid
0.000 0.000 0.000 edgecolor
newpath 1721.83 735.95 moveto
1712 732 lineto
1717.22 741.22 lineto
closepath stroke
0.000 0.000 0.000 edgecolor
14 /Times-Roman set_font
1731.5 760.9 moveto 9 (2) alignedtext
grestore
% node390->node391
gsave
1 setlinewidth
0.000 0.000 0.000 edgecolor
newpath 1365 553 moveto
1349 521 1330 487 1314 455 curveto
stroke
0.000 0.000 0.000 edgecolor
newpath 1316.92 453.04 moveto
1309 446 lineto
1310.8 456.44 lineto
closepath fill
1 setlinewidth
solid
0.000 0.000 0.000 edgecolor
newpath 1316.92 453.04 moveto
1309 446 lineto
1310.8 456.44 lineto
closepath stroke
0.000 0.000 0.000 edgecolor
14 /Times-Roman set_font
1338.5 494.9 moveto 9 (9) alignedtext
grestore
% node393
gsave
1 setlinewidth
0.000 0.000 0.000 nodecolor
816 1743 189.2 189.2 ellipse_path stroke
0.000 0.000 0.000 nodecolor
14 /Times-Roman set_font
687.5 1738.9 moveto 257 (0 1 4 5 6 7 10 11 12 15 17 19 21 22) alignedtext
grestore
% node391->node393
gsave
1 setlinewidth
0.000 0.000 0.000 edgecolor
newpath 1183 472 moveto
1182 490 1181 508 1180 526 curveto
1177 580 1161 1452 1135 1500 curveto
1104 1561 1048 1611 993 1650 curveto
stroke
0.000 0.000 0.000 edgecolor
newpath 990.38 1647.54 moveto
984 1656 lineto
994.26 1653.37 lineto
closepath fill
1 setlinewidth
solid
0.000 0.000 0.000 edgecolor
newpath 990.38 1647.54 moveto
984 1656 lineto
994.26 1653.37 lineto
closepath stroke
0.000 0.000 0.000 edgecolor
14 /Times-Roman set_font
1167 1026.9 moveto 18 (13) alignedtext
grestore
% node393->node387
gsave
1 setlinewidth
0.000 0.000 0.000 edgecolor
newpath 985 1657 moveto
1045 1623 1112 1581 1168 1536 curveto
1197 1512 1227 1484 1254 1456 curveto
stroke
0.000 0.000 0.000 edgecolor
newpath 1256.4 1458.55 moveto
1261 1449 lineto
1251.45 1453.6 lineto
closepath fill
1 setlinewidth
solid
0.000 0.000 0.000 edgecolor
newpath 1256.4 1458.55 moveto
1261 1449 lineto
1251.45 1453.6 lineto
closepath stroke
0.000 0.000 0.000 edgecolor
14 /Times-Roman set_font
1183 1522.9 moveto 18 (12) alignedtext
grestore
% node393->node393
gsave
1 setlinewidth
0.000 0.000 0.000 edgecolor
newpath 1003 1770 moveto
1036 1767 1059 1758 1059 1743 curveto
1059 1730 1041 1721 1013 1717 curveto
stroke
0.000 0.000 0.000 edgecolor
newpath 1013.3 1713.51 moveto
1003 1716 lineto
1012.6 1720.48 lineto
closepath fill
1 setlinewidth
solid
0.000 0.000 0.000 edgecolor
newpath 1013.3 1713.51 moveto
1003 1716 lineto
1012.6 1720.48 lineto
closepath stroke
0.000 0.000 0.000 edgecolor
14 /Times-Roman set_font
1059 1738.9 moveto 18 (19) alignedtext
grestore
% node393->node393
gsave
1 setlinewidth
0.000 0.000 0.000 edgecolor
newpath 1001 1781 moveto
1045 1778 1077 1765 1077 1743 curveto
1077 1723 1050 1710 1011 1706 curveto
stroke
0.000 0.000 0.000 edgecolor
newpath 1011.3 1702.51 moveto
1001 1705 lineto
1010.6 1709.48 lineto
closepath fill
1 setlinewidth
solid
0.000 0.000 0.000 edgecolor
newpath 1011.3 1702.51 moveto
1001 1705 lineto
1010.6 1709.48 lineto
closepath stroke
0.000 0.000 0.000 edgecolor
14 /Times-Roman set_font
1077 1738.9 moveto 18 (21) alignedtext
grestore
% node393->node393
gsave
1 setlinewidth
0.000 0.000 0.000 edgecolor
newpath 1005 1750 moveto
1016 1748 1023 1746 1023 1743 curveto
1023 1741 1020 1739 1015 1738 curveto
stroke
0.000 0.000 0.000 edgecolor
newpath 1015.49 1734.53 moveto
1005 1736 lineto
1014.12 1741.39 lineto
closepath fill
1 setlinewidth
solid
0.000 0.000 0.000 edgecolor
newpath 1015.49 1734.53 moveto
1005 1736 lineto
1014.12 1741.39 lineto
closepath stroke
0.000 0.000 0.000 edgecolor
14 /Times-Roman set_font
1023.5 1738.9 moveto 9 (1) alignedtext
grestore
% node393->node393
gsave
1 setlinewidth
0.000 0.000 0.000 edgecolor
newpath 1004 1760 moveto
1027 1757 1041 1751 1041 1743 curveto
1041 1736 1031 1731 1014 1728 curveto
stroke
0.000 0.000 0.000 edgecolor
newpath 1014.49 1724.53 moveto
1004 1726 lineto
1013.12 1731.39 lineto
closepath fill
1 setlinewidth
solid
0.000 0.000 0.000 edgecolor
newpath 1014.49 1724.53 moveto
1004 1726 lineto
1013.12 1731.39 lineto
closepath stroke
0.000 0.000 0.000 edgecolor
14 /Times-Roman set_font
1041.5 1738.9 moveto 9 (4) alignedtext
grestore
% node394
gsave
2 setlinewidth
bold
0.000 0.000 0.000 nodecolor
220 1279 18 18 ellipse_path stroke
grestore
% node393->node394
gsave
1 setlinewidth
0.000 0.000 0.000 edgecolor
newpath 629 1713 moveto
501 1682 338 1620 247 1500 curveto
205 1442 209 1352 215 1307 curveto
stroke
0.000 0.000 0.000 edgecolor
newpath 218.47 1307.49 moveto
217 1297 lineto
211.61 1306.12 lineto
closepath fill
1 setlinewidth
solid
0.000 0.000 0.000 edgecolor
newpath 218.47 1307.49 moveto
217 1297 lineto
211.61 1306.12 lineto
closepath stroke
0.000 0.000 0.000 edgecolor
14 /Times-Roman set_font
280.5 1522.9 moveto 9 (6) alignedtext
grestore
% node376
gsave
1 setlinewidth
0.000 0.000 0.000 nodecolor
477 1279 220.97 220.97 ellipse_path stroke
0.000 0.000 0.000 nodecolor
14 /Times-Roman set_font
326 1274.9 moveto 302 (0 1 4 5 6 7 10 11 12 14 15 17 19 20 21 22) alignedtext
grestore
% node393->node376
gsave
1 setlinewidth
0.000 0.000 0.000 edgecolor
newpath 704 1590 moveto
675 1551 644 1507 614 1466 curveto
stroke
0.000 0.000 0.000 edgecolor
newpath 616.8 1463.9 moveto
608 1458 lineto
611.2 1468.1 lineto
closepath fill
1 setlinewidth
solid
0.000 0.000 0.000 edgecolor
newpath 616.8 1463.9 moveto
608 1458 lineto
611.2 1468.1 lineto
closepath stroke
0.000 0.000 0.000 edgecolor
14 /Times-Roman set_font
658 1522.9 moveto 18 (17) alignedtext
grestore
% node384
gsave
1 setlinewidth
0.000 0.000 0.000 nodecolor
921 1279 204.99 204.99 ellipse_path stroke
0.000 0.000 0.000 nodecolor
14 /Times-Roman set_font
781.5 1274.9 moveto 279 (0 1 4 5 6 7 10 11 12 14 15 17 19 21 22) alignedtext
grestore
% node393->node384
gsave
1 setlinewidth
0.000 0.000 0.000 edgecolor
newpath 811 1554 moveto
813 1542 815 1530 817 1518 curveto
820 1503 824 1488 829 1474 curveto
stroke
0.000 0.000 0.000 edgecolor
newpath 832.48 1474.58 moveto
832 1464 lineto
825.77 1472.57 lineto
closepath fill
1 setlinewidth
solid
0.000 0.000 0.000 edgecolor
newpath 832.48 1474.58 moveto
832 1464 lineto
825.77 1472.57 lineto
closepath stroke
0.000 0.000 0.000 edgecolor
14 /Times-Roman set_font
817.5 1522.9 moveto 9 (7) alignedtext
grestore
% node393->node384
gsave
1 setlinewidth
0.000 0.000 0.000 edgecolor
newpath 842 1556 moveto
844 1543 846 1530 849 1518 curveto
851 1507 854 1496 857 1485 curveto
stroke
0.000 0.000 0.000 edgecolor
newpath 860.48 1485.58 moveto
860 1475 lineto
853.77 1483.57 lineto
closepath fill
1 setlinewidth
solid
0.000 0.000 0.000 edgecolor
newpath 860.48 1485.58 moveto
860 1475 lineto
853.77 1483.57 lineto
closepath stroke
0.000 0.000 0.000 edgecolor
14 /Times-Roman set_font
849 1522.9 moveto 18 (22) alignedtext
grestore
% node13
gsave
1 setlinewidth
0.000 0.000 0.000 nodecolor
202 1743 82.89 82.89 ellipse_path stroke
0.000 0.000 0.000 nodecolor
14 /Times-Roman set_font
150 1738.9 moveto 104 (0 3 5 10 11 15) alignedtext
grestore
% node14
gsave
1 setlinewidth
0.000 0.000 0.000 nodecolor
92 1279 91.92 91.92 ellipse_path stroke
0.000 0.000 0.000 nodecolor
14 /Times-Roman set_font
33.5 1274.9 moveto 117 (0 3 5 8 10 11 15) alignedtext
grestore
% node13->node14
gsave
1 setlinewidth
0.000 0.000 0.000 edgecolor
newpath 183 1662 moveto
164 1583 135 1464 115 1379 curveto
stroke
0.000 0.000 0.000 edgecolor
newpath 118.39 1378.12 moveto
113 1369 lineto
111.53 1379.49 lineto
closepath fill
1 setlinewidth
solid
0.000 0.000 0.000 edgecolor
newpath 118.39 1378.12 moveto
113 1369 lineto
111.53 1379.49 lineto
closepath stroke
0.000 0.000 0.000 edgecolor
14 /Times-Roman set_font
152.5 1522.9 moveto 9 (3) alignedtext
grestore
% node14->node210
gsave
1 setlinewidth
0.000 0.000 0.000 edgecolor
newpath 75 1370 moveto
56 1499 33 1741 101 1932 curveto
110 1957 126 1981 143 2000 curveto
stroke
0.000 0.000 0.000 edgecolor
newpath 140.78 2002.78 moveto
150 2008 lineto
146.05 1998.17 lineto
closepath fill
1 setlinewidth
solid
0.000 0.000 0.000 edgecolor
newpath 140.78 2002.78 moveto
150 2008 lineto
146.05 1998.17 lineto
closepath stroke
0.000 0.000 0.000 edgecolor
14 /Times-Roman set_font
104.5 1738.9 moveto 9 (8) alignedtext
grestore
% node210->node393
gsave
1 setlinewidth
0.000 0.000 0.000 edgecolor
newpath 267 2025 moveto
355 1980 514 1898 639 1835 curveto
stroke
0.000 0.000 0.000 edgecolor
newpath 640.96 1837.92 moveto
648 1830 lineto
637.56 1831.8 lineto
closepath fill
1 setlinewidth
solid
0.000 0.000 0.000 edgecolor
newpath 640.96 1837.92 moveto
648 1830 lineto
637.56 1831.8 lineto
closepath stroke
0.000 0.000 0.000 edgecolor
14 /Times-Roman set_font
402.5 1954.9 moveto 9 (0) alignedtext
grestore
% node210->node13
gsave
1 setlinewidth
0.000 0.000 0.000 edgecolor
newpath 202 1986 moveto
202 1941 202 1884 202 1836 curveto
stroke
0.000 0.000 0.000 edgecolor
newpath 205.5 1836 moveto
202 1826 lineto
198.5 1836 lineto
closepath fill
1 setlinewidth
solid
0.000 0.000 0.000 edgecolor
newpath 205.5 1836 moveto
202 1826 lineto
198.5 1836 lineto
closepath stroke
0.000 0.000 0.000 edgecolor
14 /Times-Roman set_font
202.5 1954.9 moveto 9 (5) alignedtext
grestore
% node376->node393
gsave
1 setlinewidth
0.000 0.000 0.000 edgecolor
newpath 624 1444 moveto
643 1469 663 1494 680 1518 curveto
692 1534 704 1552 716 1571 curveto
stroke
0.000 0.000 0.000 edgecolor
newpath 713.2 1573.1 moveto
722 1579 lineto
718.8 1568.9 lineto
closepath fill
1 setlinewidth
solid
0.000 0.000 0.000 edgecolor
newpath 713.2 1573.1 moveto
722 1579 lineto
718.8 1568.9 lineto
closepath stroke
0.000 0.000 0.000 edgecolor
14 /Times-Roman set_font
695 1522.9 moveto 18 (20) alignedtext
grestore
% node376->node393
gsave
1 setlinewidth
0.000 0.000 0.000 edgecolor
newpath 590 1469 moveto
605 1492 621 1515 636 1536 curveto
650 1555 667 1576 683 1595 curveto
stroke
0.000 0.000 0.000 edgecolor
newpath 680.2 1597.1 moveto
689 1603 lineto
685.8 1592.9 lineto
closepath fill
1 setlinewidth
solid
0.000 0.000 0.000 edgecolor
newpath 680.2 1597.1 moveto
689 1603 lineto
685.8 1592.9 lineto
closepath stroke
0.000 0.000 0.000 edgecolor
14 /Times-Roman set_font
636 1522.9 moveto 18 (14) alignedtext
grestore
% node384->node393
gsave
1 setlinewidth
0.000 0.000 0.000 edgecolor
newpath 879 1480 moveto
875 1499 871 1518 867 1536 curveto
866 1541 865 1545 864 1549 curveto
stroke
0.000 0.000 0.000 edgecolor
newpath 860.53 1548.51 moveto
862 1559 lineto
867.39 1549.88 lineto
closepath fill
1 setlinewidth
solid
0.000 0.000 0.000 edgecolor
newpath 860.53 1548.51 moveto
862 1559 lineto
867.39 1549.88 lineto
closepath stroke
0.000 0.000 0.000 edgecolor
14 /Times-Roman set_font
873.5 1522.9 moveto 9 (1) alignedtext
grestore
% node384->node393
gsave
1 setlinewidth
0.000 0.000 0.000 edgecolor
newpath 897 1483 moveto
894 1501 890 1519 886 1536 curveto
885 1542 883 1549 881 1555 curveto
stroke
0.000 0.000 0.000 edgecolor
newpath 877.53 1554.51 moveto
879 1565 lineto
884.39 1555.88 lineto
closepath fill
1 setlinewidth
solid
0.000 0.000 0.000 edgecolor
newpath 877.53 1554.51 moveto
879 1565 lineto
884.39 1555.88 lineto
closepath stroke
0.000 0.000 0.000 edgecolor
14 /Times-Roman set_font
891 1522.9 moveto 18 (14) alignedtext
grestore
endpage
showpage
grestore
%%PageTrailer
%%EndPage: 1
%%Trailer
%%Pages: 1
%%BoundingBox: 36 36 1785 2580
end
restore
%%EOF
