%!PS-Adobe-3.0 EPSF-3.0
%%Creator: Graphviz version 2.20.2 (Tue Mar  2 19:03:41 UTC 2010)
%%For: (pmilani) Paolo,,,
%%Title: message
%%Pages: (atend)
%%BoundingBox: (atend)
%%EndComments
save
%%BeginProlog
/DotDict 200 dict def
DotDict begin

/setupLatin1 {
mark
/EncodingVector 256 array def
 EncodingVector 0

ISOLatin1Encoding 0 255 getinterval putinterval
EncodingVector 45 /hyphen put

% Set up ISO Latin 1 character encoding
/starnetISO {
        dup dup findfont dup length dict begin
        { 1 index /FID ne { def }{ pop pop } ifelse
        } forall
        /Encoding EncodingVector def
        currentdict end definefont
} def
/Times-Roman starnetISO def
/Times-Italic starnetISO def
/Times-Bold starnetISO def
/Times-BoldItalic starnetISO def
/Helvetica starnetISO def
/Helvetica-Oblique starnetISO def
/Helvetica-Bold starnetISO def
/Helvetica-BoldOblique starnetISO def
/Courier starnetISO def
/Courier-Oblique starnetISO def
/Courier-Bold starnetISO def
/Courier-BoldOblique starnetISO def
cleartomark
} bind def

%%BeginResource: procset graphviz 0 0
/coord-font-family /Times-Roman def
/default-font-family /Times-Roman def
/coordfont coord-font-family findfont 8 scalefont def

/InvScaleFactor 1.0 def
/set_scale {
       dup 1 exch div /InvScaleFactor exch def
       scale
} bind def

% styles
/solid { [] 0 setdash } bind def
/dashed { [9 InvScaleFactor mul dup ] 0 setdash } bind def
/dotted { [1 InvScaleFactor mul 6 InvScaleFactor mul] 0 setdash } bind def
/invis {/fill {newpath} def /stroke {newpath} def /show {pop newpath} def} bind def
/bold { 2 setlinewidth } bind def
/filled { } bind def
/unfilled { } bind def
/rounded { } bind def
/diagonals { } bind def

% hooks for setting color 
/nodecolor { sethsbcolor } bind def
/edgecolor { sethsbcolor } bind def
/graphcolor { sethsbcolor } bind def
/nopcolor {pop pop pop} bind def

/beginpage {	% i j npages
	/npages exch def
	/j exch def
	/i exch def
	/str 10 string def
	npages 1 gt {
		gsave
			coordfont setfont
			0 0 moveto
			(\() show i str cvs show (,) show j str cvs show (\)) show
		grestore
	} if
} bind def

/set_font {
	findfont exch
	scalefont setfont
} def

% draw text fitted to its expected width
/alignedtext {			% width text
	/text exch def
	/width exch def
	gsave
		width 0 gt {
			[] 0 setdash
			text stringwidth pop width exch sub text length div 0 text ashow
		} if
	grestore
} def

/boxprim {				% xcorner ycorner xsize ysize
		4 2 roll
		moveto
		2 copy
		exch 0 rlineto
		0 exch rlineto
		pop neg 0 rlineto
		closepath
} bind def

/ellipse_path {
	/ry exch def
	/rx exch def
	/y exch def
	/x exch def
	matrix currentmatrix
	newpath
	x y translate
	rx ry scale
	0 0 1 0 360 arc
	setmatrix
} bind def

/endpage { showpage } bind def
/showpage { } def

/layercolorseq
	[	% layer color sequence - darkest to lightest
		[0 0 0]
		[.2 .8 .8]
		[.4 .8 .8]
		[.6 .8 .8]
		[.8 .8 .8]
	]
def

/layerlen layercolorseq length def

/setlayer {/maxlayer exch def /curlayer exch def
	layercolorseq curlayer 1 sub layerlen mod get
	aload pop sethsbcolor
	/nodecolor {nopcolor} def
	/edgecolor {nopcolor} def
	/graphcolor {nopcolor} def
} bind def

/onlayer { curlayer ne {invis} if } def

/onlayers {
	/myupper exch def
	/mylower exch def
	curlayer mylower lt
	curlayer myupper gt
	or
	{invis} if
} def

/curlayer 0 def

%%EndResource
%%EndProlog
%%BeginSetup
14 default-font-family set_font
1 setmiterlimit
% /arrowlength 10 def
% /arrowwidth 5 def

% make sure pdfmark is harmless for PS-interpreters other than Distiller
/pdfmark where {pop} {userdict /pdfmark /cleartomark load put} ifelse
% make '<<' and '>>' safe on PS Level 1 devices
/languagelevel where {pop languagelevel}{1} ifelse
2 lt {
    userdict (<<) cvn ([) cvn load put
    userdict (>>) cvn ([) cvn load put
} if

%%EndSetup
setupLatin1
%%Page: 1 1
%%PageBoundingBox: 36 36 600 838
%%PageOrientation: Portrait
0 0 1 beginpage
gsave
36 36 564 802 boxprim clip newpath
1 1 set_scale 0 rotate 40 40 translate
% node0
gsave
1 setlinewidth
0.000 0.000 0.000 nodecolor
73 772 18 18 ellipse_path stroke
1 setlinewidth
0.000 0.000 0.000 nodecolor
73 772 22 22 ellipse_path stroke
0.000 0.000 0.000 nodecolor
14 /Times-Roman set_font
68.5 767.9 moveto 9 (0) alignedtext
grestore
% node1
gsave
1 setlinewidth
0.000 0.000 0.000 nodecolor
73 678 18 18 ellipse_path stroke
0.000 0.000 0.000 nodecolor
14 /Times-Roman set_font
68.5 673.9 moveto 9 (1) alignedtext
grestore
% node0->node1
gsave
1 setlinewidth
0.000 0.000 0.000 edgecolor
newpath 73 750 moveto
73 737 73 720 73 706 curveto
stroke
0.000 0.000 0.000 edgecolor
newpath 76.5 706 moveto
73 696 lineto
69.5 706 lineto
closepath fill
1 setlinewidth
solid
0.000 0.000 0.000 edgecolor
newpath 76.5 706 moveto
73 696 lineto
69.5 706 lineto
closepath stroke
0.000 0.000 0.000 edgecolor
14 /Times-Roman set_font
73 718.9 moveto 18 (15) alignedtext
grestore
% node2
gsave
1 setlinewidth
0.000 0.000 0.000 nodecolor
73 588 18 18 ellipse_path stroke
0.000 0.000 0.000 nodecolor
14 /Times-Roman set_font
68.5 583.9 moveto 9 (2) alignedtext
grestore
% node1->node2
gsave
1 setlinewidth
0.000 0.000 0.000 edgecolor
newpath 73 660 moveto
73 647 73 631 73 616 curveto
stroke
0.000 0.000 0.000 edgecolor
newpath 76.5 616 moveto
73 606 lineto
69.5 616 lineto
closepath fill
1 setlinewidth
solid
0.000 0.000 0.000 edgecolor
newpath 76.5 616 moveto
73 606 lineto
69.5 616 lineto
closepath stroke
0.000 0.000 0.000 edgecolor
14 /Times-Roman set_font
73 628.9 moveto 18 (11) alignedtext
grestore
% node210
gsave
1 setlinewidth
0.000 0.000 0.000 nodecolor
73 486 29.88 29.88 ellipse_path stroke
0.000 0.000 0.000 nodecolor
14 /Times-Roman set_font
59.5 481.9 moveto 27 (210) alignedtext
grestore
% node2->node210
gsave
1 setlinewidth
0.000 0.000 0.000 edgecolor
newpath 73 570 moveto
73 558 73 542 73 526 curveto
stroke
0.000 0.000 0.000 edgecolor
newpath 76.5 526 moveto
73 516 lineto
69.5 526 lineto
closepath fill
1 setlinewidth
solid
0.000 0.000 0.000 edgecolor
newpath 76.5 526 moveto
73 516 lineto
69.5 526 lineto
closepath stroke
0.000 0.000 0.000 edgecolor
14 /Times-Roman set_font
73 538.9 moveto 18 (10) alignedtext
grestore
% node387
gsave
1 setlinewidth
0.000 0.000 0.000 nodecolor
445 258 29.88 29.88 ellipse_path stroke
0.000 0.000 0.000 nodecolor
14 /Times-Roman set_font
431.5 253.9 moveto 27 (387) alignedtext
grestore
% node390
gsave
1 setlinewidth
0.000 0.000 0.000 nodecolor
499 144 29.88 29.88 ellipse_path stroke
0.000 0.000 0.000 nodecolor
14 /Times-Roman set_font
485.5 139.9 moveto 27 (390) alignedtext
grestore
% node387->node390
gsave
1 setlinewidth
0.000 0.000 0.000 edgecolor
newpath 458 231 moveto
466 216 474 197 482 181 curveto
stroke
0.000 0.000 0.000 edgecolor
newpath 485.14 182.56 moveto
486 172 lineto
478.74 179.72 lineto
closepath fill
1 setlinewidth
solid
0.000 0.000 0.000 edgecolor
newpath 485.14 182.56 moveto
486 172 lineto
478.74 179.72 lineto
closepath stroke
0.000 0.000 0.000 edgecolor
14 /Times-Roman set_font
474 196.9 moveto 18 (16) alignedtext
grestore
% node391
gsave
1 setlinewidth
0.000 0.000 0.000 nodecolor
433 30 29.88 29.88 ellipse_path stroke
0.000 0.000 0.000 nodecolor
14 /Times-Roman set_font
419.5 25.9 moveto 27 (391) alignedtext
grestore
% node387->node391
gsave
1 setlinewidth
0.000 0.000 0.000 edgecolor
newpath 443 228 moveto
441 187 438 115 435 70 curveto
stroke
0.000 0.000 0.000 edgecolor
newpath 438.5 70 moveto
435 60 lineto
431.5 70 lineto
closepath fill
1 setlinewidth
solid
0.000 0.000 0.000 edgecolor
newpath 438.5 70 moveto
435 60 lineto
431.5 70 lineto
closepath stroke
0.000 0.000 0.000 edgecolor
14 /Times-Roman set_font
439 139.9 moveto 18 (18) alignedtext
grestore
% node390->node390
gsave
1 setlinewidth
0.000 0.000 0.000 edgecolor
newpath 528 154 moveto
538 155 547 151 547 144 curveto
547 140 543 136 538 135 curveto
stroke
0.000 0.000 0.000 edgecolor
newpath 538.3 131.51 moveto
528 134 lineto
537.6 138.48 lineto
closepath fill
1 setlinewidth
solid
0.000 0.000 0.000 edgecolor
newpath 538.3 131.51 moveto
528 134 lineto
537.6 138.48 lineto
closepath stroke
0.000 0.000 0.000 edgecolor
14 /Times-Roman set_font
546.5 139.9 moveto 9 (2) alignedtext
grestore
% node390->node391
gsave
1 setlinewidth
0.000 0.000 0.000 edgecolor
newpath 484 118 moveto
475 102 463 82 453 65 curveto
stroke
0.000 0.000 0.000 edgecolor
newpath 455.92 63.04 moveto
448 56 lineto
449.8 66.44 lineto
closepath fill
1 setlinewidth
solid
0.000 0.000 0.000 edgecolor
newpath 455.92 63.04 moveto
448 56 lineto
449.8 66.44 lineto
closepath stroke
0.000 0.000 0.000 edgecolor
14 /Times-Roman set_font
469.5 82.9 moveto 9 (9) alignedtext
grestore
% node393
gsave
1 setlinewidth
0.000 0.000 0.000 nodecolor
249 372 29.88 29.88 ellipse_path stroke
0.000 0.000 0.000 nodecolor
14 /Times-Roman set_font
235.5 367.9 moveto 27 (393) alignedtext
grestore
% node391->node393
gsave
1 setlinewidth
0.000 0.000 0.000 edgecolor
newpath 427 60 moveto
414 126 381 282 347 324 curveto
332 342 308 354 288 362 curveto
stroke
0.000 0.000 0.000 edgecolor
newpath 286.57 358.77 moveto
278 365 lineto
288.58 365.48 lineto
closepath fill
1 setlinewidth
solid
0.000 0.000 0.000 edgecolor
newpath 286.57 358.77 moveto
278 365 lineto
288.58 365.48 lineto
closepath stroke
0.000 0.000 0.000 edgecolor
14 /Times-Roman set_font
395 196.9 moveto 18 (13) alignedtext
grestore
% node393->node387
gsave
1 setlinewidth
0.000 0.000 0.000 edgecolor
newpath 279 368 moveto
312 363 365 351 401 324 curveto
411 316 420 305 427 294 curveto
stroke
0.000 0.000 0.000 edgecolor
newpath 430.2 295.44 moveto
432 285 lineto
424.08 292.04 lineto
closepath fill
1 setlinewidth
solid
0.000 0.000 0.000 edgecolor
newpath 430.2 295.44 moveto
432 285 lineto
424.08 292.04 lineto
closepath stroke
0.000 0.000 0.000 edgecolor
14 /Times-Roman set_font
416 310.9 moveto 18 (12) alignedtext
grestore
% node393->node393
gsave
1 setlinewidth
0.000 0.000 0.000 edgecolor
newpath 276 386 moveto
303 393 333 389 333 372 curveto
333 357 310 352 286 356 curveto
stroke
0.000 0.000 0.000 edgecolor
newpath 285.12 352.61 moveto
276 358 lineto
286.49 359.47 lineto
closepath fill
1 setlinewidth
solid
0.000 0.000 0.000 edgecolor
newpath 285.12 352.61 moveto
276 358 lineto
286.49 359.47 lineto
closepath stroke
0.000 0.000 0.000 edgecolor
14 /Times-Roman set_font
333 367.9 moveto 18 (19) alignedtext
grestore
% node393->node393
gsave
1 setlinewidth
0.000 0.000 0.000 edgecolor
newpath 276 386 moveto
310 397 351 392 351 372 curveto
351 354 317 348 286 355 curveto
stroke
0.000 0.000 0.000 edgecolor
newpath 284.57 351.77 moveto
276 358 lineto
286.58 358.48 lineto
closepath fill
1 setlinewidth
solid
0.000 0.000 0.000 edgecolor
newpath 284.57 351.77 moveto
276 358 lineto
286.58 358.48 lineto
closepath stroke
0.000 0.000 0.000 edgecolor
14 /Times-Roman set_font
351 367.9 moveto 18 (21) alignedtext
grestore
% node393->node393
gsave
1 setlinewidth
0.000 0.000 0.000 edgecolor
newpath 279 374 moveto
289 374 297 374 297 372 curveto
297 371 294 371 289 370 curveto
stroke
0.000 0.000 0.000 edgecolor
newpath 289 366.5 moveto
279 370 lineto
289 373.5 lineto
closepath fill
1 setlinewidth
solid
0.000 0.000 0.000 edgecolor
newpath 289 366.5 moveto
279 370 lineto
289 373.5 lineto
closepath stroke
0.000 0.000 0.000 edgecolor
14 /Times-Roman set_font
297.5 367.9 moveto 9 (1) alignedtext
grestore
% node393->node393
gsave
1 setlinewidth
0.000 0.000 0.000 edgecolor
newpath 276 385 moveto
296 390 315 385 315 372 curveto
315 361 302 356 286 357 curveto
stroke
0.000 0.000 0.000 edgecolor
newpath 285.12 353.61 moveto
276 359 lineto
286.49 360.47 lineto
closepath fill
1 setlinewidth
solid
0.000 0.000 0.000 edgecolor
newpath 285.12 353.61 moveto
276 359 lineto
286.49 360.47 lineto
closepath stroke
0.000 0.000 0.000 edgecolor
14 /Times-Roman set_font
315.5 367.9 moveto 9 (4) alignedtext
grestore
% node394
gsave
2 setlinewidth
bold
0.000 0.000 0.000 nodecolor
94 258 29.88 29.88 ellipse_path stroke
0.000 0.000 0.000 nodecolor
14 /Times-Roman set_font
80.5 253.9 moveto 27 (394) alignedtext
grestore
% node393->node394
gsave
1 setlinewidth
0.000 0.000 0.000 edgecolor
newpath 219 367 moveto
193 360 153 348 127 324 curveto
119 316 112 306 107 296 curveto
stroke
0.000 0.000 0.000 edgecolor
newpath 110.26 294.72 moveto
103 287 lineto
103.86 297.56 lineto
closepath fill
1 setlinewidth
solid
0.000 0.000 0.000 edgecolor
newpath 110.26 294.72 moveto
103 287 lineto
103.86 297.56 lineto
closepath stroke
0.000 0.000 0.000 edgecolor
14 /Times-Roman set_font
130.5 310.9 moveto 9 (6) alignedtext
grestore
% node376
gsave
1 setlinewidth
0.000 0.000 0.000 nodecolor
172 258 29.88 29.88 ellipse_path stroke
0.000 0.000 0.000 nodecolor
14 /Times-Roman set_font
158.5 253.9 moveto 27 (376) alignedtext
grestore
% node393->node376
gsave
1 setlinewidth
0.000 0.000 0.000 edgecolor
newpath 220 363 moveto
202 356 179 343 168 324 curveto
164 316 162 306 163 297 curveto
stroke
0.000 0.000 0.000 edgecolor
newpath 166.49 297.3 moveto
164 287 lineto
159.52 296.6 lineto
closepath fill
1 setlinewidth
solid
0.000 0.000 0.000 edgecolor
newpath 166.49 297.3 moveto
164 287 lineto
159.52 296.6 lineto
closepath stroke
0.000 0.000 0.000 edgecolor
14 /Times-Roman set_font
171 310.9 moveto 18 (17) alignedtext
grestore
% node384
gsave
1 setlinewidth
0.000 0.000 0.000 nodecolor
301 258 29.88 29.88 ellipse_path stroke
0.000 0.000 0.000 nodecolor
14 /Times-Roman set_font
287.5 253.9 moveto 27 (384) alignedtext
grestore
% node393->node384
gsave
1 setlinewidth
0.000 0.000 0.000 edgecolor
newpath 245 342 moveto
244 330 245 317 250 306 curveto
254 296 261 289 268 282 curveto
stroke
0.000 0.000 0.000 edgecolor
newpath 270.78 284.22 moveto
276 275 lineto
266.17 278.95 lineto
closepath fill
1 setlinewidth
solid
0.000 0.000 0.000 edgecolor
newpath 270.78 284.22 moveto
276 275 lineto
266.17 278.95 lineto
closepath stroke
0.000 0.000 0.000 edgecolor
14 /Times-Roman set_font
250.5 310.9 moveto 9 (7) alignedtext
grestore
% node393->node384
gsave
1 setlinewidth
0.000 0.000 0.000 edgecolor
newpath 261 345 moveto
268 330 276 311 284 295 curveto
stroke
0.000 0.000 0.000 edgecolor
newpath 287.14 296.56 moveto
288 286 lineto
280.74 293.72 lineto
closepath fill
1 setlinewidth
solid
0.000 0.000 0.000 edgecolor
newpath 287.14 296.56 moveto
288 286 lineto
280.74 293.72 lineto
closepath stroke
0.000 0.000 0.000 edgecolor
14 /Times-Roman set_font
280 310.9 moveto 18 (22) alignedtext
grestore
% node13
gsave
1 setlinewidth
0.000 0.000 0.000 nodecolor
73 372 23.12 23.12 ellipse_path stroke
0.000 0.000 0.000 nodecolor
14 /Times-Roman set_font
64 367.9 moveto 18 (13) alignedtext
grestore
% node14
gsave
1 setlinewidth
0.000 0.000 0.000 nodecolor
23 258 23.12 23.12 ellipse_path stroke
0.000 0.000 0.000 nodecolor
14 /Times-Roman set_font
14 253.9 moveto 18 (14) alignedtext
grestore
% node13->node14
gsave
1 setlinewidth
0.000 0.000 0.000 edgecolor
newpath 64 351 moveto
56 334 45 309 36 288 curveto
stroke
0.000 0.000 0.000 edgecolor
newpath 39.26 286.72 moveto
32 279 lineto
32.86 289.56 lineto
closepath fill
1 setlinewidth
solid
0.000 0.000 0.000 edgecolor
newpath 39.26 286.72 moveto
32 279 lineto
32.86 289.56 lineto
closepath stroke
0.000 0.000 0.000 edgecolor
14 /Times-Roman set_font
53.5 310.9 moveto 9 (3) alignedtext
grestore
% node14->node210
gsave
1 setlinewidth
0.000 0.000 0.000 edgecolor
newpath 22 281 moveto
21 310 21 360 32 402 curveto
37 418 45 436 52 451 curveto
stroke
0.000 0.000 0.000 edgecolor
newpath 49.08 452.96 moveto
57 460 lineto
55.2 449.56 lineto
closepath fill
1 setlinewidth
solid
0.000 0.000 0.000 edgecolor
newpath 49.08 452.96 moveto
57 460 lineto
55.2 449.56 lineto
closepath stroke
0.000 0.000 0.000 edgecolor
14 /Times-Roman set_font
35.5 367.9 moveto 9 (8) alignedtext
grestore
% node210->node393
gsave
1 setlinewidth
0.000 0.000 0.000 edgecolor
newpath 98 470 moveto
129 450 181 416 215 394 curveto
stroke
0.000 0.000 0.000 edgecolor
newpath 217.62 396.46 moveto
224 388 lineto
213.74 390.63 lineto
closepath fill
1 setlinewidth
solid
0.000 0.000 0.000 edgecolor
newpath 217.62 396.46 moveto
224 388 lineto
213.74 390.63 lineto
closepath stroke
0.000 0.000 0.000 edgecolor
14 /Times-Roman set_font
173.5 424.9 moveto 9 (0) alignedtext
grestore
% node210->node13
gsave
1 setlinewidth
0.000 0.000 0.000 edgecolor
newpath 73 456 moveto
73 440 73 421 73 405 curveto
stroke
0.000 0.000 0.000 edgecolor
newpath 76.5 405 moveto
73 395 lineto
69.5 405 lineto
closepath fill
1 setlinewidth
solid
0.000 0.000 0.000 edgecolor
newpath 76.5 405 moveto
73 395 lineto
69.5 405 lineto
closepath stroke
0.000 0.000 0.000 edgecolor
14 /Times-Roman set_font
73.5 424.9 moveto 9 (5) alignedtext
grestore
% node376->node393
gsave
1 setlinewidth
0.000 0.000 0.000 edgecolor
newpath 189 283 moveto
200 299 214 321 226 339 curveto
stroke
0.000 0.000 0.000 edgecolor
newpath 223.2 341.1 moveto
232 347 lineto
228.8 336.9 lineto
closepath fill
1 setlinewidth
solid
0.000 0.000 0.000 edgecolor
newpath 223.2 341.1 moveto
232 347 lineto
228.8 336.9 lineto
closepath stroke
0.000 0.000 0.000 edgecolor
14 /Times-Roman set_font
219 310.9 moveto 18 (20) alignedtext
grestore
% node376->node393
gsave
1 setlinewidth
0.000 0.000 0.000 edgecolor
newpath 152 280 moveto
142 293 134 310 143 324 curveto
158 347 186 359 209 365 curveto
stroke
0.000 0.000 0.000 edgecolor
newpath 208.51 368.47 moveto
219 367 lineto
209.88 361.61 lineto
closepath fill
1 setlinewidth
solid
0.000 0.000 0.000 edgecolor
newpath 208.51 368.47 moveto
219 367 lineto
209.88 361.61 lineto
closepath stroke
0.000 0.000 0.000 edgecolor
14 /Times-Roman set_font
146 310.9 moveto 18 (14) alignedtext
grestore
% node384->node393
gsave
1 setlinewidth
0.000 0.000 0.000 edgecolor
newpath 305 288 moveto
306 300 305 313 300 324 curveto
296 333 289 341 282 348 curveto
stroke
0.000 0.000 0.000 edgecolor
newpath 279.22 345.78 moveto
274 355 lineto
283.83 351.05 lineto
closepath fill
1 setlinewidth
solid
0.000 0.000 0.000 edgecolor
newpath 279.22 345.78 moveto
274 355 lineto
283.83 351.05 lineto
closepath stroke
0.000 0.000 0.000 edgecolor
14 /Times-Roman set_font
306.5 310.9 moveto 9 (1) alignedtext
grestore
% node384->node393
gsave
1 setlinewidth
0.000 0.000 0.000 edgecolor
newpath 317 284 moveto
323 296 326 311 319 324 curveto
312 338 299 348 286 356 curveto
stroke
0.000 0.000 0.000 edgecolor
newpath 284.04 353.08 moveto
277 361 lineto
287.44 359.2 lineto
closepath fill
1 setlinewidth
solid
0.000 0.000 0.000 edgecolor
newpath 284.04 353.08 moveto
277 361 lineto
287.44 359.2 lineto
closepath stroke
0.000 0.000 0.000 edgecolor
14 /Times-Roman set_font
325 310.9 moveto 18 (14) alignedtext
grestore
endpage
showpage
grestore
%%PageTrailer
%%EndPage: 1
%%Trailer
%%Pages: 1
%%BoundingBox: 36 36 600 838
end
restore
%%EOF
