digraph message{
node0 [label="0" ,shape=doublecircle ];
node1 [label="1" ,shape=circle ];
node2 [label="2" ,shape=circle ];
node3 [label="3" ,shape=circle ];
node4 [label="4" ,shape=circle ];
node5 [label="5" ,shape=circle ];
node6 [label="6" ,shape=circle ];
node7 [label="7" ,shape=circle ];
node8 [label="8" ,shape=circle ];
node9 [label="9" ,shape=circle ];
node10 [label="10" ,shape=circle ];
node11 [label="11" ,shape=circle ];
node12 [label="12" ,shape=circle ];
node13 [label="13" ,shape=circle ];
node14 [label="14" ,shape=circle ];
node15 [label="15" ,shape=circle,style=bold ];
node0 -> node1 [label="8"];
node1 -> node2 [label="0"];
node2 -> node3 [label="8"];
node3 -> node4 [label="0"];
node4 -> node5 [label="8"];
node5 -> node6 [label="0"];
node6 -> node7 [label="8"];
node7 -> node8 [label="0"];
node8 -> node9 [label="8"];
node9 -> node10 [label="0"];
node10 -> node11 [label="8"];
node11 -> node12 [label="0"];
node12 -> node13 [label="8"];
node13 -> node14 [label="0"];
node14 -> node15 [label="8"];
}
