%!PS-Adobe-2.0
%%Creator: Graphviz version 2.16 (Fri Feb  8 12:54:58 UTC 2008)
%%For: (pmilani) Paolo,,,
%%Title: message
%%Pages: (atend)
%%BoundingBox: (atend)
%%EndComments
save
%%BeginProlog
/DotDict 200 dict def
DotDict begin

/setupLatin1 {
mark
/EncodingVector 256 array def
 EncodingVector 0

ISOLatin1Encoding 0 255 getinterval putinterval
EncodingVector 45 /hyphen put

% Set up ISO Latin 1 character encoding
/starnetISO {
        dup dup findfont dup length dict begin
        { 1 index /FID ne { def }{ pop pop } ifelse
        } forall
        /Encoding EncodingVector def
        currentdict end definefont
} def
/Times-Roman starnetISO def
/Times-Italic starnetISO def
/Times-Bold starnetISO def
/Times-BoldItalic starnetISO def
/Helvetica starnetISO def
/Helvetica-Oblique starnetISO def
/Helvetica-Bold starnetISO def
/Helvetica-BoldOblique starnetISO def
/Courier starnetISO def
/Courier-Oblique starnetISO def
/Courier-Bold starnetISO def
/Courier-BoldOblique starnetISO def
cleartomark
} bind def

%%BeginResource: procset graphviz 0 0
/coord-font-family /Times-Roman def
/default-font-family /Times-Roman def
/coordfont coord-font-family findfont 8 scalefont def

/InvScaleFactor 1.0 def
/set_scale {
       dup 1 exch div /InvScaleFactor exch def
       scale
} bind def

% styles
/solid { [] 0 setdash } bind def
/dashed { [9 InvScaleFactor mul dup ] 0 setdash } bind def
/dotted { [1 InvScaleFactor mul 6 InvScaleFactor mul] 0 setdash } bind def
/invis {/fill {newpath} def /stroke {newpath} def /show {pop newpath} def} bind def
/bold { 2 setlinewidth } bind def
/filled { } bind def
/unfilled { } bind def
/rounded { } bind def
/diagonals { } bind def

% hooks for setting color 
/nodecolor { sethsbcolor } bind def
/edgecolor { sethsbcolor } bind def
/graphcolor { sethsbcolor } bind def
/nopcolor {pop pop pop} bind def

/beginpage {	% i j npages
	/npages exch def
	/j exch def
	/i exch def
	/str 10 string def
	npages 1 gt {
		gsave
			coordfont setfont
			0 0 moveto
			(\() show i str cvs show (,) show j str cvs show (\)) show
		grestore
	} if
} bind def

/set_font {
	findfont exch
	scalefont setfont
} def

% draw text fitted to its expected width
/alignedtext {			% width text
	/text exch def
	/width exch def
	gsave
		width 0 gt {
			[] 0 setdash
			text stringwidth pop width exch sub text length div 0 text ashow
		} if
	grestore
} def

/boxprim {				% xcorner ycorner xsize ysize
		4 2 roll
		moveto
		2 copy
		exch 0 rlineto
		0 exch rlineto
		pop neg 0 rlineto
		closepath
} bind def

/ellipse_path {
	/ry exch def
	/rx exch def
	/y exch def
	/x exch def
	matrix currentmatrix
	newpath
	x y translate
	rx ry scale
	0 0 1 0 360 arc
	setmatrix
} bind def

/endpage { showpage } bind def
/showpage { } def

/layercolorseq
	[	% layer color sequence - darkest to lightest
		[0 0 0]
		[.2 .8 .8]
		[.4 .8 .8]
		[.6 .8 .8]
		[.8 .8 .8]
	]
def

/layerlen layercolorseq length def

/setlayer {/maxlayer exch def /curlayer exch def
	layercolorseq curlayer 1 sub layerlen mod get
	aload pop sethsbcolor
	/nodecolor {nopcolor} def
	/edgecolor {nopcolor} def
	/graphcolor {nopcolor} def
} bind def

/onlayer { curlayer ne {invis} if } def

/onlayers {
	/myupper exch def
	/mylower exch def
	curlayer mylower lt
	curlayer myupper gt
	or
	{invis} if
} def

/curlayer 0 def

%%EndResource
%%EndProlog
%%BeginSetup
14 default-font-family set_font
1 setmiterlimit
% /arrowlength 10 def
% /arrowwidth 5 def

% make sure pdfmark is harmless for PS-interpreters other than Distiller
/pdfmark where {pop} {userdict /pdfmark /cleartomark load put} ifelse
% make '<<' and '>>' safe on PS Level 1 devices
/languagelevel where {pop languagelevel}{1} ifelse
2 lt {
    userdict (<<) cvn ([) cvn load put
    userdict (>>) cvn ([) cvn load put
} if

%%EndSetup
setupLatin1
%%Page: 1 1
%%PageBoundingBox: 36 36 2075 2650
%%PageOrientation: Portrait
0 0 1 beginpage
gsave
36 36 2039 2614 boxprim clip newpath
1 1 set_scale 0 rotate 40 40 translate
% node0
gsave
1 setlinewidth
0.000 0.000 0.000 nodecolor
1507 2569 32.0813 32.5269 ellipse_path stroke
1 setlinewidth
0.000 0.000 0.000 nodecolor
1507 2569 36.0265 36.5269 ellipse_path stroke
0.000 0.000 0.000 nodecolor
14.00 /Times-Roman set_font
1492 2565.4 moveto 30 ([0, 3]) alignedtext
grestore
% node1
gsave
1 setlinewidth
0.000 0.000 0.000 nodecolor
1251 2459 71.1348 18.3848 ellipse_path stroke
0.000 0.000 0.000 nodecolor
14.00 /Times-Roman set_font
1193.25 2455.4 moveto 115.5 ([0, 1, 2, 3, 5, 6, 8, 9]) alignedtext
grestore
% node0->node1
gsave
1 setlinewidth
0.000 0.000 0.000 edgecolor
newpath 1474 2555 moveto
1429 2535 1349 2501 1297 2479 curveto
stroke
0.000 0.000 0.000 edgecolor
newpath 1298.56 2475.86 moveto
1288 2475 lineto
1295.72 2482.26 lineto
closepath fill
1 setlinewidth
solid
0.000 0.000 0.000 edgecolor
newpath 1298.56 2475.86 moveto
1288 2475 lineto
1295.72 2482.26 lineto
closepath stroke
0.000 0.000 0.000 edgecolor
14.00 /Times-Roman set_font
1379.62 2501.4 moveto 6.75 (0) alignedtext
grestore
% node22
gsave
1 setlinewidth
0.000 0.000 0.000 nodecolor
1595 2459 27.8868 18.3848 ellipse_path stroke
0.000 0.000 0.000 nodecolor
14.00 /Times-Roman set_font
1580 2455.4 moveto 30 ([0, 3]) alignedtext
grestore
% node0->node22
gsave
1 setlinewidth
0.000 0.000 0.000 edgecolor
newpath 1530 2540 moveto
1544 2523 1562 2501 1575 2484 curveto
stroke
0.000 0.000 0.000 edgecolor
newpath 1578.05 2485.83 moveto
1582 2476 lineto
1572.78 2481.22 lineto
closepath fill
1 setlinewidth
solid
0.000 0.000 0.000 edgecolor
newpath 1578.05 2485.83 moveto
1582 2476 lineto
1572.78 2481.22 lineto
closepath stroke
0.000 0.000 0.000 edgecolor
14.00 /Times-Roman set_font
1565.62 2501.4 moveto 6.75 (3) alignedtext
grestore
% node2
gsave
1 setlinewidth
0.000 0.000 0.000 nodecolor
293 2367 84.8855 18.3848 ellipse_path stroke
0.000 0.000 0.000 nodecolor
14.00 /Times-Roman set_font
221 2363.4 moveto 144 ([0, 1, 2, 3, 4, 5, 6, 7, 8, 9]) alignedtext
grestore
% node1->node2
gsave
1 setlinewidth
0.000 0.000 0.000 edgecolor
newpath 1184 2453 moveto
1015 2436 570 2394 381 2376 curveto
stroke
0.000 0.000 0.000 edgecolor
newpath 381.299 2372.51 moveto
371 2375 lineto
380.602 2379.48 lineto
closepath fill
1 setlinewidth
solid
0.000 0.000 0.000 edgecolor
newpath 381.299 2372.51 moveto
371 2375 lineto
380.602 2379.48 lineto
closepath stroke
0.000 0.000 0.000 edgecolor
14.00 /Times-Roman set_font
859.625 2409.4 moveto 6.75 (8) alignedtext
grestore
% node6
gsave
1 setlinewidth
0.000 0.000 0.000 nodecolor
691 2367 71.1348 18.3848 ellipse_path stroke
0.000 0.000 0.000 nodecolor
14.00 /Times-Roman set_font
633.25 2363.4 moveto 115.5 ([0, 1, 2, 3, 5, 6, 8, 9]) alignedtext
grestore
% node1->node6
gsave
1 setlinewidth
0.000 0.000 0.000 edgecolor
newpath 1191 2449 moveto
1086 2432 872 2396 761 2379 curveto
stroke
0.000 0.000 0.000 edgecolor
newpath 761.492 2375.53 moveto
751 2377 lineto
760.119 2382.39 lineto
closepath fill
1 setlinewidth
solid
0.000 0.000 0.000 edgecolor
newpath 761.492 2375.53 moveto
751 2377 lineto
760.119 2382.39 lineto
closepath stroke
0.000 0.000 0.000 edgecolor
14.00 /Times-Roman set_font
1022.62 2409.4 moveto 6.75 (1) alignedtext
grestore
% node8
gsave
1 setlinewidth
0.000 0.000 0.000 nodecolor
1011 2367 71.1348 18.3848 ellipse_path stroke
0.000 0.000 0.000 nodecolor
14.00 /Times-Roman set_font
953.25 2363.4 moveto 115.5 ([0, 1, 2, 3, 5, 6, 8, 9]) alignedtext
grestore
% node1->node8
gsave
1 setlinewidth
0.000 0.000 0.000 edgecolor
newpath 1211 2444 moveto
1170 2427 1106 2403 1061 2386 curveto
stroke
0.000 0.000 0.000 edgecolor
newpath 1061.58 2382.46 moveto
1051 2382 lineto
1058.98 2388.96 lineto
closepath fill
1 setlinewidth
solid
0.000 0.000 0.000 edgecolor
newpath 1061.58 2382.46 moveto
1051 2382 lineto
1058.98 2388.96 lineto
closepath stroke
0.000 0.000 0.000 edgecolor
14.00 /Times-Roman set_font
1154.62 2409.4 moveto 6.75 (6) alignedtext
grestore
% node11
gsave
1 setlinewidth
0.000 0.000 0.000 nodecolor
1183 2367 71.1348 18.3848 ellipse_path stroke
0.000 0.000 0.000 nodecolor
14.00 /Times-Roman set_font
1125.25 2363.4 moveto 115.5 ([0, 1, 2, 3, 5, 6, 8, 9]) alignedtext
grestore
% node1->node11
gsave
1 setlinewidth
0.000 0.000 0.000 edgecolor
newpath 1238 2441 moveto
1228 2428 1214 2409 1203 2393 curveto
stroke
0.000 0.000 0.000 edgecolor
newpath 1205.8 2390.9 moveto
1197 2385 lineto
1200.2 2395.1 lineto
closepath fill
1 setlinewidth
solid
0.000 0.000 0.000 edgecolor
newpath 1205.8 2390.9 moveto
1197 2385 lineto
1200.2 2395.1 lineto
closepath stroke
0.000 0.000 0.000 edgecolor
14.00 /Times-Roman set_font
1225.62 2409.4 moveto 6.75 (3) alignedtext
grestore
% node30
gsave
1 setlinewidth
0.000 0.000 0.000 nodecolor
1343 2367 71.1348 18.3848 ellipse_path stroke
0.000 0.000 0.000 nodecolor
14.00 /Times-Roman set_font
1285.25 2363.4 moveto 115.5 ([0, 1, 2, 3, 5, 6, 8, 9]) alignedtext
grestore
% node1->node30
gsave
1 setlinewidth
0.000 0.000 0.000 edgecolor
newpath 1269 2441 moveto
1283 2427 1302 2408 1318 2392 curveto
stroke
0.000 0.000 0.000 edgecolor
newpath 1320.4 2394.55 moveto
1325 2385 lineto
1315.45 2389.6 lineto
closepath fill
1 setlinewidth
solid
0.000 0.000 0.000 edgecolor
newpath 1320.4 2394.55 moveto
1325 2385 lineto
1315.45 2389.6 lineto
closepath stroke
0.000 0.000 0.000 edgecolor
14.00 /Times-Roman set_font
1303.62 2409.4 moveto 6.75 (5) alignedtext
grestore
% node33
gsave
2 setlinewidth
bold
0.000 0.000 0.000 nodecolor
1450 2367 17.8879 18.3848 ellipse_path stroke
0.000 0.000 0.000 nodecolor
14.00 /Times-Roman set_font
1445.5 2363.4 moveto 9 ([]) alignedtext
grestore
% node1->node33
gsave
1 setlinewidth
0.000 0.000 0.000 edgecolor
newpath 1293 2444 moveto
1329 2431 1381 2410 1423 2386 curveto
1424 2385 1425 2384 1426 2384 curveto
stroke
0.000 0.000 0.000 edgecolor
newpath 1428.62 2386.46 moveto
1435 2378 lineto
1424.74 2380.63 lineto
closepath fill
1 setlinewidth
solid
0.000 0.000 0.000 edgecolor
newpath 1428.62 2386.46 moveto
1435 2378 lineto
1424.74 2380.63 lineto
closepath stroke
0.000 0.000 0.000 edgecolor
14.00 /Times-Roman set_font
1383.62 2409.4 moveto 6.75 (9) alignedtext
grestore
% node40
gsave
1 setlinewidth
0.000 0.000 0.000 nodecolor
1564 2367 77.7613 18.3848 ellipse_path stroke
0.000 0.000 0.000 nodecolor
14.00 /Times-Roman set_font
1499.12 2363.4 moveto 129.75 ([0, 1, 2, 3, 4, 5, 6, 8, 9]) alignedtext
grestore
% node1->node40
gsave
1 setlinewidth
0.000 0.000 0.000 edgecolor
newpath 1303 2446 moveto
1330 2439 1363 2431 1393 2422 curveto
1432 2410 1475 2396 1509 2385 curveto
stroke
0.000 0.000 0.000 edgecolor
newpath 1510.43 2388.23 moveto
1519 2382 lineto
1508.42 2381.52 lineto
closepath fill
1 setlinewidth
solid
0.000 0.000 0.000 edgecolor
newpath 1510.43 2388.23 moveto
1519 2382 lineto
1508.42 2381.52 lineto
closepath stroke
0.000 0.000 0.000 edgecolor
14.00 /Times-Roman set_font
1451.62 2409.4 moveto 6.75 (2) alignedtext
grestore
% node3
gsave
1 setlinewidth
0.000 0.000 0.000 nodecolor
105 2191 84.8855 18.3848 ellipse_path stroke
0.000 0.000 0.000 nodecolor
14.00 /Times-Roman set_font
33 2187.4 moveto 144 ([0, 1, 2, 3, 4, 5, 6, 7, 8, 9]) alignedtext
grestore
% node2->node3
gsave
1 setlinewidth
0.000 0.000 0.000 edgecolor
newpath 268 2349 moveto
249 2335 221 2314 199 2294 curveto
173 2269 146 2239 128 2218 curveto
stroke
0.000 0.000 0.000 edgecolor
newpath 130.219 2215.22 moveto
121 2210 lineto
124.951 2219.83 lineto
closepath fill
1 setlinewidth
solid
0.000 0.000 0.000 edgecolor
newpath 130.219 2215.22 moveto
121 2210 lineto
124.951 2219.83 lineto
closepath stroke
0.000 0.000 0.000 edgecolor
14.00 /Times-Roman set_font
245.625 2317.4 moveto 6.75 (7) alignedtext
grestore
% node58
gsave
1 setlinewidth
0.000 0.000 0.000 nodecolor
293 2191 84.8855 18.3848 ellipse_path stroke
0.000 0.000 0.000 nodecolor
14.00 /Times-Roman set_font
221 2187.4 moveto 144 ([0, 1, 2, 3, 4, 5, 6, 7, 8, 9]) alignedtext
grestore
% node2->node58
gsave
1 setlinewidth
0.000 0.000 0.000 edgecolor
newpath 293 2348 moveto
293 2317 293 2257 293 2220 curveto
stroke
0.000 0.000 0.000 edgecolor
newpath 296.5 2220 moveto
293 2210 lineto
289.5 2220 lineto
closepath fill
1 setlinewidth
solid
0.000 0.000 0.000 edgecolor
newpath 296.5 2220 moveto
293 2210 lineto
289.5 2220 lineto
closepath stroke
0.000 0.000 0.000 edgecolor
14.00 /Times-Roman set_font
293.625 2317.4 moveto 6.75 (1) alignedtext
grestore
% node4
gsave
1 setlinewidth
0.000 0.000 0.000 nodecolor
104 1931 77.7613 18.3848 ellipse_path stroke
0.000 0.000 0.000 nodecolor
14.00 /Times-Roman set_font
39.125 1927.4 moveto 129.75 ([0, 1, 2, 3, 5, 6, 7, 8, 9]) alignedtext
grestore
% node3->node4
gsave
1 setlinewidth
0.000 0.000 0.000 edgecolor
newpath 105 2172 moveto
105 2128 104 2013 104 1960 curveto
stroke
0.000 0.000 0.000 edgecolor
newpath 107.5 1960 moveto
104 1950 lineto
100.5 1960 lineto
closepath fill
1 setlinewidth
solid
0.000 0.000 0.000 edgecolor
newpath 107.5 1960 moveto
104 1950 lineto
100.5 1960 lineto
closepath stroke
0.000 0.000 0.000 edgecolor
14.00 /Times-Roman set_font
105.625 2057.4 moveto 6.75 (5) alignedtext
grestore
% node5
gsave
2 setlinewidth
bold
0.000 0.000 0.000 nodecolor
103 1671 103.061 103.061 ellipse_path stroke
0.000 0.000 0.000 nodecolor
14.00 /Times-Roman set_font
38.125 1667.4 moveto 129.75 ([0, 1, 2, 3, 5, 6, 7, 8, 9]) alignedtext
grestore
% node4->node5
gsave
1 setlinewidth
0.000 0.000 0.000 edgecolor
newpath 104 1912 moveto
104 1885 104 1833 104 1784 curveto
stroke
0.000 0.000 0.000 edgecolor
newpath 107.5 1784 moveto
104 1774 lineto
100.5 1784 lineto
closepath fill
1 setlinewidth
solid
0.000 0.000 0.000 edgecolor
newpath 107.5 1784 moveto
104 1774 lineto
100.5 1784 lineto
closepath stroke
0.000 0.000 0.000 edgecolor
14.00 /Times-Roman set_font
104.625 1797.4 moveto 6.75 (5) alignedtext
grestore
% node7
gsave
2 setlinewidth
bold
0.000 0.000 0.000 nodecolor
499 2191 103.061 103.061 ellipse_path stroke
0.000 0.000 0.000 nodecolor
14.00 /Times-Roman set_font
434.125 2187.4 moveto 129.75 ([0, 1, 2, 3, 4, 5, 6, 8, 9]) alignedtext
grestore
% node6->node7
gsave
1 setlinewidth
0.000 0.000 0.000 edgecolor
newpath 672 2349 moveto
656 2334 632 2313 611 2294 curveto
602 2285 592 2277 583 2268 curveto
stroke
0.000 0.000 0.000 edgecolor
newpath 584.831 2264.95 moveto
575 2261 lineto
580.221 2270.22 lineto
closepath fill
1 setlinewidth
solid
0.000 0.000 0.000 edgecolor
newpath 584.831 2264.95 moveto
575 2261 lineto
580.221 2270.22 lineto
closepath stroke
0.000 0.000 0.000 edgecolor
14.00 /Times-Roman set_font
654.625 2317.4 moveto 6.75 (2) alignedtext
grestore
% node34
gsave
1 setlinewidth
0.000 0.000 0.000 nodecolor
691 2191 71.1348 18.3848 ellipse_path stroke
0.000 0.000 0.000 nodecolor
14.00 /Times-Roman set_font
633.25 2187.4 moveto 115.5 ([0, 1, 2, 3, 5, 6, 8, 9]) alignedtext
grestore
% node6->node34
gsave
1 setlinewidth
0.000 0.000 0.000 edgecolor
newpath 691 2348 moveto
691 2317 691 2257 691 2220 curveto
stroke
0.000 0.000 0.000 edgecolor
newpath 694.5 2220 moveto
691 2210 lineto
687.5 2220 lineto
closepath fill
1 setlinewidth
solid
0.000 0.000 0.000 edgecolor
newpath 694.5 2220 moveto
691 2210 lineto
687.5 2220 lineto
closepath stroke
0.000 0.000 0.000 edgecolor
14.00 /Times-Roman set_font
691.625 2317.4 moveto 6.75 (6) alignedtext
grestore
% node9
gsave
1 setlinewidth
0.000 0.000 0.000 nodecolor
851 2191 71.1348 18.3848 ellipse_path stroke
0.000 0.000 0.000 nodecolor
14.00 /Times-Roman set_font
793.25 2187.4 moveto 115.5 ([0, 1, 2, 3, 5, 6, 8, 9]) alignedtext
grestore
% node8->node9
gsave
1 setlinewidth
0.000 0.000 0.000 edgecolor
newpath 990 2349 moveto
973 2335 950 2314 931 2294 curveto
909 2269 886 2239 870 2218 curveto
stroke
0.000 0.000 0.000 edgecolor
newpath 872.8 2215.9 moveto
864 2210 lineto
867.2 2220.1 lineto
closepath fill
1 setlinewidth
solid
0.000 0.000 0.000 edgecolor
newpath 872.8 2215.9 moveto
864 2210 lineto
867.2 2220.1 lineto
closepath stroke
0.000 0.000 0.000 edgecolor
14.00 /Times-Roman set_font
970.625 2317.4 moveto 6.75 (0) alignedtext
grestore
% node44
gsave
1 setlinewidth
0.000 0.000 0.000 nodecolor
1011 2191 71.1348 18.3848 ellipse_path stroke
0.000 0.000 0.000 nodecolor
14.00 /Times-Roman set_font
953.25 2187.4 moveto 115.5 ([0, 1, 2, 3, 5, 6, 8, 9]) alignedtext
grestore
% node8->node44
gsave
1 setlinewidth
0.000 0.000 0.000 edgecolor
newpath 1011 2348 moveto
1011 2317 1011 2257 1011 2220 curveto
stroke
0.000 0.000 0.000 edgecolor
newpath 1014.5 2220 moveto
1011 2210 lineto
1007.5 2220 lineto
closepath fill
1 setlinewidth
solid
0.000 0.000 0.000 edgecolor
newpath 1014.5 2220 moveto
1011 2210 lineto
1007.5 2220 lineto
closepath stroke
0.000 0.000 0.000 edgecolor
14.00 /Times-Roman set_font
1011.62 2317.4 moveto 6.75 (1) alignedtext
grestore
% node10
gsave
2 setlinewidth
bold
0.000 0.000 0.000 nodecolor
851 1931 17.8879 18.3848 ellipse_path stroke
0.000 0.000 0.000 nodecolor
14.00 /Times-Roman set_font
846.5 1927.4 moveto 9 ([]) alignedtext
grestore
% node9->node10
gsave
1 setlinewidth
0.000 0.000 0.000 edgecolor
newpath 851 2172 moveto
851 2128 851 2013 851 1960 curveto
stroke
0.000 0.000 0.000 edgecolor
newpath 854.5 1960 moveto
851 1950 lineto
847.5 1960 lineto
closepath fill
1 setlinewidth
solid
0.000 0.000 0.000 edgecolor
newpath 854.5 1960 moveto
851 1950 lineto
847.5 1960 lineto
closepath stroke
0.000 0.000 0.000 edgecolor
14.00 /Times-Roman set_font
851.625 2057.4 moveto 6.75 (9) alignedtext
grestore
% node12
gsave
1 setlinewidth
0.000 0.000 0.000 nodecolor
1185 2191 84.8855 18.3848 ellipse_path stroke
0.000 0.000 0.000 nodecolor
14.00 /Times-Roman set_font
1113 2187.4 moveto 144 ([0, 1, 2, 3, 4, 5, 6, 7, 8, 9]) alignedtext
grestore
% node11->node12
gsave
1 setlinewidth
0.000 0.000 0.000 edgecolor
newpath 1183 2348 moveto
1184 2317 1184 2257 1185 2220 curveto
stroke
0.000 0.000 0.000 edgecolor
newpath 1188.5 2220 moveto
1185 2210 lineto
1181.5 2220 lineto
closepath fill
1 setlinewidth
solid
0.000 0.000 0.000 edgecolor
newpath 1188.5 2220 moveto
1185 2210 lineto
1181.5 2220 lineto
closepath stroke
0.000 0.000 0.000 edgecolor
14.00 /Times-Roman set_font
1185.62 2317.4 moveto 6.75 (8) alignedtext
grestore
% node13
gsave
1 setlinewidth
0.000 0.000 0.000 nodecolor
1166 1931 84.8855 18.3848 ellipse_path stroke
0.000 0.000 0.000 nodecolor
14.00 /Times-Roman set_font
1094 1927.4 moveto 144 ([0, 1, 2, 3, 4, 5, 6, 7, 8, 9]) alignedtext
grestore
% node12->node13
gsave
1 setlinewidth
0.000 0.000 0.000 edgecolor
newpath 1184 2172 moveto
1180 2128 1172 2013 1168 1960 curveto
stroke
0.000 0.000 0.000 edgecolor
newpath 1171.48 1959.6 moveto
1167 1950 lineto
1164.51 1960.3 lineto
closepath fill
1 setlinewidth
solid
0.000 0.000 0.000 edgecolor
newpath 1171.48 1959.6 moveto
1167 1950 lineto
1164.51 1960.3 lineto
closepath stroke
0.000 0.000 0.000 edgecolor
14.00 /Times-Roman set_font
1177.62 2057.4 moveto 6.75 (7) alignedtext
grestore
% node14
gsave
1 setlinewidth
0.000 0.000 0.000 nodecolor
1171 1671 84.8855 18.3848 ellipse_path stroke
0.000 0.000 0.000 nodecolor
14.00 /Times-Roman set_font
1099 1667.4 moveto 144 ([0, 1, 2, 3, 4, 5, 6, 7, 8, 9]) alignedtext
grestore
% node13->node14
gsave
1 setlinewidth
0.000 0.000 0.000 edgecolor
newpath 1166 1912 moveto
1168 1868 1170 1753 1171 1700 curveto
stroke
0.000 0.000 0.000 edgecolor
newpath 1174.5 1700 moveto
1171 1690 lineto
1167.5 1700 lineto
closepath fill
1 setlinewidth
solid
0.000 0.000 0.000 edgecolor
newpath 1174.5 1700 moveto
1171 1690 lineto
1167.5 1700 lineto
closepath stroke
0.000 0.000 0.000 edgecolor
14.00 /Times-Roman set_font
1170.62 1797.4 moveto 6.75 (3) alignedtext
grestore
% node15
gsave
1 setlinewidth
0.000 0.000 0.000 nodecolor
1171 1495 77.7613 18.3848 ellipse_path stroke
0.000 0.000 0.000 nodecolor
14.00 /Times-Roman set_font
1106.12 1491.4 moveto 129.75 ([0, 1, 2, 3, 5, 6, 7, 8, 9]) alignedtext
grestore
% node14->node15
gsave
1 setlinewidth
0.000 0.000 0.000 edgecolor
newpath 1171 1652 moveto
1171 1621 1171 1561 1171 1524 curveto
stroke
0.000 0.000 0.000 edgecolor
newpath 1174.5 1524 moveto
1171 1514 lineto
1167.5 1524 lineto
closepath fill
1 setlinewidth
solid
0.000 0.000 0.000 edgecolor
newpath 1174.5 1524 moveto
1171 1514 lineto
1167.5 1524 lineto
closepath stroke
0.000 0.000 0.000 edgecolor
14.00 /Times-Roman set_font
1171.62 1537.4 moveto 6.75 (4) alignedtext
grestore
% node16
gsave
1 setlinewidth
0.000 0.000 0.000 nodecolor
1171 1403 77.7613 18.3848 ellipse_path stroke
0.000 0.000 0.000 nodecolor
14.00 /Times-Roman set_font
1106.12 1399.4 moveto 129.75 ([0, 1, 2, 3, 5, 6, 7, 8, 9]) alignedtext
grestore
% node15->node16
gsave
1 setlinewidth
0.000 0.000 0.000 edgecolor
newpath 1171 1476 moveto
1171 1463 1171 1447 1171 1432 curveto
stroke
0.000 0.000 0.000 edgecolor
newpath 1174.5 1432 moveto
1171 1422 lineto
1167.5 1432 lineto
closepath fill
1 setlinewidth
solid
0.000 0.000 0.000 edgecolor
newpath 1174.5 1432 moveto
1171 1422 lineto
1167.5 1432 lineto
closepath stroke
0.000 0.000 0.000 edgecolor
14.00 /Times-Roman set_font
1171.62 1445.4 moveto 6.75 (7) alignedtext
grestore
% node17
gsave
1 setlinewidth
0.000 0.000 0.000 nodecolor
1173 1237 77.7613 18.3848 ellipse_path stroke
0.000 0.000 0.000 nodecolor
14.00 /Times-Roman set_font
1108.12 1233.4 moveto 129.75 ([0, 1, 2, 3, 5, 6, 7, 8, 9]) alignedtext
grestore
% node16->node17
gsave
1 setlinewidth
0.000 0.000 0.000 edgecolor
newpath 1171 1384 moveto
1172 1355 1172 1300 1173 1266 curveto
stroke
0.000 0.000 0.000 edgecolor
newpath 1176.5 1266 moveto
1173 1256 lineto
1169.5 1266 lineto
closepath fill
1 setlinewidth
solid
0.000 0.000 0.000 edgecolor
newpath 1176.5 1266 moveto
1173 1256 lineto
1169.5 1266 lineto
closepath stroke
0.000 0.000 0.000 edgecolor
14.00 /Times-Roman set_font
1173.62 1353.4 moveto 6.75 (5) alignedtext
grestore
% node18
gsave
1 setlinewidth
0.000 0.000 0.000 nodecolor
1173 1071 77.7613 18.3848 ellipse_path stroke
0.000 0.000 0.000 nodecolor
14.00 /Times-Roman set_font
1108.12 1067.4 moveto 129.75 ([0, 1, 2, 3, 5, 6, 7, 8, 9]) alignedtext
grestore
% node17->node18
gsave
1 setlinewidth
0.000 0.000 0.000 edgecolor
newpath 1173 1218 moveto
1173 1189 1173 1134 1173 1100 curveto
stroke
0.000 0.000 0.000 edgecolor
newpath 1176.5 1100 moveto
1173 1090 lineto
1169.5 1100 lineto
closepath fill
1 setlinewidth
solid
0.000 0.000 0.000 edgecolor
newpath 1176.5 1100 moveto
1173 1090 lineto
1169.5 1100 lineto
closepath stroke
0.000 0.000 0.000 edgecolor
14.00 /Times-Roman set_font
1173.62 1113.4 moveto 6.75 (3) alignedtext
grestore
% node19
gsave
1 setlinewidth
0.000 0.000 0.000 nodecolor
1174 979 84.8855 18.3848 ellipse_path stroke
0.000 0.000 0.000 nodecolor
14.00 /Times-Roman set_font
1102 975.4 moveto 144 ([0, 1, 2, 3, 4, 5, 6, 7, 8, 9]) alignedtext
grestore
% node18->node19
gsave
1 setlinewidth
0.000 0.000 0.000 edgecolor
newpath 1173 1052 moveto
1173 1039 1173 1023 1174 1008 curveto
stroke
0.000 0.000 0.000 edgecolor
newpath 1177.5 1008 moveto
1174 998 lineto
1170.5 1008 lineto
closepath fill
1 setlinewidth
solid
0.000 0.000 0.000 edgecolor
newpath 1177.5 1008 moveto
1174 998 lineto
1170.5 1008 lineto
closepath stroke
0.000 0.000 0.000 edgecolor
14.00 /Times-Roman set_font
1174.62 1021.4 moveto 6.75 (2) alignedtext
grestore
% node20
gsave
1 setlinewidth
0.000 0.000 0.000 nodecolor
1174 887 77.7613 18.3848 ellipse_path stroke
0.000 0.000 0.000 nodecolor
14.00 /Times-Roman set_font
1109.12 883.4 moveto 129.75 ([0, 1, 2, 3, 4, 5, 6, 8, 9]) alignedtext
grestore
% node19->node20
gsave
1 setlinewidth
0.000 0.000 0.000 edgecolor
newpath 1174 960 moveto
1174 947 1174 931 1174 916 curveto
stroke
0.000 0.000 0.000 edgecolor
newpath 1177.5 916 moveto
1174 906 lineto
1170.5 916 lineto
closepath fill
1 setlinewidth
solid
0.000 0.000 0.000 edgecolor
newpath 1177.5 916 moveto
1174 906 lineto
1170.5 916 lineto
closepath stroke
0.000 0.000 0.000 edgecolor
14.00 /Times-Roman set_font
1174.62 929.4 moveto 6.75 (6) alignedtext
grestore
% node21
gsave
2 setlinewidth
bold
0.000 0.000 0.000 nodecolor
1174 711 103.061 103.061 ellipse_path stroke
0.000 0.000 0.000 nodecolor
14.00 /Times-Roman set_font
1109.12 707.4 moveto 129.75 ([0, 1, 2, 3, 4, 5, 6, 8, 9]) alignedtext
grestore
% node20->node21
gsave
1 setlinewidth
0.000 0.000 0.000 edgecolor
newpath 1174 868 moveto
1174 856 1174 841 1174 824 curveto
stroke
0.000 0.000 0.000 edgecolor
newpath 1177.5 824 moveto
1174 814 lineto
1170.5 824 lineto
closepath fill
1 setlinewidth
solid
0.000 0.000 0.000 edgecolor
newpath 1177.5 824 moveto
1174 814 lineto
1170.5 824 lineto
closepath stroke
0.000 0.000 0.000 edgecolor
14.00 /Times-Roman set_font
1174.62 837.4 moveto 6.75 (1) alignedtext
grestore
% node23
gsave
1 setlinewidth
0.000 0.000 0.000 nodecolor
1736 2367 71.1348 18.3848 ellipse_path stroke
0.000 0.000 0.000 nodecolor
14.00 /Times-Roman set_font
1678.25 2363.4 moveto 115.5 ([0, 1, 2, 3, 5, 6, 8, 9]) alignedtext
grestore
% node22->node23
gsave
1 setlinewidth
0.000 0.000 0.000 edgecolor
newpath 1615 2446 moveto
1637 2431 1674 2407 1700 2390 curveto
stroke
0.000 0.000 0.000 edgecolor
newpath 1702.62 2392.46 moveto
1709 2384 lineto
1698.74 2386.63 lineto
closepath fill
1 setlinewidth
solid
0.000 0.000 0.000 edgecolor
newpath 1702.62 2392.46 moveto
1709 2384 lineto
1698.74 2386.63 lineto
closepath stroke
0.000 0.000 0.000 edgecolor
14.00 /Times-Roman set_font
1672.62 2409.4 moveto 6.75 (0) alignedtext
grestore
% node24
gsave
1 setlinewidth
0.000 0.000 0.000 nodecolor
1750 2191 84.8855 18.3848 ellipse_path stroke
0.000 0.000 0.000 nodecolor
14.00 /Times-Roman set_font
1678 2187.4 moveto 144 ([0, 1, 2, 3, 4, 5, 6, 7, 8, 9]) alignedtext
grestore
% node23->node24
gsave
1 setlinewidth
0.000 0.000 0.000 edgecolor
newpath 1737 2348 moveto
1740 2317 1745 2256 1747 2220 curveto
stroke
0.000 0.000 0.000 edgecolor
newpath 1750.49 2220.3 moveto
1748 2210 lineto
1743.52 2219.6 lineto
closepath fill
1 setlinewidth
solid
0.000 0.000 0.000 edgecolor
newpath 1750.49 2220.3 moveto
1748 2210 lineto
1743.52 2219.6 lineto
closepath stroke
0.000 0.000 0.000 edgecolor
14.00 /Times-Roman set_font
1738.62 2317.4 moveto 6.75 (8) alignedtext
grestore
% node25
gsave
1 setlinewidth
0.000 0.000 0.000 nodecolor
1750 1931 84.8855 18.3848 ellipse_path stroke
0.000 0.000 0.000 nodecolor
14.00 /Times-Roman set_font
1678 1927.4 moveto 144 ([0, 1, 2, 3, 4, 5, 6, 7, 8, 9]) alignedtext
grestore
% node24->node25
gsave
1 setlinewidth
0.000 0.000 0.000 edgecolor
newpath 1750 2172 moveto
1750 2128 1750 2013 1750 1960 curveto
stroke
0.000 0.000 0.000 edgecolor
newpath 1753.5 1960 moveto
1750 1950 lineto
1746.5 1960 lineto
closepath fill
1 setlinewidth
solid
0.000 0.000 0.000 edgecolor
newpath 1753.5 1960 moveto
1750 1950 lineto
1746.5 1960 lineto
closepath stroke
0.000 0.000 0.000 edgecolor
14.00 /Times-Roman set_font
1749.62 2057.4 moveto 6.75 (3) alignedtext
grestore
% node53
gsave
1 setlinewidth
0.000 0.000 0.000 nodecolor
1938 1931 84.8855 18.3848 ellipse_path stroke
0.000 0.000 0.000 nodecolor
14.00 /Times-Roman set_font
1866 1927.4 moveto 144 ([0, 1, 2, 3, 4, 5, 6, 7, 8, 9]) alignedtext
grestore
% node24->node53
gsave
1 setlinewidth
0.000 0.000 0.000 edgecolor
newpath 1763 2173 moveto
1796 2128 1880 2010 1919 1957 curveto
stroke
0.000 0.000 0.000 edgecolor
newpath 1921.8 1959.1 moveto
1925 1949 lineto
1916.2 1954.9 lineto
closepath fill
1 setlinewidth
solid
0.000 0.000 0.000 edgecolor
newpath 1921.8 1959.1 moveto
1925 1949 lineto
1916.2 1954.9 lineto
closepath stroke
0.000 0.000 0.000 edgecolor
14.00 /Times-Roman set_font
1847.62 2057.4 moveto 6.75 (8) alignedtext
grestore
% node26
gsave
1 setlinewidth
0.000 0.000 0.000 nodecolor
1755 1671 84.8855 18.3848 ellipse_path stroke
0.000 0.000 0.000 nodecolor
14.00 /Times-Roman set_font
1683 1667.4 moveto 144 ([0, 1, 2, 3, 4, 5, 6, 7, 8, 9]) alignedtext
grestore
% node25->node26
gsave
1 setlinewidth
0.000 0.000 0.000 edgecolor
newpath 1750 1912 moveto
1752 1868 1754 1753 1755 1700 curveto
stroke
0.000 0.000 0.000 edgecolor
newpath 1758.5 1700 moveto
1755 1690 lineto
1751.5 1700 lineto
closepath fill
1 setlinewidth
solid
0.000 0.000 0.000 edgecolor
newpath 1758.5 1700 moveto
1755 1690 lineto
1751.5 1700 lineto
closepath stroke
0.000 0.000 0.000 edgecolor
14.00 /Times-Roman set_font
1751.62 1797.4 moveto 6.75 (2) alignedtext
grestore
% node27
gsave
1 setlinewidth
0.000 0.000 0.000 nodecolor
1755 1495 84.8855 18.3848 ellipse_path stroke
0.000 0.000 0.000 nodecolor
14.00 /Times-Roman set_font
1683 1491.4 moveto 144 ([0, 1, 2, 3, 4, 5, 6, 7, 8, 9]) alignedtext
grestore
% node26->node27
gsave
1 setlinewidth
0.000 0.000 0.000 edgecolor
newpath 1755 1652 moveto
1755 1621 1755 1561 1755 1524 curveto
stroke
0.000 0.000 0.000 edgecolor
newpath 1758.5 1524 moveto
1755 1514 lineto
1751.5 1524 lineto
closepath fill
1 setlinewidth
solid
0.000 0.000 0.000 edgecolor
newpath 1758.5 1524 moveto
1755 1514 lineto
1751.5 1524 lineto
closepath stroke
0.000 0.000 0.000 edgecolor
14.00 /Times-Roman set_font
1754.62 1537.4 moveto 6.75 (3) alignedtext
grestore
% node28
gsave
1 setlinewidth
0.000 0.000 0.000 nodecolor
1755 1403 77.7613 18.3848 ellipse_path stroke
0.000 0.000 0.000 nodecolor
14.00 /Times-Roman set_font
1690.12 1399.4 moveto 129.75 ([0, 1, 2, 3, 5, 6, 7, 8, 9]) alignedtext
grestore
% node27->node28
gsave
1 setlinewidth
0.000 0.000 0.000 edgecolor
newpath 1755 1476 moveto
1755 1463 1755 1447 1755 1432 curveto
stroke
0.000 0.000 0.000 edgecolor
newpath 1758.5 1432 moveto
1755 1422 lineto
1751.5 1432 lineto
closepath fill
1 setlinewidth
solid
0.000 0.000 0.000 edgecolor
newpath 1758.5 1432 moveto
1755 1422 lineto
1751.5 1432 lineto
closepath stroke
0.000 0.000 0.000 edgecolor
14.00 /Times-Roman set_font
1754.62 1445.4 moveto 6.75 (5) alignedtext
grestore
% node29
gsave
2 setlinewidth
bold
0.000 0.000 0.000 nodecolor
1755 1237 17.8879 18.3848 ellipse_path stroke
0.000 0.000 0.000 nodecolor
14.00 /Times-Roman set_font
1750.5 1233.4 moveto 9 ([]) alignedtext
grestore
% node28->node29
gsave
1 setlinewidth
0.000 0.000 0.000 edgecolor
newpath 1755 1384 moveto
1755 1355 1755 1300 1755 1266 curveto
stroke
0.000 0.000 0.000 edgecolor
newpath 1758.5 1266 moveto
1755 1256 lineto
1751.5 1266 lineto
closepath fill
1 setlinewidth
solid
0.000 0.000 0.000 edgecolor
newpath 1758.5 1266 moveto
1755 1256 lineto
1751.5 1266 lineto
closepath stroke
0.000 0.000 0.000 edgecolor
14.00 /Times-Roman set_font
1754.62 1353.4 moveto 6.75 (9) alignedtext
grestore
% node31
gsave
1 setlinewidth
0.000 0.000 0.000 nodecolor
1368 2191 77.7613 18.3848 ellipse_path stroke
0.000 0.000 0.000 nodecolor
14.00 /Times-Roman set_font
1303.12 2187.4 moveto 129.75 ([0, 1, 2, 3, 4, 5, 6, 8, 9]) alignedtext
grestore
% node30->node31
gsave
1 setlinewidth
0.000 0.000 0.000 edgecolor
newpath 1346 2348 moveto
1350 2317 1359 2256 1364 2220 curveto
stroke
0.000 0.000 0.000 edgecolor
newpath 1367.49 2220.3 moveto
1365 2210 lineto
1360.52 2219.6 lineto
closepath fill
1 setlinewidth
solid
0.000 0.000 0.000 edgecolor
newpath 1367.49 2220.3 moveto
1365 2210 lineto
1360.52 2219.6 lineto
closepath stroke
0.000 0.000 0.000 edgecolor
14.00 /Times-Roman set_font
1351.62 2317.4 moveto 6.75 (2) alignedtext
grestore
% node32
gsave
2 setlinewidth
bold
0.000 0.000 0.000 nodecolor
1372 1931 103.061 103.061 ellipse_path stroke
0.000 0.000 0.000 nodecolor
14.00 /Times-Roman set_font
1307.12 1927.4 moveto 129.75 ([0, 1, 2, 3, 4, 5, 6, 8, 9]) alignedtext
grestore
% node31->node32
gsave
1 setlinewidth
0.000 0.000 0.000 edgecolor
newpath 1368 2172 moveto
1368 2145 1369 2093 1370 2044 curveto
stroke
0.000 0.000 0.000 edgecolor
newpath 1373.5 2044 moveto
1370 2034 lineto
1366.5 2044 lineto
closepath fill
1 setlinewidth
solid
0.000 0.000 0.000 edgecolor
newpath 1373.5 2044 moveto
1370 2034 lineto
1366.5 2044 lineto
closepath stroke
0.000 0.000 0.000 edgecolor
14.00 /Times-Roman set_font
1372.62 2057.4 moveto 6.75 (6) alignedtext
grestore
% node35
gsave
1 setlinewidth
0.000 0.000 0.000 nodecolor
691 1931 71.1348 18.3848 ellipse_path stroke
0.000 0.000 0.000 nodecolor
14.00 /Times-Roman set_font
633.25 1927.4 moveto 115.5 ([0, 1, 2, 3, 5, 6, 8, 9]) alignedtext
grestore
% node34->node35
gsave
1 setlinewidth
0.000 0.000 0.000 edgecolor
newpath 691 2172 moveto
691 2128 691 2013 691 1960 curveto
stroke
0.000 0.000 0.000 edgecolor
newpath 694.5 1960 moveto
691 1950 lineto
687.5 1960 lineto
closepath fill
1 setlinewidth
solid
0.000 0.000 0.000 edgecolor
newpath 694.5 1960 moveto
691 1950 lineto
687.5 1960 lineto
closepath stroke
0.000 0.000 0.000 edgecolor
14.00 /Times-Roman set_font
691.625 2057.4 moveto 6.75 (0) alignedtext
grestore
% node36
gsave
1 setlinewidth
0.000 0.000 0.000 nodecolor
691 1671 77.7613 18.3848 ellipse_path stroke
0.000 0.000 0.000 nodecolor
14.00 /Times-Roman set_font
626.125 1667.4 moveto 129.75 ([0, 1, 2, 3, 4, 5, 6, 8, 9]) alignedtext
grestore
% node35->node36
gsave
1 setlinewidth
0.000 0.000 0.000 edgecolor
newpath 691 1912 moveto
691 1868 691 1753 691 1700 curveto
stroke
0.000 0.000 0.000 edgecolor
newpath 694.5 1700 moveto
691 1690 lineto
687.5 1700 lineto
closepath fill
1 setlinewidth
solid
0.000 0.000 0.000 edgecolor
newpath 694.5 1700 moveto
691 1690 lineto
687.5 1700 lineto
closepath stroke
0.000 0.000 0.000 edgecolor
14.00 /Times-Roman set_font
691.625 1797.4 moveto 6.75 (2) alignedtext
grestore
% node37
gsave
1 setlinewidth
0.000 0.000 0.000 nodecolor
691 1495 71.1348 18.3848 ellipse_path stroke
0.000 0.000 0.000 nodecolor
14.00 /Times-Roman set_font
633.25 1491.4 moveto 115.5 ([0, 1, 2, 3, 5, 6, 8, 9]) alignedtext
grestore
% node36->node37
gsave
1 setlinewidth
0.000 0.000 0.000 edgecolor
newpath 691 1652 moveto
691 1621 691 1561 691 1524 curveto
stroke
0.000 0.000 0.000 edgecolor
newpath 694.5 1524 moveto
691 1514 lineto
687.5 1524 lineto
closepath fill
1 setlinewidth
solid
0.000 0.000 0.000 edgecolor
newpath 694.5 1524 moveto
691 1514 lineto
687.5 1524 lineto
closepath stroke
0.000 0.000 0.000 edgecolor
14.00 /Times-Roman set_font
691.625 1537.4 moveto 6.75 (5) alignedtext
grestore
% node38
gsave
1 setlinewidth
0.000 0.000 0.000 nodecolor
691 1403 71.1348 18.3848 ellipse_path stroke
0.000 0.000 0.000 nodecolor
14.00 /Times-Roman set_font
633.25 1399.4 moveto 115.5 ([0, 1, 2, 3, 5, 6, 8, 9]) alignedtext
grestore
% node37->node38
gsave
1 setlinewidth
0.000 0.000 0.000 edgecolor
newpath 691 1476 moveto
691 1463 691 1447 691 1432 curveto
stroke
0.000 0.000 0.000 edgecolor
newpath 694.5 1432 moveto
691 1422 lineto
687.5 1432 lineto
closepath fill
1 setlinewidth
solid
0.000 0.000 0.000 edgecolor
newpath 694.5 1432 moveto
691 1422 lineto
687.5 1432 lineto
closepath stroke
0.000 0.000 0.000 edgecolor
14.00 /Times-Roman set_font
691.625 1445.4 moveto 6.75 (1) alignedtext
grestore
% node39
gsave
2 setlinewidth
bold
0.000 0.000 0.000 nodecolor
691 1237 92.9845 92.9845 ellipse_path stroke
0.000 0.000 0.000 nodecolor
14.00 /Times-Roman set_font
633.25 1233.4 moveto 115.5 ([0, 1, 2, 3, 5, 6, 8, 9]) alignedtext
grestore
% node38->node39
gsave
1 setlinewidth
0.000 0.000 0.000 edgecolor
newpath 691 1384 moveto
691 1372 691 1357 691 1340 curveto
stroke
0.000 0.000 0.000 edgecolor
newpath 694.5 1340 moveto
691 1330 lineto
687.5 1340 lineto
closepath fill
1 setlinewidth
solid
0.000 0.000 0.000 edgecolor
newpath 694.5 1340 moveto
691 1330 lineto
687.5 1340 lineto
closepath stroke
0.000 0.000 0.000 edgecolor
14.00 /Times-Roman set_font
691.625 1353.4 moveto 6.75 (6) alignedtext
grestore
% node41
gsave
1 setlinewidth
0.000 0.000 0.000 nodecolor
1564 2191 77.7613 18.3848 ellipse_path stroke
0.000 0.000 0.000 nodecolor
14.00 /Times-Roman set_font
1499.12 2187.4 moveto 129.75 ([0, 1, 2, 3, 4, 5, 6, 8, 9]) alignedtext
grestore
% node40->node41
gsave
1 setlinewidth
0.000 0.000 0.000 edgecolor
newpath 1564 2348 moveto
1564 2317 1564 2257 1564 2220 curveto
stroke
0.000 0.000 0.000 edgecolor
newpath 1567.5 2220 moveto
1564 2210 lineto
1560.5 2220 lineto
closepath fill
1 setlinewidth
solid
0.000 0.000 0.000 edgecolor
newpath 1567.5 2220 moveto
1564 2210 lineto
1560.5 2220 lineto
closepath stroke
0.000 0.000 0.000 edgecolor
14.00 /Times-Roman set_font
1564.62 2317.4 moveto 6.75 (2) alignedtext
grestore
% node42
gsave
1 setlinewidth
0.000 0.000 0.000 nodecolor
1564 1931 71.1348 18.3848 ellipse_path stroke
0.000 0.000 0.000 nodecolor
14.00 /Times-Roman set_font
1506.25 1927.4 moveto 115.5 ([0, 1, 2, 3, 5, 6, 8, 9]) alignedtext
grestore
% node41->node42
gsave
1 setlinewidth
0.000 0.000 0.000 edgecolor
newpath 1564 2172 moveto
1564 2128 1564 2013 1564 1960 curveto
stroke
0.000 0.000 0.000 edgecolor
newpath 1567.5 1960 moveto
1564 1950 lineto
1560.5 1960 lineto
closepath fill
1 setlinewidth
solid
0.000 0.000 0.000 edgecolor
newpath 1567.5 1960 moveto
1564 1950 lineto
1560.5 1960 lineto
closepath stroke
0.000 0.000 0.000 edgecolor
14.00 /Times-Roman set_font
1564.62 2057.4 moveto 6.75 (4) alignedtext
grestore
% node43
gsave
2 setlinewidth
bold
0.000 0.000 0.000 nodecolor
1559 1671 92.9845 92.9845 ellipse_path stroke
0.000 0.000 0.000 nodecolor
14.00 /Times-Roman set_font
1501.25 1667.4 moveto 115.5 ([0, 1, 2, 3, 5, 6, 8, 9]) alignedtext
grestore
% node42->node43
gsave
1 setlinewidth
0.000 0.000 0.000 edgecolor
newpath 1564 1912 moveto
1563 1884 1562 1826 1561 1774 curveto
stroke
0.000 0.000 0.000 edgecolor
newpath 1564.5 1774 moveto
1561 1764 lineto
1557.5 1774 lineto
closepath fill
1 setlinewidth
solid
0.000 0.000 0.000 edgecolor
newpath 1564.5 1774 moveto
1561 1764 lineto
1557.5 1774 lineto
closepath stroke
0.000 0.000 0.000 edgecolor
14.00 /Times-Roman set_font
1563.62 1797.4 moveto 6.75 (6) alignedtext
grestore
% node45
gsave
1 setlinewidth
0.000 0.000 0.000 nodecolor
992 1931 71.1348 18.3848 ellipse_path stroke
0.000 0.000 0.000 nodecolor
14.00 /Times-Roman set_font
934.25 1927.4 moveto 115.5 ([0, 1, 2, 3, 5, 6, 8, 9]) alignedtext
grestore
% node44->node45
gsave
1 setlinewidth
0.000 0.000 0.000 edgecolor
newpath 1010 2172 moveto
1006 2128 998 2013 994 1960 curveto
stroke
0.000 0.000 0.000 edgecolor
newpath 997.478 1959.6 moveto
993 1950 lineto
990.512 1960.3 lineto
closepath fill
1 setlinewidth
solid
0.000 0.000 0.000 edgecolor
newpath 997.478 1959.6 moveto
993 1950 lineto
990.512 1960.3 lineto
closepath stroke
0.000 0.000 0.000 edgecolor
14.00 /Times-Roman set_font
1003.62 2057.4 moveto 6.75 (0) alignedtext
grestore
% node46
gsave
1 setlinewidth
0.000 0.000 0.000 nodecolor
990 1671 77.7613 18.3848 ellipse_path stroke
0.000 0.000 0.000 nodecolor
14.00 /Times-Roman set_font
925.125 1667.4 moveto 129.75 ([0, 1, 2, 3, 4, 5, 6, 8, 9]) alignedtext
grestore
% node45->node46
gsave
1 setlinewidth
0.000 0.000 0.000 edgecolor
newpath 992 1912 moveto
991 1868 990 1753 990 1700 curveto
stroke
0.000 0.000 0.000 edgecolor
newpath 993.5 1700 moveto
990 1690 lineto
986.5 1700 lineto
closepath fill
1 setlinewidth
solid
0.000 0.000 0.000 edgecolor
newpath 993.5 1700 moveto
990 1690 lineto
986.5 1700 lineto
closepath stroke
0.000 0.000 0.000 edgecolor
14.00 /Times-Roman set_font
992.625 1797.4 moveto 6.75 (2) alignedtext
grestore
% node47
gsave
1 setlinewidth
0.000 0.000 0.000 nodecolor
990 1495 77.7613 18.3848 ellipse_path stroke
0.000 0.000 0.000 nodecolor
14.00 /Times-Roman set_font
925.125 1491.4 moveto 129.75 ([0, 1, 2, 3, 4, 5, 6, 8, 9]) alignedtext
grestore
% node46->node47
gsave
1 setlinewidth
0.000 0.000 0.000 edgecolor
newpath 990 1652 moveto
990 1621 990 1561 990 1524 curveto
stroke
0.000 0.000 0.000 edgecolor
newpath 993.5 1524 moveto
990 1514 lineto
986.5 1524 lineto
closepath fill
1 setlinewidth
solid
0.000 0.000 0.000 edgecolor
newpath 993.5 1524 moveto
990 1514 lineto
986.5 1524 lineto
closepath stroke
0.000 0.000 0.000 edgecolor
14.00 /Times-Roman set_font
990.625 1537.4 moveto 6.75 (1) alignedtext
grestore
% node48
gsave
1 setlinewidth
0.000 0.000 0.000 nodecolor
990 1403 71.1348 18.3848 ellipse_path stroke
0.000 0.000 0.000 nodecolor
14.00 /Times-Roman set_font
932.25 1399.4 moveto 115.5 ([0, 1, 2, 3, 5, 6, 8, 9]) alignedtext
grestore
% node47->node48
gsave
1 setlinewidth
0.000 0.000 0.000 edgecolor
newpath 990 1476 moveto
990 1463 990 1447 990 1432 curveto
stroke
0.000 0.000 0.000 edgecolor
newpath 993.5 1432 moveto
990 1422 lineto
986.5 1432 lineto
closepath fill
1 setlinewidth
solid
0.000 0.000 0.000 edgecolor
newpath 993.5 1432 moveto
990 1422 lineto
986.5 1432 lineto
closepath stroke
0.000 0.000 0.000 edgecolor
14.00 /Times-Roman set_font
990.625 1445.4 moveto 6.75 (5) alignedtext
grestore
% node49
gsave
1 setlinewidth
0.000 0.000 0.000 nodecolor
990 1237 84.8855 18.3848 ellipse_path stroke
0.000 0.000 0.000 nodecolor
14.00 /Times-Roman set_font
918 1233.4 moveto 144 ([0, 1, 2, 3, 4, 5, 6, 7, 8, 9]) alignedtext
grestore
% node48->node49
gsave
1 setlinewidth
0.000 0.000 0.000 edgecolor
newpath 990 1384 moveto
990 1355 990 1300 990 1266 curveto
stroke
0.000 0.000 0.000 edgecolor
newpath 993.5 1266 moveto
990 1256 lineto
986.5 1266 lineto
closepath fill
1 setlinewidth
solid
0.000 0.000 0.000 edgecolor
newpath 993.5 1266 moveto
990 1256 lineto
986.5 1266 lineto
closepath stroke
0.000 0.000 0.000 edgecolor
14.00 /Times-Roman set_font
990.625 1353.4 moveto 6.75 (8) alignedtext
grestore
% node50
gsave
1 setlinewidth
0.000 0.000 0.000 nodecolor
989 1071 84.8855 18.3848 ellipse_path stroke
0.000 0.000 0.000 nodecolor
14.00 /Times-Roman set_font
917 1067.4 moveto 144 ([0, 1, 2, 3, 4, 5, 6, 7, 8, 9]) alignedtext
grestore
% node49->node50
gsave
1 setlinewidth
0.000 0.000 0.000 edgecolor
newpath 990 1218 moveto
990 1189 989 1134 989 1100 curveto
stroke
0.000 0.000 0.000 edgecolor
newpath 992.5 1100 moveto
989 1090 lineto
985.5 1100 lineto
closepath fill
1 setlinewidth
solid
0.000 0.000 0.000 edgecolor
newpath 992.5 1100 moveto
989 1090 lineto
985.5 1100 lineto
closepath stroke
0.000 0.000 0.000 edgecolor
14.00 /Times-Roman set_font
990.625 1113.4 moveto 6.75 (1) alignedtext
grestore
% node51
gsave
1 setlinewidth
0.000 0.000 0.000 nodecolor
986 979 84.8855 18.3848 ellipse_path stroke
0.000 0.000 0.000 nodecolor
14.00 /Times-Roman set_font
914 975.4 moveto 144 ([0, 1, 2, 3, 4, 5, 6, 7, 8, 9]) alignedtext
grestore
% node50->node51
gsave
1 setlinewidth
0.000 0.000 0.000 edgecolor
newpath 988 1052 moveto
988 1039 987 1023 987 1008 curveto
stroke
0.000 0.000 0.000 edgecolor
newpath 990.5 1008 moveto
987 998 lineto
983.5 1008 lineto
closepath fill
1 setlinewidth
solid
0.000 0.000 0.000 edgecolor
newpath 990.5 1008 moveto
987 998 lineto
983.5 1008 lineto
closepath stroke
0.000 0.000 0.000 edgecolor
14.00 /Times-Roman set_font
989.625 1021.4 moveto 6.75 (7) alignedtext
grestore
% node52
gsave
2 setlinewidth
bold
0.000 0.000 0.000 nodecolor
986 887 17.8879 18.3848 ellipse_path stroke
0.000 0.000 0.000 nodecolor
14.00 /Times-Roman set_font
981.5 883.4 moveto 9 ([]) alignedtext
grestore
% node51->node52
gsave
1 setlinewidth
0.000 0.000 0.000 edgecolor
newpath 986 960 moveto
986 947 986 931 986 916 curveto
stroke
0.000 0.000 0.000 edgecolor
newpath 989.5 916 moveto
986 906 lineto
982.5 916 lineto
closepath fill
1 setlinewidth
solid
0.000 0.000 0.000 edgecolor
newpath 989.5 916 moveto
986 906 lineto
982.5 916 lineto
closepath stroke
0.000 0.000 0.000 edgecolor
14.00 /Times-Roman set_font
986.625 929.4 moveto 6.75 (9) alignedtext
grestore
% node54
gsave
1 setlinewidth
0.000 0.000 0.000 nodecolor
1938 1671 77.7613 18.3848 ellipse_path stroke
0.000 0.000 0.000 nodecolor
14.00 /Times-Roman set_font
1873.12 1667.4 moveto 129.75 ([0, 1, 2, 3, 5, 6, 7, 8, 9]) alignedtext
grestore
% node53->node54
gsave
1 setlinewidth
0.000 0.000 0.000 edgecolor
newpath 1938 1912 moveto
1938 1868 1938 1753 1938 1700 curveto
stroke
0.000 0.000 0.000 edgecolor
newpath 1941.5 1700 moveto
1938 1690 lineto
1934.5 1700 lineto
closepath fill
1 setlinewidth
solid
0.000 0.000 0.000 edgecolor
newpath 1941.5 1700 moveto
1938 1690 lineto
1934.5 1700 lineto
closepath stroke
0.000 0.000 0.000 edgecolor
14.00 /Times-Roman set_font
1937.62 1797.4 moveto 6.75 (5) alignedtext
grestore
% node55
gsave
1 setlinewidth
0.000 0.000 0.000 nodecolor
1938 1495 77.7613 18.3848 ellipse_path stroke
0.000 0.000 0.000 nodecolor
14.00 /Times-Roman set_font
1873.12 1491.4 moveto 129.75 ([0, 1, 2, 3, 5, 6, 7, 8, 9]) alignedtext
grestore
% node54->node55
gsave
1 setlinewidth
0.000 0.000 0.000 edgecolor
newpath 1938 1652 moveto
1938 1621 1938 1561 1938 1524 curveto
stroke
0.000 0.000 0.000 edgecolor
newpath 1941.5 1524 moveto
1938 1514 lineto
1934.5 1524 lineto
closepath fill
1 setlinewidth
solid
0.000 0.000 0.000 edgecolor
newpath 1941.5 1524 moveto
1938 1514 lineto
1934.5 1524 lineto
closepath stroke
0.000 0.000 0.000 edgecolor
14.00 /Times-Roman set_font
1937.62 1537.4 moveto 6.75 (7) alignedtext
grestore
% node56
gsave
1 setlinewidth
0.000 0.000 0.000 nodecolor
1938 1403 77.7613 18.3848 ellipse_path stroke
0.000 0.000 0.000 nodecolor
14.00 /Times-Roman set_font
1873.12 1399.4 moveto 129.75 ([0, 1, 2, 3, 5, 6, 7, 8, 9]) alignedtext
grestore
% node55->node56
gsave
1 setlinewidth
0.000 0.000 0.000 edgecolor
newpath 1938 1476 moveto
1938 1463 1938 1447 1938 1432 curveto
stroke
0.000 0.000 0.000 edgecolor
newpath 1941.5 1432 moveto
1938 1422 lineto
1934.5 1432 lineto
closepath fill
1 setlinewidth
solid
0.000 0.000 0.000 edgecolor
newpath 1941.5 1432 moveto
1938 1422 lineto
1934.5 1432 lineto
closepath stroke
0.000 0.000 0.000 edgecolor
14.00 /Times-Roman set_font
1937.62 1445.4 moveto 6.75 (3) alignedtext
grestore
% node57
gsave
2 setlinewidth
bold
0.000 0.000 0.000 nodecolor
1938 1237 92.9845 92.9845 ellipse_path stroke
0.000 0.000 0.000 nodecolor
14.00 /Times-Roman set_font
1880.25 1233.4 moveto 115.5 ([0, 1, 2, 3, 5, 6, 8, 9]) alignedtext
grestore
% node56->node57
gsave
1 setlinewidth
0.000 0.000 0.000 edgecolor
newpath 1938 1384 moveto
1938 1372 1938 1357 1938 1340 curveto
stroke
0.000 0.000 0.000 edgecolor
newpath 1941.5 1340 moveto
1938 1330 lineto
1934.5 1340 lineto
closepath fill
1 setlinewidth
solid
0.000 0.000 0.000 edgecolor
newpath 1941.5 1340 moveto
1938 1330 lineto
1934.5 1340 lineto
closepath stroke
0.000 0.000 0.000 edgecolor
14.00 /Times-Roman set_font
1937.62 1353.4 moveto 6.75 (6) alignedtext
grestore
% node59
gsave
1 setlinewidth
0.000 0.000 0.000 nodecolor
294 1931 84.8855 18.3848 ellipse_path stroke
0.000 0.000 0.000 nodecolor
14.00 /Times-Roman set_font
222 1927.4 moveto 144 ([0, 1, 2, 3, 4, 5, 6, 7, 8, 9]) alignedtext
grestore
% node58->node59
gsave
1 setlinewidth
0.000 0.000 0.000 edgecolor
newpath 293 2172 moveto
293 2128 294 2013 294 1960 curveto
stroke
0.000 0.000 0.000 edgecolor
newpath 297.5 1960 moveto
294 1950 lineto
290.5 1960 lineto
closepath fill
1 setlinewidth
solid
0.000 0.000 0.000 edgecolor
newpath 297.5 1960 moveto
294 1950 lineto
290.5 1960 lineto
closepath stroke
0.000 0.000 0.000 edgecolor
14.00 /Times-Roman set_font
294.625 2057.4 moveto 6.75 (1) alignedtext
grestore
% node60
gsave
1 setlinewidth
0.000 0.000 0.000 nodecolor
302 1671 77.7613 18.3848 ellipse_path stroke
0.000 0.000 0.000 nodecolor
14.00 /Times-Roman set_font
237.125 1667.4 moveto 129.75 ([0, 1, 2, 3, 5, 6, 7, 8, 9]) alignedtext
grestore
% node59->node60
gsave
1 setlinewidth
0.000 0.000 0.000 edgecolor
newpath 295 1912 moveto
296 1868 299 1753 301 1700 curveto
stroke
0.000 0.000 0.000 edgecolor
newpath 304.5 1700 moveto
301 1690 lineto
297.5 1700 lineto
closepath fill
1 setlinewidth
solid
0.000 0.000 0.000 edgecolor
newpath 304.5 1700 moveto
301 1690 lineto
297.5 1700 lineto
closepath stroke
0.000 0.000 0.000 edgecolor
14.00 /Times-Roman set_font
300.625 1797.4 moveto 6.75 (5) alignedtext
grestore
% node61
gsave
1 setlinewidth
0.000 0.000 0.000 nodecolor
302 1495 84.8855 18.3848 ellipse_path stroke
0.000 0.000 0.000 nodecolor
14.00 /Times-Roman set_font
230 1491.4 moveto 144 ([0, 1, 2, 3, 4, 5, 6, 7, 8, 9]) alignedtext
grestore
% node60->node61
gsave
1 setlinewidth
0.000 0.000 0.000 edgecolor
newpath 302 1652 moveto
302 1621 302 1561 302 1524 curveto
stroke
0.000 0.000 0.000 edgecolor
newpath 305.5 1524 moveto
302 1514 lineto
298.5 1524 lineto
closepath fill
1 setlinewidth
solid
0.000 0.000 0.000 edgecolor
newpath 305.5 1524 moveto
302 1514 lineto
298.5 1524 lineto
closepath stroke
0.000 0.000 0.000 edgecolor
14.00 /Times-Roman set_font
302.625 1537.4 moveto 6.75 (2) alignedtext
grestore
% node62
gsave
1 setlinewidth
0.000 0.000 0.000 nodecolor
302 1403 84.8855 18.3848 ellipse_path stroke
0.000 0.000 0.000 nodecolor
14.00 /Times-Roman set_font
230 1399.4 moveto 144 ([0, 1, 2, 3, 4, 5, 6, 7, 8, 9]) alignedtext
grestore
% node61->node62
gsave
1 setlinewidth
0.000 0.000 0.000 edgecolor
newpath 302 1476 moveto
302 1463 302 1447 302 1432 curveto
stroke
0.000 0.000 0.000 edgecolor
newpath 305.5 1432 moveto
302 1422 lineto
298.5 1432 lineto
closepath fill
1 setlinewidth
solid
0.000 0.000 0.000 edgecolor
newpath 305.5 1432 moveto
302 1422 lineto
298.5 1432 lineto
closepath stroke
0.000 0.000 0.000 edgecolor
14.00 /Times-Roman set_font
302.625 1445.4 moveto 6.75 (3) alignedtext
grestore
% node63
gsave
1 setlinewidth
0.000 0.000 0.000 nodecolor
302 1237 84.8855 18.3848 ellipse_path stroke
0.000 0.000 0.000 nodecolor
14.00 /Times-Roman set_font
230 1233.4 moveto 144 ([0, 1, 2, 3, 4, 5, 6, 7, 8, 9]) alignedtext
grestore
% node62->node63
gsave
1 setlinewidth
0.000 0.000 0.000 edgecolor
newpath 302 1384 moveto
302 1355 302 1300 302 1266 curveto
stroke
0.000 0.000 0.000 edgecolor
newpath 305.5 1266 moveto
302 1256 lineto
298.5 1266 lineto
closepath fill
1 setlinewidth
solid
0.000 0.000 0.000 edgecolor
newpath 305.5 1266 moveto
302 1256 lineto
298.5 1266 lineto
closepath stroke
0.000 0.000 0.000 edgecolor
14.00 /Times-Roman set_font
302.625 1353.4 moveto 6.75 (1) alignedtext
grestore
% node64
gsave
1 setlinewidth
0.000 0.000 0.000 nodecolor
302 1071 84.8855 18.3848 ellipse_path stroke
0.000 0.000 0.000 nodecolor
14.00 /Times-Roman set_font
230 1067.4 moveto 144 ([0, 1, 2, 3, 4, 5, 6, 7, 8, 9]) alignedtext
grestore
% node63->node64
gsave
1 setlinewidth
0.000 0.000 0.000 edgecolor
newpath 302 1218 moveto
302 1189 302 1134 302 1100 curveto
stroke
0.000 0.000 0.000 edgecolor
newpath 305.5 1100 moveto
302 1090 lineto
298.5 1100 lineto
closepath fill
1 setlinewidth
solid
0.000 0.000 0.000 edgecolor
newpath 305.5 1100 moveto
302 1090 lineto
298.5 1100 lineto
closepath stroke
0.000 0.000 0.000 edgecolor
14.00 /Times-Roman set_font
302.625 1113.4 moveto 6.75 (1) alignedtext
grestore
% node65
gsave
1 setlinewidth
0.000 0.000 0.000 nodecolor
302 979 84.8855 18.3848 ellipse_path stroke
0.000 0.000 0.000 nodecolor
14.00 /Times-Roman set_font
230 975.4 moveto 144 ([0, 1, 2, 3, 4, 5, 6, 7, 8, 9]) alignedtext
grestore
% node64->node65
gsave
1 setlinewidth
0.000 0.000 0.000 edgecolor
newpath 302 1052 moveto
302 1039 302 1023 302 1008 curveto
stroke
0.000 0.000 0.000 edgecolor
newpath 305.5 1008 moveto
302 998 lineto
298.5 1008 lineto
closepath fill
1 setlinewidth
solid
0.000 0.000 0.000 edgecolor
newpath 305.5 1008 moveto
302 998 lineto
298.5 1008 lineto
closepath stroke
0.000 0.000 0.000 edgecolor
14.00 /Times-Roman set_font
302.625 1021.4 moveto 6.75 (7) alignedtext
grestore
% node66
gsave
1 setlinewidth
0.000 0.000 0.000 nodecolor
302 887 84.8855 18.3848 ellipse_path stroke
0.000 0.000 0.000 nodecolor
14.00 /Times-Roman set_font
230 883.4 moveto 144 ([0, 1, 2, 3, 4, 5, 6, 7, 8, 9]) alignedtext
grestore
% node65->node66
gsave
1 setlinewidth
0.000 0.000 0.000 edgecolor
newpath 302 960 moveto
302 947 302 931 302 916 curveto
stroke
0.000 0.000 0.000 edgecolor
newpath 305.5 916 moveto
302 906 lineto
298.5 916 lineto
closepath fill
1 setlinewidth
solid
0.000 0.000 0.000 edgecolor
newpath 305.5 916 moveto
302 906 lineto
298.5 916 lineto
closepath stroke
0.000 0.000 0.000 edgecolor
14.00 /Times-Roman set_font
302.625 929.4 moveto 6.75 (3) alignedtext
grestore
% node67
gsave
1 setlinewidth
0.000 0.000 0.000 nodecolor
302 711 77.7613 18.3848 ellipse_path stroke
0.000 0.000 0.000 nodecolor
14.00 /Times-Roman set_font
237.125 707.4 moveto 129.75 ([0, 1, 2, 3, 4, 5, 6, 8, 9]) alignedtext
grestore
% node66->node67
gsave
1 setlinewidth
0.000 0.000 0.000 edgecolor
newpath 302 868 moveto
302 837 302 777 302 740 curveto
stroke
0.000 0.000 0.000 edgecolor
newpath 305.5 740 moveto
302 730 lineto
298.5 740 lineto
closepath fill
1 setlinewidth
solid
0.000 0.000 0.000 edgecolor
newpath 305.5 740 moveto
302 730 lineto
298.5 740 lineto
closepath stroke
0.000 0.000 0.000 edgecolor
14.00 /Times-Roman set_font
302.625 837.4 moveto 6.75 (6) alignedtext
grestore
% node68
gsave
1 setlinewidth
0.000 0.000 0.000 nodecolor
302 535 77.7613 18.3848 ellipse_path stroke
0.000 0.000 0.000 nodecolor
14.00 /Times-Roman set_font
237.125 531.4 moveto 129.75 ([0, 1, 2, 3, 4, 5, 6, 8, 9]) alignedtext
grestore
% node67->node68
gsave
1 setlinewidth
0.000 0.000 0.000 edgecolor
newpath 302 692 moveto
302 661 302 601 302 564 curveto
stroke
0.000 0.000 0.000 edgecolor
newpath 305.5 564 moveto
302 554 lineto
298.5 564 lineto
closepath fill
1 setlinewidth
solid
0.000 0.000 0.000 edgecolor
newpath 305.5 564 moveto
302 554 lineto
298.5 564 lineto
closepath stroke
0.000 0.000 0.000 edgecolor
14.00 /Times-Roman set_font
302.625 577.4 moveto 6.75 (3) alignedtext
grestore
% node69
gsave
1 setlinewidth
0.000 0.000 0.000 nodecolor
302 443 77.7613 18.3848 ellipse_path stroke
0.000 0.000 0.000 nodecolor
14.00 /Times-Roman set_font
237.125 439.4 moveto 129.75 ([0, 1, 2, 3, 4, 5, 6, 8, 9]) alignedtext
grestore
% node68->node69
gsave
1 setlinewidth
0.000 0.000 0.000 edgecolor
newpath 302 516 moveto
302 503 302 487 302 472 curveto
stroke
0.000 0.000 0.000 edgecolor
newpath 305.5 472 moveto
302 462 lineto
298.5 472 lineto
closepath fill
1 setlinewidth
solid
0.000 0.000 0.000 edgecolor
newpath 305.5 472 moveto
302 462 lineto
298.5 472 lineto
closepath stroke
0.000 0.000 0.000 edgecolor
14.00 /Times-Roman set_font
302.625 485.4 moveto 6.75 (0) alignedtext
grestore
% node70
gsave
1 setlinewidth
0.000 0.000 0.000 nodecolor
302 351 71.1348 18.3848 ellipse_path stroke
0.000 0.000 0.000 nodecolor
14.00 /Times-Roman set_font
244.25 347.4 moveto 115.5 ([0, 1, 2, 3, 5, 6, 8, 9]) alignedtext
grestore
% node69->node70
gsave
1 setlinewidth
0.000 0.000 0.000 edgecolor
newpath 302 424 moveto
302 411 302 395 302 380 curveto
stroke
0.000 0.000 0.000 edgecolor
newpath 305.5 380 moveto
302 370 lineto
298.5 380 lineto
closepath fill
1 setlinewidth
solid
0.000 0.000 0.000 edgecolor
newpath 305.5 380 moveto
302 370 lineto
298.5 380 lineto
closepath stroke
0.000 0.000 0.000 edgecolor
14.00 /Times-Roman set_font
302.625 393.4 moveto 6.75 (4) alignedtext
grestore
% node71
gsave
1 setlinewidth
0.000 0.000 0.000 nodecolor
302 259 71.1348 18.3848 ellipse_path stroke
0.000 0.000 0.000 nodecolor
14.00 /Times-Roman set_font
244.25 255.4 moveto 115.5 ([0, 1, 2, 3, 5, 6, 8, 9]) alignedtext
grestore
% node70->node71
gsave
1 setlinewidth
0.000 0.000 0.000 edgecolor
newpath 302 332 moveto
302 319 302 303 302 288 curveto
stroke
0.000 0.000 0.000 edgecolor
newpath 305.5 288 moveto
302 278 lineto
298.5 288 lineto
closepath fill
1 setlinewidth
solid
0.000 0.000 0.000 edgecolor
newpath 305.5 288 moveto
302 278 lineto
298.5 288 lineto
closepath stroke
0.000 0.000 0.000 edgecolor
14.00 /Times-Roman set_font
302.625 301.4 moveto 6.75 (3) alignedtext
grestore
% node72
gsave
2 setlinewidth
bold
0.000 0.000 0.000 nodecolor
302 93 92.9845 92.9845 ellipse_path stroke
0.000 0.000 0.000 nodecolor
14.00 /Times-Roman set_font
244.25 89.4 moveto 115.5 ([0, 1, 2, 3, 5, 6, 8, 9]) alignedtext
grestore
% node71->node72
gsave
1 setlinewidth
0.000 0.000 0.000 edgecolor
newpath 302 240 moveto
302 228 302 213 302 196 curveto
stroke
0.000 0.000 0.000 edgecolor
newpath 305.5 196 moveto
302 186 lineto
298.5 196 lineto
closepath fill
1 setlinewidth
solid
0.000 0.000 0.000 edgecolor
newpath 305.5 196 moveto
302 186 lineto
298.5 196 lineto
closepath stroke
0.000 0.000 0.000 edgecolor
14.00 /Times-Roman set_font
302.625 209.4 moveto 6.75 (6) alignedtext
grestore
endpage
showpage
grestore
%%PageTrailer
%%EndPage: 1
%%Trailer
%%Pages: 1
%%BoundingBox: 36 36 2075 2650
end
restore
%%EOF
