digraph message{
node0 [label="0 3" ,shape=doublecircle ];
node131 [label="0 1 2 3 4 5 6 8 9" ];
node136 [label="0 1 2 3 5 6 8 9" ];
node138 [label="0 1 2 3 4 5 6 7 8 9" ];
node139 [label="" ,shape=circle,style=bold ];
node111 [label="0 1 2 3 5 6 7 8 9" ];
node0 -> node136 [label="0"];
node0 -> node0 [label="3"];
node131 -> node131 [label="0"];
node131 -> node131 [label="1"];
node131 -> node131 [label="2"];
node131 -> node131 [label="3"];
node131 -> node136 [label="4"];
node131 -> node136 [label="5"];
node131 -> node131 [label="6"];
node136 -> node136 [label="0"];
node136 -> node136 [label="1"];
node136 -> node131 [label="2"];
node136 -> node136 [label="3"];
node136 -> node136 [label="5"];
node136 -> node136 [label="6"];
node136 -> node138 [label="8"];
node136 -> node139 [label="9"];
node138 -> node138 [label="1"];
node138 -> node138 [label="2"];
node138 -> node138 [label="3"];
node138 -> node111 [label="4"];
node138 -> node111 [label="5"];
node138 -> node131 [label="6"];
node138 -> node138 [label="7"];
node138 -> node138 [label="8"];
node138 -> node139 [label="9"];
node111 -> node138 [label="2"];
node111 -> node111 [label="3"];
node111 -> node111 [label="5"];
node111 -> node136 [label="6"];
node111 -> node111 [label="7"];
node111 -> node139 [label="9"];
}
