%!PS-Adobe-2.0
%%Creator: Graphviz version 2.16 (Fri Feb  8 12:54:58 UTC 2008)
%%For: (pmilani) Paolo,,,
%%Title: message
%%Pages: (atend)
%%BoundingBox: (atend)
%%EndComments
save
%%BeginProlog
/DotDict 200 dict def
DotDict begin

/setupLatin1 {
mark
/EncodingVector 256 array def
 EncodingVector 0

ISOLatin1Encoding 0 255 getinterval putinterval
EncodingVector 45 /hyphen put

% Set up ISO Latin 1 character encoding
/starnetISO {
        dup dup findfont dup length dict begin
        { 1 index /FID ne { def }{ pop pop } ifelse
        } forall
        /Encoding EncodingVector def
        currentdict end definefont
} def
/Times-Roman starnetISO def
/Times-Italic starnetISO def
/Times-Bold starnetISO def
/Times-BoldItalic starnetISO def
/Helvetica starnetISO def
/Helvetica-Oblique starnetISO def
/Helvetica-Bold starnetISO def
/Helvetica-BoldOblique starnetISO def
/Courier starnetISO def
/Courier-Oblique starnetISO def
/Courier-Bold starnetISO def
/Courier-BoldOblique starnetISO def
cleartomark
} bind def

%%BeginResource: procset graphviz 0 0
/coord-font-family /Times-Roman def
/default-font-family /Times-Roman def
/coordfont coord-font-family findfont 8 scalefont def

/InvScaleFactor 1.0 def
/set_scale {
       dup 1 exch div /InvScaleFactor exch def
       scale
} bind def

% styles
/solid { [] 0 setdash } bind def
/dashed { [9 InvScaleFactor mul dup ] 0 setdash } bind def
/dotted { [1 InvScaleFactor mul 6 InvScaleFactor mul] 0 setdash } bind def
/invis {/fill {newpath} def /stroke {newpath} def /show {pop newpath} def} bind def
/bold { 2 setlinewidth } bind def
/filled { } bind def
/unfilled { } bind def
/rounded { } bind def
/diagonals { } bind def

% hooks for setting color 
/nodecolor { sethsbcolor } bind def
/edgecolor { sethsbcolor } bind def
/graphcolor { sethsbcolor } bind def
/nopcolor {pop pop pop} bind def

/beginpage {	% i j npages
	/npages exch def
	/j exch def
	/i exch def
	/str 10 string def
	npages 1 gt {
		gsave
			coordfont setfont
			0 0 moveto
			(\() show i str cvs show (,) show j str cvs show (\)) show
		grestore
	} if
} bind def

/set_font {
	findfont exch
	scalefont setfont
} def

% draw text fitted to its expected width
/alignedtext {			% width text
	/text exch def
	/width exch def
	gsave
		width 0 gt {
			[] 0 setdash
			text stringwidth pop width exch sub text length div 0 text ashow
		} if
	grestore
} def

/boxprim {				% xcorner ycorner xsize ysize
		4 2 roll
		moveto
		2 copy
		exch 0 rlineto
		0 exch rlineto
		pop neg 0 rlineto
		closepath
} bind def

/ellipse_path {
	/ry exch def
	/rx exch def
	/y exch def
	/x exch def
	matrix currentmatrix
	newpath
	x y translate
	rx ry scale
	0 0 1 0 360 arc
	setmatrix
} bind def

/endpage { showpage } bind def
/showpage { } def

/layercolorseq
	[	% layer color sequence - darkest to lightest
		[0 0 0]
		[.2 .8 .8]
		[.4 .8 .8]
		[.6 .8 .8]
		[.8 .8 .8]
	]
def

/layerlen layercolorseq length def

/setlayer {/maxlayer exch def /curlayer exch def
	layercolorseq curlayer 1 sub layerlen mod get
	aload pop sethsbcolor
	/nodecolor {nopcolor} def
	/edgecolor {nopcolor} def
	/graphcolor {nopcolor} def
} bind def

/onlayer { curlayer ne {invis} if } def

/onlayers {
	/myupper exch def
	/mylower exch def
	curlayer mylower lt
	curlayer myupper gt
	or
	{invis} if
} def

/curlayer 0 def

%%EndResource
%%EndProlog
%%BeginSetup
14 default-font-family set_font
1 setmiterlimit
% /arrowlength 10 def
% /arrowwidth 5 def

% make sure pdfmark is harmless for PS-interpreters other than Distiller
/pdfmark where {pop} {userdict /pdfmark /cleartomark load put} ifelse
% make '<<' and '>>' safe on PS Level 1 devices
/languagelevel where {pop languagelevel}{1} ifelse
2 lt {
    userdict (<<) cvn ([) cvn load put
    userdict (>>) cvn ([) cvn load put
} if

%%EndSetup
setupLatin1
%%Page: 1 1
%%PageBoundingBox: 36 36 572 466
%%PageOrientation: Portrait
0 0 1 beginpage
gsave
36 36 536 430 boxprim clip newpath
1 1 set_scale 0 rotate 40 40 translate
% node0
gsave
1 setlinewidth
0.000 0.000 0.000 nodecolor
191 394 23.0838 23.5113 ellipse_path stroke
1 setlinewidth
0.000 0.000 0.000 nodecolor
191 394 27.0111 27.5113 ellipse_path stroke
0.000 0.000 0.000 nodecolor
14.00 /Times-Roman set_font
182.375 390.4 moveto 17.25 (0 3) alignedtext
grestore
% node0->node0
gsave
1 setlinewidth
0.000 0.000 0.000 edgecolor
newpath 216 404 moveto
227 404 236 401 236 394 curveto
236 389 232 387 226 385 curveto
stroke
0.000 0.000 0.000 edgecolor
newpath 226.299 381.512 moveto
216 384 lineto
225.602 388.478 lineto
closepath fill
1 setlinewidth
solid
0.000 0.000 0.000 edgecolor
newpath 226.299 381.512 moveto
216 384 lineto
225.602 388.478 lineto
closepath stroke
0.000 0.000 0.000 edgecolor
14.00 /Times-Roman set_font
236.625 390.4 moveto 6.75 (3) alignedtext
grestore
% node136
gsave
1 setlinewidth
0.000 0.000 0.000 nodecolor
191 293 53.0097 18.3848 ellipse_path stroke
0.000 0.000 0.000 nodecolor
14.00 /Times-Roman set_font
150.875 289.4 moveto 80.25 (0 1 2 3 5 6 8 9) alignedtext
grestore
% node0->node136
gsave
1 setlinewidth
0.000 0.000 0.000 edgecolor
newpath 191 366 moveto
191 353 191 336 191 322 curveto
stroke
0.000 0.000 0.000 edgecolor
newpath 194.5 322 moveto
191 312 lineto
187.5 322 lineto
closepath fill
1 setlinewidth
solid
0.000 0.000 0.000 edgecolor
newpath 194.5 322 moveto
191 312 lineto
187.5 322 lineto
closepath stroke
0.000 0.000 0.000 edgecolor
14.00 /Times-Roman set_font
191.625 335.4 moveto 6.75 (0) alignedtext
grestore
% node131
gsave
1 setlinewidth
0.000 0.000 0.000 nodecolor
59 109 58.7598 18.3848 ellipse_path stroke
0.000 0.000 0.000 nodecolor
14.00 /Times-Roman set_font
13.625 105.4 moveto 90.75 (0 1 2 3 4 5 6 8 9) alignedtext
grestore
% node131->node131
gsave
1 setlinewidth
0.000 0.000 0.000 edgecolor
newpath 118 110 moveto
129 110 136 110 136 109 curveto
136 108 133 108 128 108 curveto
stroke
0.000 0.000 0.000 edgecolor
newpath 128 104.5 moveto
118 108 lineto
128 111.5 lineto
closepath fill
1 setlinewidth
solid
0.000 0.000 0.000 edgecolor
newpath 128 104.5 moveto
118 108 lineto
128 111.5 lineto
closepath stroke
0.000 0.000 0.000 edgecolor
14.00 /Times-Roman set_font
136.625 105.4 moveto 6.75 (0) alignedtext
grestore
% node131->node131
gsave
1 setlinewidth
0.000 0.000 0.000 edgecolor
newpath 99 123 moveto
127 127 154 122 154 109 curveto
154 98 133 92 109 94 curveto
stroke
0.000 0.000 0.000 edgecolor
newpath 108.602 90.5222 moveto
99 95 lineto
109.299 97.4875 lineto
closepath fill
1 setlinewidth
solid
0.000 0.000 0.000 edgecolor
newpath 108.602 90.5222 moveto
99 95 lineto
109.299 97.4875 lineto
closepath stroke
0.000 0.000 0.000 edgecolor
14.00 /Times-Roman set_font
154.625 105.4 moveto 6.75 (1) alignedtext
grestore
% node131->node131
gsave
1 setlinewidth
0.000 0.000 0.000 edgecolor
newpath 99 123 moveto
134 129 172 125 172 109 curveto
172 95 141 90 109 94 curveto
stroke
0.000 0.000 0.000 edgecolor
newpath 108.602 90.5222 moveto
99 95 lineto
109.299 97.4875 lineto
closepath fill
1 setlinewidth
solid
0.000 0.000 0.000 edgecolor
newpath 108.602 90.5222 moveto
99 95 lineto
109.299 97.4875 lineto
closepath stroke
0.000 0.000 0.000 edgecolor
14.00 /Times-Roman set_font
172.625 105.4 moveto 6.75 (2) alignedtext
grestore
% node131->node131
gsave
1 setlinewidth
0.000 0.000 0.000 edgecolor
newpath 99 123 moveto
142 131 190 127 190 109 curveto
190 92 149 88 109 93 curveto
stroke
0.000 0.000 0.000 edgecolor
newpath 108.119 89.6067 moveto
99 95 lineto
109.492 96.4708 lineto
closepath fill
1 setlinewidth
solid
0.000 0.000 0.000 edgecolor
newpath 108.119 89.6067 moveto
99 95 lineto
109.492 96.4708 lineto
closepath stroke
0.000 0.000 0.000 edgecolor
14.00 /Times-Roman set_font
190.625 105.4 moveto 6.75 (3) alignedtext
grestore
% node131->node131
gsave
1 setlinewidth
0.000 0.000 0.000 edgecolor
newpath 99 123 moveto
148 134 208 129 208 109 curveto
208 90 156 85 109 93 curveto
stroke
0.000 0.000 0.000 edgecolor
newpath 108.119 89.6067 moveto
99 95 lineto
109.492 96.4708 lineto
closepath fill
1 setlinewidth
solid
0.000 0.000 0.000 edgecolor
newpath 108.119 89.6067 moveto
99 95 lineto
109.492 96.4708 lineto
closepath stroke
0.000 0.000 0.000 edgecolor
14.00 /Times-Roman set_font
208.625 105.4 moveto 6.75 (6) alignedtext
grestore
% node131->node136
gsave
1 setlinewidth
0.000 0.000 0.000 edgecolor
newpath 97 123 moveto
108 129 120 136 128 146 curveto
160 180 177 232 185 265 curveto
stroke
0.000 0.000 0.000 edgecolor
newpath 181.607 265.881 moveto
187 275 lineto
188.471 264.508 lineto
closepath fill
1 setlinewidth
solid
0.000 0.000 0.000 edgecolor
newpath 181.607 265.881 moveto
187 275 lineto
188.471 264.508 lineto
closepath stroke
0.000 0.000 0.000 edgecolor
14.00 /Times-Roman set_font
172.625 197.4 moveto 6.75 (4) alignedtext
grestore
% node131->node136
gsave
1 setlinewidth
0.000 0.000 0.000 edgecolor
newpath 59 128 moveto
60 159 66 220 100 256 curveto
111 267 124 274 137 279 curveto
stroke
0.000 0.000 0.000 edgecolor
newpath 136.415 282.536 moveto
147 283 lineto
139.015 276.036 lineto
closepath fill
1 setlinewidth
solid
0.000 0.000 0.000 edgecolor
newpath 136.415 282.536 moveto
147 283 lineto
139.015 276.036 lineto
closepath stroke
0.000 0.000 0.000 edgecolor
14.00 /Times-Roman set_font
79.625 197.4 moveto 6.75 (5) alignedtext
grestore
% node136->node131
gsave
1 setlinewidth
0.000 0.000 0.000 edgecolor
newpath 178 275 moveto
155 243 105 173 78 135 curveto
stroke
0.000 0.000 0.000 edgecolor
newpath 80.8 132.9 moveto
72 127 lineto
75.2 137.1 lineto
closepath fill
1 setlinewidth
solid
0.000 0.000 0.000 edgecolor
newpath 80.8 132.9 moveto
72 127 lineto
75.2 137.1 lineto
closepath stroke
0.000 0.000 0.000 edgecolor
14.00 /Times-Roman set_font
139.625 197.4 moveto 6.75 (2) alignedtext
grestore
% node136->node136
gsave
1 setlinewidth
0.000 0.000 0.000 edgecolor
newpath 228 306 moveto
254 311 280 306 280 293 curveto
280 282 260 276 238 279 curveto
stroke
0.000 0.000 0.000 edgecolor
newpath 237.602 275.522 moveto
228 280 lineto
238.299 282.488 lineto
closepath fill
1 setlinewidth
solid
0.000 0.000 0.000 edgecolor
newpath 237.602 275.522 moveto
228 280 lineto
238.299 282.488 lineto
closepath stroke
0.000 0.000 0.000 edgecolor
14.00 /Times-Roman set_font
280.625 289.4 moveto 6.75 (1) alignedtext
grestore
% node136->node136
gsave
1 setlinewidth
0.000 0.000 0.000 edgecolor
newpath 227 306 moveto
261 313 298 309 298 293 curveto
298 279 268 274 237 278 curveto
stroke
0.000 0.000 0.000 edgecolor
newpath 236.119 274.607 moveto
227 280 lineto
237.492 281.471 lineto
closepath fill
1 setlinewidth
solid
0.000 0.000 0.000 edgecolor
newpath 236.119 274.607 moveto
227 280 lineto
237.492 281.471 lineto
closepath stroke
0.000 0.000 0.000 edgecolor
14.00 /Times-Roman set_font
298.625 289.4 moveto 6.75 (3) alignedtext
grestore
% node136->node136
gsave
1 setlinewidth
0.000 0.000 0.000 edgecolor
newpath 228 306 moveto
269 316 316 311 316 293 curveto
316 276 276 271 238 278 curveto
stroke
0.000 0.000 0.000 edgecolor
newpath 237.119 274.607 moveto
228 280 lineto
238.492 281.471 lineto
closepath fill
1 setlinewidth
solid
0.000 0.000 0.000 edgecolor
newpath 237.119 274.607 moveto
228 280 lineto
238.492 281.471 lineto
closepath stroke
0.000 0.000 0.000 edgecolor
14.00 /Times-Roman set_font
316.625 289.4 moveto 6.75 (5) alignedtext
grestore
% node136->node136
gsave
1 setlinewidth
0.000 0.000 0.000 edgecolor
newpath 228 306 moveto
276 318 334 313 334 293 curveto
334 274 284 269 238 278 curveto
stroke
0.000 0.000 0.000 edgecolor
newpath 237.119 274.607 moveto
228 280 lineto
238.492 281.471 lineto
closepath fill
1 setlinewidth
solid
0.000 0.000 0.000 edgecolor
newpath 237.119 274.607 moveto
228 280 lineto
238.492 281.471 lineto
closepath stroke
0.000 0.000 0.000 edgecolor
14.00 /Times-Roman set_font
334.625 289.4 moveto 6.75 (6) alignedtext
grestore
% node136->node136
gsave
1 setlinewidth
0.000 0.000 0.000 edgecolor
newpath 244 294 moveto
255 294 262 294 262 293 curveto
262 292 259 292 254 292 curveto
stroke
0.000 0.000 0.000 edgecolor
newpath 254 288.5 moveto
244 292 lineto
254 295.5 lineto
closepath fill
1 setlinewidth
solid
0.000 0.000 0.000 edgecolor
newpath 254 288.5 moveto
244 292 lineto
254 295.5 lineto
closepath stroke
0.000 0.000 0.000 edgecolor
14.00 /Times-Roman set_font
262.625 289.4 moveto 6.75 (0) alignedtext
grestore
% node138
gsave
1 setlinewidth
0.000 0.000 0.000 nodecolor
252 201 64.0098 18.3848 ellipse_path stroke
0.000 0.000 0.000 nodecolor
14.00 /Times-Roman set_font
201.375 197.4 moveto 101.25 (0 1 2 3 4 5 6 7 8 9) alignedtext
grestore
% node136->node138
gsave
1 setlinewidth
0.000 0.000 0.000 edgecolor
newpath 203 275 moveto
212 262 224 243 234 228 curveto
stroke
0.000 0.000 0.000 edgecolor
newpath 237.365 229.262 moveto
240 219 lineto
231.541 225.379 lineto
closepath fill
1 setlinewidth
solid
0.000 0.000 0.000 edgecolor
newpath 237.365 229.262 moveto
240 219 lineto
231.541 225.379 lineto
closepath stroke
0.000 0.000 0.000 edgecolor
14.00 /Times-Roman set_font
226.625 243.4 moveto 6.75 (8) alignedtext
grestore
% node139
gsave
2 setlinewidth
bold
0.000 0.000 0.000 nodecolor
357 18 18 18 ellipse_path stroke
grestore
% node136->node139
gsave
1 setlinewidth
0.000 0.000 0.000 edgecolor
newpath 243 290 moveto
288 286 353 277 405 256 curveto
432 245 442 242 461 220 curveto
498 173 528 141 497 90 curveto
473 50 418 32 385 23 curveto
stroke
0.000 0.000 0.000 edgecolor
newpath 385.492 19.5292 moveto
375 21 lineto
384.119 26.3933 lineto
closepath fill
1 setlinewidth
solid
0.000 0.000 0.000 edgecolor
newpath 385.492 19.5292 moveto
375 21 lineto
384.119 26.3933 lineto
closepath stroke
0.000 0.000 0.000 edgecolor
14.00 /Times-Roman set_font
506.625 151.4 moveto 6.75 (9) alignedtext
grestore
% node138->node131
gsave
1 setlinewidth
0.000 0.000 0.000 edgecolor
newpath 232 183 moveto
217 171 196 156 175 146 curveto
157 137 135 129 116 123 curveto
stroke
0.000 0.000 0.000 edgecolor
newpath 116.584 119.521 moveto
106 120 lineto
114.573 126.226 lineto
closepath fill
1 setlinewidth
solid
0.000 0.000 0.000 edgecolor
newpath 116.584 119.521 moveto
106 120 lineto
114.573 126.226 lineto
closepath stroke
0.000 0.000 0.000 edgecolor
14.00 /Times-Roman set_font
207.625 151.4 moveto 6.75 (6) alignedtext
grestore
% node138->node138
gsave
1 setlinewidth
0.000 0.000 0.000 edgecolor
newpath 316 202 moveto
327 202 334 202 334 201 curveto
334 200 331 200 326 200 curveto
stroke
0.000 0.000 0.000 edgecolor
newpath 326 196.5 moveto
316 200 lineto
326 203.5 lineto
closepath fill
1 setlinewidth
solid
0.000 0.000 0.000 edgecolor
newpath 326 196.5 moveto
316 200 lineto
326 203.5 lineto
closepath stroke
0.000 0.000 0.000 edgecolor
14.00 /Times-Roman set_font
334.625 197.4 moveto 6.75 (1) alignedtext
grestore
% node138->node138
gsave
1 setlinewidth
0.000 0.000 0.000 edgecolor
newpath 295 215 moveto
324 219 352 214 352 201 curveto
352 190 330 184 305 186 curveto
stroke
0.000 0.000 0.000 edgecolor
newpath 304.602 182.522 moveto
295 187 lineto
305.299 189.488 lineto
closepath fill
1 setlinewidth
solid
0.000 0.000 0.000 edgecolor
newpath 304.602 182.522 moveto
295 187 lineto
305.299 189.488 lineto
closepath stroke
0.000 0.000 0.000 edgecolor
14.00 /Times-Roman set_font
351.625 197.4 moveto 6.75 (2) alignedtext
grestore
% node138->node138
gsave
1 setlinewidth
0.000 0.000 0.000 edgecolor
newpath 295 215 moveto
331 221 370 216 370 201 curveto
370 187 338 182 305 186 curveto
stroke
0.000 0.000 0.000 edgecolor
newpath 304.602 182.522 moveto
295 187 lineto
305.299 189.488 lineto
closepath fill
1 setlinewidth
solid
0.000 0.000 0.000 edgecolor
newpath 304.602 182.522 moveto
295 187 lineto
305.299 189.488 lineto
closepath stroke
0.000 0.000 0.000 edgecolor
14.00 /Times-Roman set_font
369.625 197.4 moveto 6.75 (3) alignedtext
grestore
% node138->node138
gsave
1 setlinewidth
0.000 0.000 0.000 edgecolor
newpath 294 215 moveto
338 223 388 219 388 201 curveto
388 184 345 180 304 185 curveto
stroke
0.000 0.000 0.000 edgecolor
newpath 303.119 181.607 moveto
294 187 lineto
304.492 188.471 lineto
closepath fill
1 setlinewidth
solid
0.000 0.000 0.000 edgecolor
newpath 303.119 181.607 moveto
294 187 lineto
304.492 188.471 lineto
closepath stroke
0.000 0.000 0.000 edgecolor
14.00 /Times-Roman set_font
387.625 197.4 moveto 6.75 (7) alignedtext
grestore
% node138->node138
gsave
1 setlinewidth
0.000 0.000 0.000 edgecolor
newpath 294 215 moveto
346 226 406 221 406 201 curveto
406 182 353 177 304 185 curveto
stroke
0.000 0.000 0.000 edgecolor
newpath 303.119 181.607 moveto
294 187 lineto
304.492 188.471 lineto
closepath fill
1 setlinewidth
solid
0.000 0.000 0.000 edgecolor
newpath 303.119 181.607 moveto
294 187 lineto
304.492 188.471 lineto
closepath stroke
0.000 0.000 0.000 edgecolor
14.00 /Times-Roman set_font
405.625 197.4 moveto 6.75 (8) alignedtext
grestore
% node138->node139
gsave
1 setlinewidth
0.000 0.000 0.000 edgecolor
newpath 254 182 moveto
258 159 266 119 283 90 curveto
297 68 318 48 334 35 curveto
stroke
0.000 0.000 0.000 edgecolor
newpath 336.1 37.8 moveto
342 29 lineto
331.9 32.2 lineto
closepath fill
1 setlinewidth
solid
0.000 0.000 0.000 edgecolor
newpath 336.1 37.8 moveto
342 29 lineto
331.9 32.2 lineto
closepath stroke
0.000 0.000 0.000 edgecolor
14.00 /Times-Roman set_font
283.625 105.4 moveto 6.75 (9) alignedtext
grestore
% node111
gsave
1 setlinewidth
0.000 0.000 0.000 nodecolor
357 109 58.7598 18.3848 ellipse_path stroke
0.000 0.000 0.000 nodecolor
14.00 /Times-Roman set_font
311.625 105.4 moveto 90.75 (0 1 2 3 5 6 7 8 9) alignedtext
grestore
% node138->node111
gsave
1 setlinewidth
0.000 0.000 0.000 edgecolor
newpath 284 185 moveto
294 179 305 172 314 164 curveto
323 155 333 145 340 135 curveto
stroke
0.000 0.000 0.000 edgecolor
newpath 342.668 137.335 moveto
345 127 lineto
336.732 133.625 lineto
closepath fill
1 setlinewidth
solid
0.000 0.000 0.000 edgecolor
newpath 342.668 137.335 moveto
345 127 lineto
336.732 133.625 lineto
closepath stroke
0.000 0.000 0.000 edgecolor
14.00 /Times-Roman set_font
332.625 151.4 moveto 6.75 (4) alignedtext
grestore
% node138->node111
gsave
1 setlinewidth
0.000 0.000 0.000 edgecolor
newpath 302 189 moveto
317 184 332 176 342 164 curveto
348 157 351 147 354 138 curveto
stroke
0.000 0.000 0.000 edgecolor
newpath 357.471 138.492 moveto
356 128 lineto
350.607 137.119 lineto
closepath fill
1 setlinewidth
solid
0.000 0.000 0.000 edgecolor
newpath 357.471 138.492 moveto
356 128 lineto
350.607 137.119 lineto
closepath stroke
0.000 0.000 0.000 edgecolor
14.00 /Times-Roman set_font
350.625 151.4 moveto 6.75 (5) alignedtext
grestore
% node111->node136
gsave
1 setlinewidth
0.000 0.000 0.000 edgecolor
newpath 386 125 moveto
420 147 470 185 445 220 curveto
421 250 317 273 250 284 curveto
stroke
0.000 0.000 0.000 edgecolor
newpath 249.119 280.607 moveto
240 286 lineto
250.492 287.471 lineto
closepath fill
1 setlinewidth
solid
0.000 0.000 0.000 edgecolor
newpath 249.119 280.607 moveto
240 286 lineto
250.492 287.471 lineto
closepath stroke
0.000 0.000 0.000 edgecolor
14.00 /Times-Roman set_font
450.625 197.4 moveto 6.75 (6) alignedtext
grestore
% node111->node138
gsave
1 setlinewidth
0.000 0.000 0.000 edgecolor
newpath 334 126 moveto
327 132 318 139 311 146 curveto
300 156 288 166 278 176 curveto
stroke
0.000 0.000 0.000 edgecolor
newpath 275.221 173.781 moveto
270 183 lineto
279.831 179.049 lineto
closepath fill
1 setlinewidth
solid
0.000 0.000 0.000 edgecolor
newpath 275.221 173.781 moveto
270 183 lineto
279.831 179.049 lineto
closepath stroke
0.000 0.000 0.000 edgecolor
14.00 /Times-Roman set_font
311.625 151.4 moveto 6.75 (2) alignedtext
grestore
% node111->node139
gsave
1 setlinewidth
0.000 0.000 0.000 edgecolor
newpath 357 90 moveto
357 77 357 61 357 46 curveto
stroke
0.000 0.000 0.000 edgecolor
newpath 360.5 46 moveto
357 36 lineto
353.5 46 lineto
closepath fill
1 setlinewidth
solid
0.000 0.000 0.000 edgecolor
newpath 360.5 46 moveto
357 36 lineto
353.5 46 lineto
closepath stroke
0.000 0.000 0.000 edgecolor
14.00 /Times-Roman set_font
356.625 59.4 moveto 6.75 (9) alignedtext
grestore
% node111->node111
gsave
1 setlinewidth
0.000 0.000 0.000 edgecolor
newpath 416 111 moveto
427 111 434 110 434 109 curveto
434 108 431 108 426 107 curveto
stroke
0.000 0.000 0.000 edgecolor
newpath 426 103.5 moveto
416 107 lineto
426 110.5 lineto
closepath fill
1 setlinewidth
solid
0.000 0.000 0.000 edgecolor
newpath 426 103.5 moveto
416 107 lineto
426 110.5 lineto
closepath stroke
0.000 0.000 0.000 edgecolor
14.00 /Times-Roman set_font
433.625 105.4 moveto 6.75 (3) alignedtext
grestore
% node111->node111
gsave
1 setlinewidth
0.000 0.000 0.000 edgecolor
newpath 396 123 moveto
424 128 452 123 452 109 curveto
452 97 430 91 406 94 curveto
stroke
0.000 0.000 0.000 edgecolor
newpath 405.602 90.5222 moveto
396 95 lineto
406.299 97.4875 lineto
closepath fill
1 setlinewidth
solid
0.000 0.000 0.000 edgecolor
newpath 405.602 90.5222 moveto
396 95 lineto
406.299 97.4875 lineto
closepath stroke
0.000 0.000 0.000 edgecolor
14.00 /Times-Roman set_font
451.625 105.4 moveto 6.75 (5) alignedtext
grestore
% node111->node111
gsave
1 setlinewidth
0.000 0.000 0.000 edgecolor
newpath 394 123 moveto
430 131 470 126 470 109 curveto
470 94 437 88 404 93 curveto
stroke
0.000 0.000 0.000 edgecolor
newpath 403.119 89.6067 moveto
394 95 lineto
404.492 96.4708 lineto
closepath fill
1 setlinewidth
solid
0.000 0.000 0.000 edgecolor
newpath 403.119 89.6067 moveto
394 95 lineto
404.492 96.4708 lineto
closepath stroke
0.000 0.000 0.000 edgecolor
14.00 /Times-Roman set_font
469.625 105.4 moveto 6.75 (7) alignedtext
grestore
endpage
showpage
grestore
%%PageTrailer
%%EndPage: 1
%%Trailer
%%Pages: 1
%%BoundingBox: 36 36 572 466
end
restore
%%EOF
