%!PS-Adobe-2.0
%%Creator: Graphviz version 2.16 (Fri Feb  8 12:54:58 UTC 2008)
%%For: (pmilani) Paolo,,,
%%Title: message
%%Pages: (atend)
%%BoundingBox: (atend)
%%EndComments
save
%%BeginProlog
/DotDict 200 dict def
DotDict begin

/setupLatin1 {
mark
/EncodingVector 256 array def
 EncodingVector 0

ISOLatin1Encoding 0 255 getinterval putinterval
EncodingVector 45 /hyphen put

% Set up ISO Latin 1 character encoding
/starnetISO {
        dup dup findfont dup length dict begin
        { 1 index /FID ne { def }{ pop pop } ifelse
        } forall
        /Encoding EncodingVector def
        currentdict end definefont
} def
/Times-Roman starnetISO def
/Times-Italic starnetISO def
/Times-Bold starnetISO def
/Times-BoldItalic starnetISO def
/Helvetica starnetISO def
/Helvetica-Oblique starnetISO def
/Helvetica-Bold starnetISO def
/Helvetica-BoldOblique starnetISO def
/Courier starnetISO def
/Courier-Oblique starnetISO def
/Courier-Bold starnetISO def
/Courier-BoldOblique starnetISO def
cleartomark
} bind def

%%BeginResource: procset graphviz 0 0
/coord-font-family /Times-Roman def
/default-font-family /Times-Roman def
/coordfont coord-font-family findfont 8 scalefont def

/InvScaleFactor 1.0 def
/set_scale {
       dup 1 exch div /InvScaleFactor exch def
       scale
} bind def

% styles
/solid { [] 0 setdash } bind def
/dashed { [9 InvScaleFactor mul dup ] 0 setdash } bind def
/dotted { [1 InvScaleFactor mul 6 InvScaleFactor mul] 0 setdash } bind def
/invis {/fill {newpath} def /stroke {newpath} def /show {pop newpath} def} bind def
/bold { 2 setlinewidth } bind def
/filled { } bind def
/unfilled { } bind def
/rounded { } bind def
/diagonals { } bind def

% hooks for setting color 
/nodecolor { sethsbcolor } bind def
/edgecolor { sethsbcolor } bind def
/graphcolor { sethsbcolor } bind def
/nopcolor {pop pop pop} bind def

/beginpage {	% i j npages
	/npages exch def
	/j exch def
	/i exch def
	/str 10 string def
	npages 1 gt {
		gsave
			coordfont setfont
			0 0 moveto
			(\() show i str cvs show (,) show j str cvs show (\)) show
		grestore
	} if
} bind def

/set_font {
	findfont exch
	scalefont setfont
} def

% draw text fitted to its expected width
/alignedtext {			% width text
	/text exch def
	/width exch def
	gsave
		width 0 gt {
			[] 0 setdash
			text stringwidth pop width exch sub text length div 0 text ashow
		} if
	grestore
} def

/boxprim {				% xcorner ycorner xsize ysize
		4 2 roll
		moveto
		2 copy
		exch 0 rlineto
		0 exch rlineto
		pop neg 0 rlineto
		closepath
} bind def

/ellipse_path {
	/ry exch def
	/rx exch def
	/y exch def
	/x exch def
	matrix currentmatrix
	newpath
	x y translate
	rx ry scale
	0 0 1 0 360 arc
	setmatrix
} bind def

/endpage { showpage } bind def
/showpage { } def

/layercolorseq
	[	% layer color sequence - darkest to lightest
		[0 0 0]
		[.2 .8 .8]
		[.4 .8 .8]
		[.6 .8 .8]
		[.8 .8 .8]
	]
def

/layerlen layercolorseq length def

/setlayer {/maxlayer exch def /curlayer exch def
	layercolorseq curlayer 1 sub layerlen mod get
	aload pop sethsbcolor
	/nodecolor {nopcolor} def
	/edgecolor {nopcolor} def
	/graphcolor {nopcolor} def
} bind def

/onlayer { curlayer ne {invis} if } def

/onlayers {
	/myupper exch def
	/mylower exch def
	curlayer mylower lt
	curlayer myupper gt
	or
	{invis} if
} def

/curlayer 0 def

%%EndResource
%%EndProlog
%%BeginSetup
14 default-font-family set_font
1 setmiterlimit
% /arrowlength 10 def
% /arrowwidth 5 def

% make sure pdfmark is harmless for PS-interpreters other than Distiller
/pdfmark where {pop} {userdict /pdfmark /cleartomark load put} ifelse
% make '<<' and '>>' safe on PS Level 1 devices
/languagelevel where {pop languagelevel}{1} ifelse
2 lt {
    userdict (<<) cvn ([) cvn load put
    userdict (>>) cvn ([) cvn load put
} if

%%EndSetup
setupLatin1
%%Page: 1 1
%%PageBoundingBox: 36 36 485 554
%%PageOrientation: Portrait
0 0 1 beginpage
gsave
36 36 449 518 boxprim clip newpath
1 1 set_scale 0 rotate 40 40 translate
% node0
gsave
1 setlinewidth
0.000 0.000 0.000 nodecolor
160 468 37.8302 37.8302 ellipse_path stroke
1 setlinewidth
0.000 0.000 0.000 nodecolor
160 468 41.8302 41.8302 ellipse_path stroke
0.000 0.000 0.000 nodecolor
14.00 /Times-Roman set_font
141.25 464.4 moveto 37.5 (State 0) alignedtext
grestore
% node0->node0
gsave
1 setlinewidth
0.000 0.000 0.000 edgecolor
newpath 200 481 moveto
211 480 220 476 220 468 curveto
220 463 216 459 210 457 curveto
stroke
0.000 0.000 0.000 edgecolor
newpath 210.492 453.529 moveto
200 455 lineto
209.119 460.393 lineto
closepath fill
1 setlinewidth
solid
0.000 0.000 0.000 edgecolor
newpath 210.492 453.529 moveto
200 455 lineto
209.119 460.393 lineto
closepath stroke
0.000 0.000 0.000 edgecolor
14.00 /Times-Roman set_font
220.625 464.4 moveto 6.75 (3) alignedtext
grestore
% node136
gsave
1 setlinewidth
0.000 0.000 0.000 nodecolor
160 353 38.8848 18.3848 ellipse_path stroke
0.000 0.000 0.000 nodecolor
14.00 /Times-Roman set_font
134.5 349.4 moveto 51 (State 136) alignedtext
grestore
% node0->node136
gsave
1 setlinewidth
0.000 0.000 0.000 edgecolor
newpath 160 426 moveto
160 411 160 395 160 382 curveto
stroke
0.000 0.000 0.000 edgecolor
newpath 163.5 382 moveto
160 372 lineto
156.5 382 lineto
closepath fill
1 setlinewidth
solid
0.000 0.000 0.000 edgecolor
newpath 163.5 382 moveto
160 372 lineto
156.5 382 lineto
closepath stroke
0.000 0.000 0.000 edgecolor
14.00 /Times-Roman set_font
160.625 395.4 moveto 6.75 (0) alignedtext
grestore
% node131
gsave
1 setlinewidth
0.000 0.000 0.000 nodecolor
39 169 38.8848 18.3848 ellipse_path stroke
0.000 0.000 0.000 nodecolor
14.00 /Times-Roman set_font
13.5 165.4 moveto 51 (State 131) alignedtext
grestore
% node131->node131
gsave
1 setlinewidth
0.000 0.000 0.000 edgecolor
newpath 78 170 moveto
88 170 96 170 96 169 curveto
96 168 93 168 88 168 curveto
stroke
0.000 0.000 0.000 edgecolor
newpath 88 164.5 moveto
78 168 lineto
88 171.5 lineto
closepath fill
1 setlinewidth
solid
0.000 0.000 0.000 edgecolor
newpath 88 164.5 moveto
78 168 lineto
88 171.5 lineto
closepath stroke
0.000 0.000 0.000 edgecolor
14.00 /Times-Roman set_font
96.625 165.4 moveto 6.75 (0) alignedtext
grestore
% node131->node131
gsave
1 setlinewidth
0.000 0.000 0.000 edgecolor
newpath 67 182 moveto
90 187 114 183 114 169 curveto
114 157 96 152 77 154 curveto
stroke
0.000 0.000 0.000 edgecolor
newpath 76.1194 150.607 moveto
67 156 lineto
77.4922 157.471 lineto
closepath fill
1 setlinewidth
solid
0.000 0.000 0.000 edgecolor
newpath 76.1194 150.607 moveto
67 156 lineto
77.4922 157.471 lineto
closepath stroke
0.000 0.000 0.000 edgecolor
14.00 /Times-Roman set_font
114.625 165.4 moveto 6.75 (1) alignedtext
grestore
% node131->node131
gsave
1 setlinewidth
0.000 0.000 0.000 edgecolor
newpath 68 182 moveto
98 190 132 185 132 169 curveto
132 155 105 149 78 154 curveto
stroke
0.000 0.000 0.000 edgecolor
newpath 77.1194 150.607 moveto
68 156 lineto
78.4922 157.471 lineto
closepath fill
1 setlinewidth
solid
0.000 0.000 0.000 edgecolor
newpath 77.1194 150.607 moveto
68 156 lineto
78.4922 157.471 lineto
closepath stroke
0.000 0.000 0.000 edgecolor
14.00 /Times-Roman set_font
132.625 165.4 moveto 6.75 (2) alignedtext
grestore
% node131->node131
gsave
1 setlinewidth
0.000 0.000 0.000 edgecolor
newpath 68 181 moveto
105 192 150 188 150 169 curveto
150 152 112 147 78 154 curveto
stroke
0.000 0.000 0.000 edgecolor
newpath 76.5725 150.774 moveto
68 157 lineto
78.584 157.479 lineto
closepath fill
1 setlinewidth
solid
0.000 0.000 0.000 edgecolor
newpath 76.5725 150.774 moveto
68 157 lineto
78.584 157.479 lineto
closepath stroke
0.000 0.000 0.000 edgecolor
14.00 /Times-Roman set_font
150.625 165.4 moveto 6.75 (3) alignedtext
grestore
% node131->node131
gsave
1 setlinewidth
0.000 0.000 0.000 edgecolor
newpath 68 181 moveto
113 194 168 190 168 169 curveto
168 150 121 145 78 154 curveto
stroke
0.000 0.000 0.000 edgecolor
newpath 76.5725 150.774 moveto
68 157 lineto
78.584 157.479 lineto
closepath fill
1 setlinewidth
solid
0.000 0.000 0.000 edgecolor
newpath 76.5725 150.774 moveto
68 157 lineto
78.584 157.479 lineto
closepath stroke
0.000 0.000 0.000 edgecolor
14.00 /Times-Roman set_font
168.625 165.4 moveto 6.75 (6) alignedtext
grestore
% node131->node136
gsave
1 setlinewidth
0.000 0.000 0.000 edgecolor
newpath 67 182 moveto
78 188 90 196 98 206 curveto
128 241 145 292 154 324 curveto
stroke
0.000 0.000 0.000 edgecolor
newpath 150.607 324.881 moveto
156 334 lineto
157.471 323.508 lineto
closepath fill
1 setlinewidth
solid
0.000 0.000 0.000 edgecolor
newpath 150.607 324.881 moveto
156 334 lineto
157.471 323.508 lineto
closepath stroke
0.000 0.000 0.000 edgecolor
14.00 /Times-Roman set_font
141.625 257.4 moveto 6.75 (4) alignedtext
grestore
% node131->node136
gsave
1 setlinewidth
0.000 0.000 0.000 edgecolor
newpath 37 188 moveto
35 219 36 281 70 316 curveto
82 327 99 336 114 342 curveto
stroke
0.000 0.000 0.000 edgecolor
newpath 113.416 345.479 moveto
124 345 lineto
115.427 338.774 lineto
closepath fill
1 setlinewidth
solid
0.000 0.000 0.000 edgecolor
newpath 113.416 345.479 moveto
124 345 lineto
115.427 338.774 lineto
closepath stroke
0.000 0.000 0.000 edgecolor
14.00 /Times-Roman set_font
50.625 257.4 moveto 6.75 (5) alignedtext
grestore
% node136->node131
gsave
1 setlinewidth
0.000 0.000 0.000 edgecolor
newpath 148 335 moveto
127 303 81 233 57 195 curveto
stroke
0.000 0.000 0.000 edgecolor
newpath 59.8 192.9 moveto
51 187 lineto
54.2 197.1 lineto
closepath fill
1 setlinewidth
solid
0.000 0.000 0.000 edgecolor
newpath 59.8 192.9 moveto
51 187 lineto
54.2 197.1 lineto
closepath stroke
0.000 0.000 0.000 edgecolor
14.00 /Times-Roman set_font
113.625 257.4 moveto 6.75 (2) alignedtext
grestore
% node136->node136
gsave
1 setlinewidth
0.000 0.000 0.000 edgecolor
newpath 188 366 moveto
211 371 235 367 235 353 curveto
235 341 217 336 198 338 curveto
stroke
0.000 0.000 0.000 edgecolor
newpath 197.119 334.607 moveto
188 340 lineto
198.492 341.471 lineto
closepath fill
1 setlinewidth
solid
0.000 0.000 0.000 edgecolor
newpath 197.119 334.607 moveto
188 340 lineto
198.492 341.471 lineto
closepath stroke
0.000 0.000 0.000 edgecolor
14.00 /Times-Roman set_font
235.625 349.4 moveto 6.75 (1) alignedtext
grestore
% node136->node136
gsave
1 setlinewidth
0.000 0.000 0.000 edgecolor
newpath 189 366 moveto
219 374 253 369 253 353 curveto
253 339 226 333 199 338 curveto
stroke
0.000 0.000 0.000 edgecolor
newpath 198.119 334.607 moveto
189 340 lineto
199.492 341.471 lineto
closepath fill
1 setlinewidth
solid
0.000 0.000 0.000 edgecolor
newpath 198.119 334.607 moveto
189 340 lineto
199.492 341.471 lineto
closepath stroke
0.000 0.000 0.000 edgecolor
14.00 /Times-Roman set_font
253.625 349.4 moveto 6.75 (3) alignedtext
grestore
% node136->node136
gsave
1 setlinewidth
0.000 0.000 0.000 edgecolor
newpath 189 365 moveto
226 376 271 372 271 353 curveto
271 336 233 331 199 338 curveto
stroke
0.000 0.000 0.000 edgecolor
newpath 197.573 334.774 moveto
189 341 lineto
199.584 341.479 lineto
closepath fill
1 setlinewidth
solid
0.000 0.000 0.000 edgecolor
newpath 197.573 334.774 moveto
189 341 lineto
199.584 341.479 lineto
closepath stroke
0.000 0.000 0.000 edgecolor
14.00 /Times-Roman set_font
271.625 349.4 moveto 6.75 (5) alignedtext
grestore
% node136->node136
gsave
1 setlinewidth
0.000 0.000 0.000 edgecolor
newpath 189 365 moveto
234 378 289 374 289 353 curveto
289 334 242 329 199 338 curveto
stroke
0.000 0.000 0.000 edgecolor
newpath 197.573 334.774 moveto
189 341 lineto
199.584 341.479 lineto
closepath fill
1 setlinewidth
solid
0.000 0.000 0.000 edgecolor
newpath 197.573 334.774 moveto
189 341 lineto
199.584 341.479 lineto
closepath stroke
0.000 0.000 0.000 edgecolor
14.00 /Times-Roman set_font
289.625 349.4 moveto 6.75 (6) alignedtext
grestore
% node136->node136
gsave
1 setlinewidth
0.000 0.000 0.000 edgecolor
newpath 199 354 moveto
209 354 217 354 217 353 curveto
217 352 214 352 209 352 curveto
stroke
0.000 0.000 0.000 edgecolor
newpath 209 348.5 moveto
199 352 lineto
209 355.5 lineto
closepath fill
1 setlinewidth
solid
0.000 0.000 0.000 edgecolor
newpath 209 348.5 moveto
199 352 lineto
209 355.5 lineto
closepath stroke
0.000 0.000 0.000 edgecolor
14.00 /Times-Roman set_font
217.625 349.4 moveto 6.75 (0) alignedtext
grestore
% node138
gsave
1 setlinewidth
0.000 0.000 0.000 nodecolor
204 261 38.8848 18.3848 ellipse_path stroke
0.000 0.000 0.000 nodecolor
14.00 /Times-Roman set_font
178.5 257.4 moveto 51 (State 138) alignedtext
grestore
% node136->node138
gsave
1 setlinewidth
0.000 0.000 0.000 edgecolor
newpath 169 335 moveto
176 322 184 303 191 288 curveto
stroke
0.000 0.000 0.000 edgecolor
newpath 194.137 289.56 moveto
195 279 lineto
187.74 286.717 lineto
closepath fill
1 setlinewidth
solid
0.000 0.000 0.000 edgecolor
newpath 194.137 289.56 moveto
195 279 lineto
187.74 286.717 lineto
closepath stroke
0.000 0.000 0.000 edgecolor
14.00 /Times-Roman set_font
185.625 303.4 moveto 6.75 (8) alignedtext
grestore
% node139
gsave
2 setlinewidth
bold
0.000 0.000 0.000 nodecolor
297 48 46.8775 47.3762 ellipse_path stroke
0.000 0.000 0.000 nodecolor
14.00 /Times-Roman set_font
271.5 44.4 moveto 51 (State 139) alignedtext
grestore
% node136->node139
gsave
1 setlinewidth
0.000 0.000 0.000 edgecolor
newpath 198 350 moveto
236 345 293 336 338 316 curveto
363 304 371 302 388 280 curveto
422 232 441 203 417 150 curveto
403 119 373 94 347 76 curveto
stroke
0.000 0.000 0.000 edgecolor
newpath 349.1 73.2 moveto
339 70 lineto
344.9 78.8 lineto
closepath fill
1 setlinewidth
solid
0.000 0.000 0.000 edgecolor
newpath 349.1 73.2 moveto
339 70 lineto
344.9 78.8 lineto
closepath stroke
0.000 0.000 0.000 edgecolor
14.00 /Times-Roman set_font
424.625 211.4 moveto 6.75 (9) alignedtext
grestore
% node138->node131
gsave
1 setlinewidth
0.000 0.000 0.000 edgecolor
newpath 191 243 moveto
181 231 166 216 150 206 curveto
130 193 106 185 85 179 curveto
stroke
0.000 0.000 0.000 edgecolor
newpath 85.584 175.521 moveto
75 176 lineto
83.5725 182.226 lineto
closepath fill
1 setlinewidth
solid
0.000 0.000 0.000 edgecolor
newpath 85.584 175.521 moveto
75 176 lineto
83.5725 182.226 lineto
closepath stroke
0.000 0.000 0.000 edgecolor
14.00 /Times-Roman set_font
174.625 211.4 moveto 6.75 (6) alignedtext
grestore
% node138->node138
gsave
1 setlinewidth
0.000 0.000 0.000 edgecolor
newpath 243 262 moveto
253 262 261 262 261 261 curveto
261 260 258 260 253 260 curveto
stroke
0.000 0.000 0.000 edgecolor
newpath 253 256.5 moveto
243 260 lineto
253 263.5 lineto
closepath fill
1 setlinewidth
solid
0.000 0.000 0.000 edgecolor
newpath 253 256.5 moveto
243 260 lineto
253 263.5 lineto
closepath stroke
0.000 0.000 0.000 edgecolor
14.00 /Times-Roman set_font
261.625 257.4 moveto 6.75 (1) alignedtext
grestore
% node138->node138
gsave
1 setlinewidth
0.000 0.000 0.000 edgecolor
newpath 232 274 moveto
255 279 279 275 279 261 curveto
279 249 261 244 242 246 curveto
stroke
0.000 0.000 0.000 edgecolor
newpath 241.119 242.607 moveto
232 248 lineto
242.492 249.471 lineto
closepath fill
1 setlinewidth
solid
0.000 0.000 0.000 edgecolor
newpath 241.119 242.607 moveto
232 248 lineto
242.492 249.471 lineto
closepath stroke
0.000 0.000 0.000 edgecolor
14.00 /Times-Roman set_font
279.625 257.4 moveto 6.75 (2) alignedtext
grestore
% node138->node138
gsave
1 setlinewidth
0.000 0.000 0.000 edgecolor
newpath 233 274 moveto
263 282 297 277 297 261 curveto
297 247 270 241 243 246 curveto
stroke
0.000 0.000 0.000 edgecolor
newpath 242.119 242.607 moveto
233 248 lineto
243.492 249.471 lineto
closepath fill
1 setlinewidth
solid
0.000 0.000 0.000 edgecolor
newpath 242.119 242.607 moveto
233 248 lineto
243.492 249.471 lineto
closepath stroke
0.000 0.000 0.000 edgecolor
14.00 /Times-Roman set_font
296.625 257.4 moveto 6.75 (3) alignedtext
grestore
% node138->node138
gsave
1 setlinewidth
0.000 0.000 0.000 edgecolor
newpath 233 273 moveto
270 284 315 280 315 261 curveto
315 244 277 239 243 246 curveto
stroke
0.000 0.000 0.000 edgecolor
newpath 241.573 242.774 moveto
233 249 lineto
243.584 249.479 lineto
closepath fill
1 setlinewidth
solid
0.000 0.000 0.000 edgecolor
newpath 241.573 242.774 moveto
233 249 lineto
243.584 249.479 lineto
closepath stroke
0.000 0.000 0.000 edgecolor
14.00 /Times-Roman set_font
314.625 257.4 moveto 6.75 (7) alignedtext
grestore
% node138->node138
gsave
1 setlinewidth
0.000 0.000 0.000 edgecolor
newpath 233 273 moveto
278 286 333 282 333 261 curveto
333 242 286 237 243 246 curveto
stroke
0.000 0.000 0.000 edgecolor
newpath 241.573 242.774 moveto
233 249 lineto
243.584 249.479 lineto
closepath fill
1 setlinewidth
solid
0.000 0.000 0.000 edgecolor
newpath 241.573 242.774 moveto
233 249 lineto
243.584 249.479 lineto
closepath stroke
0.000 0.000 0.000 edgecolor
14.00 /Times-Roman set_font
332.625 257.4 moveto 6.75 (8) alignedtext
grestore
% node138->node139
gsave
1 setlinewidth
0.000 0.000 0.000 edgecolor
newpath 210 242 moveto
217 220 230 181 243 150 curveto
251 133 260 115 268 98 curveto
stroke
0.000 0.000 0.000 edgecolor
newpath 271.203 99.4414 moveto
273 89 lineto
265.084 96.0418 lineto
closepath fill
1 setlinewidth
solid
0.000 0.000 0.000 edgecolor
newpath 271.203 99.4414 moveto
273 89 lineto
265.084 96.0418 lineto
closepath stroke
0.000 0.000 0.000 edgecolor
14.00 /Times-Roman set_font
243.625 165.4 moveto 6.75 (9) alignedtext
grestore
% node111
gsave
1 setlinewidth
0.000 0.000 0.000 nodecolor
297 169 38.8848 18.3848 ellipse_path stroke
0.000 0.000 0.000 nodecolor
14.00 /Times-Roman set_font
271.5 165.4 moveto 51 (State 111) alignedtext
grestore
% node138->node111
gsave
1 setlinewidth
0.000 0.000 0.000 edgecolor
newpath 235 250 moveto
249 244 264 235 274 224 curveto
281 217 286 206 290 196 curveto
stroke
0.000 0.000 0.000 edgecolor
newpath 293.158 197.594 moveto
293 187 lineto
286.517 195.38 lineto
closepath fill
1 setlinewidth
solid
0.000 0.000 0.000 edgecolor
newpath 293.158 197.594 moveto
293 187 lineto
286.517 195.38 lineto
closepath stroke
0.000 0.000 0.000 edgecolor
14.00 /Times-Roman set_font
286.625 211.4 moveto 6.75 (4) alignedtext
grestore
% node138->node111
gsave
1 setlinewidth
0.000 0.000 0.000 edgecolor
newpath 242 256 moveto
261 251 284 242 296 224 curveto
301 216 302 207 302 198 curveto
stroke
0.000 0.000 0.000 edgecolor
newpath 305.478 197.602 moveto
301 188 lineto
298.512 198.299 lineto
closepath fill
1 setlinewidth
solid
0.000 0.000 0.000 edgecolor
newpath 305.478 197.602 moveto
301 188 lineto
298.512 198.299 lineto
closepath stroke
0.000 0.000 0.000 edgecolor
14.00 /Times-Roman set_font
299.625 211.4 moveto 6.75 (5) alignedtext
grestore
% node111->node136
gsave
1 setlinewidth
0.000 0.000 0.000 edgecolor
newpath 320 184 moveto
350 205 396 246 372 280 curveto
352 307 262 331 206 344 curveto
stroke
0.000 0.000 0.000 edgecolor
newpath 205.119 340.607 moveto
196 346 lineto
206.492 347.471 lineto
closepath fill
1 setlinewidth
solid
0.000 0.000 0.000 edgecolor
newpath 205.119 340.607 moveto
196 346 lineto
206.492 347.471 lineto
closepath stroke
0.000 0.000 0.000 edgecolor
14.00 /Times-Roman set_font
377.625 257.4 moveto 6.75 (6) alignedtext
grestore
% node111->node138
gsave
1 setlinewidth
0.000 0.000 0.000 edgecolor
newpath 281 187 moveto
271 197 258 212 245 224 curveto
240 229 235 233 230 238 curveto
stroke
0.000 0.000 0.000 edgecolor
newpath 227.596 235.454 moveto
223 245 lineto
232.546 240.404 lineto
closepath fill
1 setlinewidth
solid
0.000 0.000 0.000 edgecolor
newpath 227.596 235.454 moveto
223 245 lineto
232.546 240.404 lineto
closepath stroke
0.000 0.000 0.000 edgecolor
14.00 /Times-Roman set_font
263.625 211.4 moveto 6.75 (2) alignedtext
grestore
% node111->node139
gsave
1 setlinewidth
0.000 0.000 0.000 edgecolor
newpath 297 150 moveto
297 138 297 122 297 106 curveto
stroke
0.000 0.000 0.000 edgecolor
newpath 300.5 106 moveto
297 96 lineto
293.5 106 lineto
closepath fill
1 setlinewidth
solid
0.000 0.000 0.000 edgecolor
newpath 300.5 106 moveto
297 96 lineto
293.5 106 lineto
closepath stroke
0.000 0.000 0.000 edgecolor
14.00 /Times-Roman set_font
296.625 119.4 moveto 6.75 (9) alignedtext
grestore
% node111->node111
gsave
1 setlinewidth
0.000 0.000 0.000 edgecolor
newpath 336 171 moveto
346 171 354 170 354 169 curveto
354 168 351 168 346 167 curveto
stroke
0.000 0.000 0.000 edgecolor
newpath 346 163.5 moveto
336 167 lineto
346 170.5 lineto
closepath fill
1 setlinewidth
solid
0.000 0.000 0.000 edgecolor
newpath 346 163.5 moveto
336 167 lineto
346 170.5 lineto
closepath stroke
0.000 0.000 0.000 edgecolor
14.00 /Times-Roman set_font
353.625 165.4 moveto 6.75 (3) alignedtext
grestore
% node111->node111
gsave
1 setlinewidth
0.000 0.000 0.000 edgecolor
newpath 324 182 moveto
348 188 372 184 372 169 curveto
372 156 354 151 334 154 curveto
stroke
0.000 0.000 0.000 edgecolor
newpath 333.119 150.607 moveto
324 156 lineto
334.492 157.471 lineto
closepath fill
1 setlinewidth
solid
0.000 0.000 0.000 edgecolor
newpath 333.119 150.607 moveto
324 156 lineto
334.492 157.471 lineto
closepath stroke
0.000 0.000 0.000 edgecolor
14.00 /Times-Roman set_font
371.625 165.4 moveto 6.75 (5) alignedtext
grestore
% node111->node111
gsave
1 setlinewidth
0.000 0.000 0.000 edgecolor
newpath 324 182 moveto
355 192 390 187 390 169 curveto
390 153 362 147 334 153 curveto
stroke
0.000 0.000 0.000 edgecolor
newpath 332.573 149.774 moveto
324 156 lineto
334.584 156.479 lineto
closepath fill
1 setlinewidth
solid
0.000 0.000 0.000 edgecolor
newpath 332.573 149.774 moveto
324 156 lineto
334.584 156.479 lineto
closepath stroke
0.000 0.000 0.000 edgecolor
14.00 /Times-Roman set_font
389.625 165.4 moveto 6.75 (7) alignedtext
grestore
endpage
showpage
grestore
%%PageTrailer
%%EndPage: 1
%%Trailer
%%Pages: 1
%%BoundingBox: 36 36 485 554
end
restore
%%EOF
