%!PS-Adobe-2.0
%%Creator: Graphviz version 2.16 (Fri Feb  8 12:54:58 UTC 2008)
%%For: (pmilani) Paolo,,,
%%Title: message
%%Pages: (atend)
%%BoundingBox: (atend)
%%EndComments
save
%%BeginProlog
/DotDict 200 dict def
DotDict begin

/setupLatin1 {
mark
/EncodingVector 256 array def
 EncodingVector 0

ISOLatin1Encoding 0 255 getinterval putinterval
EncodingVector 45 /hyphen put

% Set up ISO Latin 1 character encoding
/starnetISO {
        dup dup findfont dup length dict begin
        { 1 index /FID ne { def }{ pop pop } ifelse
        } forall
        /Encoding EncodingVector def
        currentdict end definefont
} def
/Times-Roman starnetISO def
/Times-Italic starnetISO def
/Times-Bold starnetISO def
/Times-BoldItalic starnetISO def
/Helvetica starnetISO def
/Helvetica-Oblique starnetISO def
/Helvetica-Bold starnetISO def
/Helvetica-BoldOblique starnetISO def
/Courier starnetISO def
/Courier-Oblique starnetISO def
/Courier-Bold starnetISO def
/Courier-BoldOblique starnetISO def
cleartomark
} bind def

%%BeginResource: procset graphviz 0 0
/coord-font-family /Times-Roman def
/default-font-family /Times-Roman def
/coordfont coord-font-family findfont 8 scalefont def

/InvScaleFactor 1.0 def
/set_scale {
       dup 1 exch div /InvScaleFactor exch def
       scale
} bind def

% styles
/solid { [] 0 setdash } bind def
/dashed { [9 InvScaleFactor mul dup ] 0 setdash } bind def
/dotted { [1 InvScaleFactor mul 6 InvScaleFactor mul] 0 setdash } bind def
/invis {/fill {newpath} def /stroke {newpath} def /show {pop newpath} def} bind def
/bold { 2 setlinewidth } bind def
/filled { } bind def
/unfilled { } bind def
/rounded { } bind def
/diagonals { } bind def

% hooks for setting color 
/nodecolor { sethsbcolor } bind def
/edgecolor { sethsbcolor } bind def
/graphcolor { sethsbcolor } bind def
/nopcolor {pop pop pop} bind def

/beginpage {	% i j npages
	/npages exch def
	/j exch def
	/i exch def
	/str 10 string def
	npages 1 gt {
		gsave
			coordfont setfont
			0 0 moveto
			(\() show i str cvs show (,) show j str cvs show (\)) show
		grestore
	} if
} bind def

/set_font {
	findfont exch
	scalefont setfont
} def

% draw text fitted to its expected width
/alignedtext {			% width text
	/text exch def
	/width exch def
	gsave
		width 0 gt {
			[] 0 setdash
			text stringwidth pop width exch sub text length div 0 text ashow
		} if
	grestore
} def

/boxprim {				% xcorner ycorner xsize ysize
		4 2 roll
		moveto
		2 copy
		exch 0 rlineto
		0 exch rlineto
		pop neg 0 rlineto
		closepath
} bind def

/ellipse_path {
	/ry exch def
	/rx exch def
	/y exch def
	/x exch def
	matrix currentmatrix
	newpath
	x y translate
	rx ry scale
	0 0 1 0 360 arc
	setmatrix
} bind def

/endpage { showpage } bind def
/showpage { } def

/layercolorseq
	[	% layer color sequence - darkest to lightest
		[0 0 0]
		[.2 .8 .8]
		[.4 .8 .8]
		[.6 .8 .8]
		[.8 .8 .8]
	]
def

/layerlen layercolorseq length def

/setlayer {/maxlayer exch def /curlayer exch def
	layercolorseq curlayer 1 sub layerlen mod get
	aload pop sethsbcolor
	/nodecolor {nopcolor} def
	/edgecolor {nopcolor} def
	/graphcolor {nopcolor} def
} bind def

/onlayer { curlayer ne {invis} if } def

/onlayers {
	/myupper exch def
	/mylower exch def
	curlayer mylower lt
	curlayer myupper gt
	or
	{invis} if
} def

/curlayer 0 def

%%EndResource
%%EndProlog
%%BeginSetup
14 default-font-family set_font
1 setmiterlimit
% /arrowlength 10 def
% /arrowwidth 5 def

% make sure pdfmark is harmless for PS-interpreters other than Distiller
/pdfmark where {pop} {userdict /pdfmark /cleartomark load put} ifelse
% make '<<' and '>>' safe on PS Level 1 devices
/languagelevel where {pop languagelevel}{1} ifelse
2 lt {
    userdict (<<) cvn ([) cvn load put
    userdict (>>) cvn ([) cvn load put
} if

%%EndSetup
setupLatin1
%%Page: 1 1
%%PageBoundingBox: 36 36 1043 2066
%%PageOrientation: Portrait
0 0 1 beginpage
gsave
36 36 1007 2030 boxprim clip newpath
1 1 set_scale 0 rotate 40 40 translate
% node0
gsave
1 setlinewidth
0.000 0.000 0.000 nodecolor
650 1980 37.8302 37.8302 ellipse_path stroke
1 setlinewidth
0.000 0.000 0.000 nodecolor
650 1980 41.8302 41.8302 ellipse_path stroke
0.000 0.000 0.000 nodecolor
14.00 /Times-Roman set_font
631.25 1976.4 moveto 37.5 (State 0) alignedtext
grestore
% node1
gsave
1 setlinewidth
0.000 0.000 0.000 nodecolor
532 1865 32.1348 18.3848 ellipse_path stroke
0.000 0.000 0.000 nodecolor
14.00 /Times-Roman set_font
513.25 1861.4 moveto 37.5 (State 1) alignedtext
grestore
% node0->node1
gsave
1 setlinewidth
0.000 0.000 0.000 edgecolor
newpath 620 1951 moveto
600 1932 574 1906 556 1888 curveto
stroke
0.000 0.000 0.000 edgecolor
newpath 558.546 1885.6 moveto
549 1881 lineto
553.596 1890.55 lineto
closepath fill
1 setlinewidth
solid
0.000 0.000 0.000 edgecolor
newpath 558.546 1885.6 moveto
549 1881 lineto
553.596 1890.55 lineto
closepath stroke
0.000 0.000 0.000 edgecolor
14.00 /Times-Roman set_font
589.625 1907.4 moveto 6.75 (0) alignedtext
grestore
% node22
gsave
1 setlinewidth
0.000 0.000 0.000 nodecolor
727 1865 35.0096 18.3848 ellipse_path stroke
0.000 0.000 0.000 nodecolor
14.00 /Times-Roman set_font
704.875 1861.4 moveto 44.25 (State 22) alignedtext
grestore
% node0->node22
gsave
1 setlinewidth
0.000 0.000 0.000 edgecolor
newpath 674 1945 moveto
685 1927 699 1907 709 1892 curveto
stroke
0.000 0.000 0.000 edgecolor
newpath 712.365 1893.26 moveto
715 1883 lineto
706.541 1889.38 lineto
closepath fill
1 setlinewidth
solid
0.000 0.000 0.000 edgecolor
newpath 712.365 1893.26 moveto
715 1883 lineto
706.541 1889.38 lineto
closepath stroke
0.000 0.000 0.000 edgecolor
14.00 /Times-Roman set_font
701.625 1907.4 moveto 6.75 (3) alignedtext
grestore
% node2
gsave
1 setlinewidth
0.000 0.000 0.000 nodecolor
124 1749 32.1348 18.3848 ellipse_path stroke
0.000 0.000 0.000 nodecolor
14.00 /Times-Roman set_font
105.25 1745.4 moveto 37.5 (State 2) alignedtext
grestore
% node1->node2
gsave
1 setlinewidth
0.000 0.000 0.000 edgecolor
newpath 503 1857 moveto
454 1844 352 1817 265 1792 curveto
230 1781 191 1769 163 1761 curveto
stroke
0.000 0.000 0.000 edgecolor
newpath 163.584 1757.52 moveto
153 1758 lineto
161.573 1764.23 lineto
closepath fill
1 setlinewidth
solid
0.000 0.000 0.000 edgecolor
newpath 163.584 1757.52 moveto
153 1758 lineto
161.573 1764.23 lineto
closepath stroke
0.000 0.000 0.000 edgecolor
14.00 /Times-Roman set_font
398.625 1815.4 moveto 6.75 (8) alignedtext
grestore
% node6
gsave
1 setlinewidth
0.000 0.000 0.000 nodecolor
306 1749 32.1348 18.3848 ellipse_path stroke
0.000 0.000 0.000 nodecolor
14.00 /Times-Roman set_font
287.25 1745.4 moveto 37.5 (State 6) alignedtext
grestore
% node1->node6
gsave
1 setlinewidth
0.000 0.000 0.000 edgecolor
newpath 505 1855 moveto
473 1841 416 1817 369 1792 curveto
357 1785 345 1777 334 1770 curveto
stroke
0.000 0.000 0.000 edgecolor
newpath 336.1 1767.2 moveto
326 1764 lineto
331.9 1772.8 lineto
closepath fill
1 setlinewidth
solid
0.000 0.000 0.000 edgecolor
newpath 336.1 1767.2 moveto
326 1764 lineto
331.9 1772.8 lineto
closepath stroke
0.000 0.000 0.000 edgecolor
14.00 /Times-Roman set_font
445.625 1815.4 moveto 6.75 (1) alignedtext
grestore
% node8
gsave
1 setlinewidth
0.000 0.000 0.000 nodecolor
410 1749 32.1348 18.3848 ellipse_path stroke
0.000 0.000 0.000 nodecolor
14.00 /Times-Roman set_font
391.25 1745.4 moveto 37.5 (State 8) alignedtext
grestore
% node1->node8
gsave
1 setlinewidth
0.000 0.000 0.000 edgecolor
newpath 514 1849 moveto
498 1835 472 1812 451 1792 curveto
445 1786 439 1779 433 1773 curveto
stroke
0.000 0.000 0.000 edgecolor
newpath 435.219 1770.22 moveto
426 1765 lineto
429.951 1774.83 lineto
closepath fill
1 setlinewidth
solid
0.000 0.000 0.000 edgecolor
newpath 435.219 1770.22 moveto
426 1765 lineto
429.951 1774.83 lineto
closepath stroke
0.000 0.000 0.000 edgecolor
14.00 /Times-Roman set_font
492.625 1815.4 moveto 6.75 (6) alignedtext
grestore
% node11
gsave
1 setlinewidth
0.000 0.000 0.000 nodecolor
495 1749 35.0096 18.3848 ellipse_path stroke
0.000 0.000 0.000 nodecolor
14.00 /Times-Roman set_font
472.875 1745.4 moveto 44.25 (State 11) alignedtext
grestore
% node1->node11
gsave
1 setlinewidth
0.000 0.000 0.000 edgecolor
newpath 526 1847 moveto
520 1828 511 1799 504 1777 curveto
stroke
0.000 0.000 0.000 edgecolor
newpath 507.226 1775.57 moveto
501 1767 lineto
500.521 1777.58 lineto
closepath fill
1 setlinewidth
solid
0.000 0.000 0.000 edgecolor
newpath 507.226 1775.57 moveto
501 1767 lineto
500.521 1777.58 lineto
closepath stroke
0.000 0.000 0.000 edgecolor
14.00 /Times-Roman set_font
521.625 1815.4 moveto 6.75 (3) alignedtext
grestore
% node30
gsave
1 setlinewidth
0.000 0.000 0.000 nodecolor
583 1749 35.0096 18.3848 ellipse_path stroke
0.000 0.000 0.000 nodecolor
14.00 /Times-Roman set_font
560.875 1745.4 moveto 44.25 (State 30) alignedtext
grestore
% node1->node30
gsave
1 setlinewidth
0.000 0.000 0.000 edgecolor
newpath 540 1847 moveto
548 1828 561 1798 571 1776 curveto
stroke
0.000 0.000 0.000 edgecolor
newpath 574.137 1777.56 moveto
575 1767 lineto
567.74 1774.72 lineto
closepath fill
1 setlinewidth
solid
0.000 0.000 0.000 edgecolor
newpath 574.137 1777.56 moveto
575 1767 lineto
567.74 1774.72 lineto
closepath stroke
0.000 0.000 0.000 edgecolor
14.00 /Times-Roman set_font
557.625 1815.4 moveto 6.75 (5) alignedtext
grestore
% node33
gsave
2 setlinewidth
bold
0.000 0.000 0.000 nodecolor
678 1749 42.102 42.6032 ellipse_path stroke
0.000 0.000 0.000 nodecolor
14.00 /Times-Roman set_font
655.875 1745.4 moveto 44.25 (State 33) alignedtext
grestore
% node1->node33
gsave
1 setlinewidth
0.000 0.000 0.000 edgecolor
newpath 552 1850 moveto
571 1836 602 1812 627 1792 curveto
630 1789 634 1786 638 1783 curveto
stroke
0.000 0.000 0.000 edgecolor
newpath 640.1 1785.8 moveto
646 1777 lineto
635.9 1780.2 lineto
closepath fill
1 setlinewidth
solid
0.000 0.000 0.000 edgecolor
newpath 640.1 1785.8 moveto
646 1777 lineto
635.9 1780.2 lineto
closepath stroke
0.000 0.000 0.000 edgecolor
14.00 /Times-Roman set_font
603.625 1815.4 moveto 6.75 (9) alignedtext
grestore
% node40
gsave
1 setlinewidth
0.000 0.000 0.000 nodecolor
773 1749 35.0096 18.3848 ellipse_path stroke
0.000 0.000 0.000 nodecolor
14.00 /Times-Roman set_font
750.875 1745.4 moveto 44.25 (State 40) alignedtext
grestore
% node1->node40
gsave
1 setlinewidth
0.000 0.000 0.000 edgecolor
newpath 562 1858 moveto
602 1848 675 1826 729 1792 curveto
737 1787 744 1780 751 1774 curveto
stroke
0.000 0.000 0.000 edgecolor
newpath 754.049 1775.83 moveto
758 1766 lineto
748.781 1771.22 lineto
closepath fill
1 setlinewidth
solid
0.000 0.000 0.000 edgecolor
newpath 754.049 1775.83 moveto
758 1766 lineto
748.781 1771.22 lineto
closepath stroke
0.000 0.000 0.000 edgecolor
14.00 /Times-Roman set_font
690.625 1815.4 moveto 6.75 (2) alignedtext
grestore
% node3
gsave
1 setlinewidth
0.000 0.000 0.000 nodecolor
39 1614 32.1348 18.3848 ellipse_path stroke
0.000 0.000 0.000 nodecolor
14.00 /Times-Roman set_font
20.25 1610.4 moveto 37.5 (State 3) alignedtext
grestore
% node2->node3
gsave
1 setlinewidth
0.000 0.000 0.000 edgecolor
newpath 113 1731 moveto
99 1709 72 1668 55 1641 curveto
stroke
0.000 0.000 0.000 edgecolor
newpath 57.916 1639.04 moveto
50 1632 lineto
51.7969 1642.44 lineto
closepath fill
1 setlinewidth
solid
0.000 0.000 0.000 edgecolor
newpath 57.916 1639.04 moveto
50 1632 lineto
51.7969 1642.44 lineto
closepath stroke
0.000 0.000 0.000 edgecolor
14.00 /Times-Roman set_font
88.625 1675.4 moveto 6.75 (7) alignedtext
grestore
% node58
gsave
1 setlinewidth
0.000 0.000 0.000 nodecolor
124 1614 35.0096 18.3848 ellipse_path stroke
0.000 0.000 0.000 nodecolor
14.00 /Times-Roman set_font
101.875 1610.4 moveto 44.25 (State 58) alignedtext
grestore
% node2->node58
gsave
1 setlinewidth
0.000 0.000 0.000 edgecolor
newpath 124 1730 moveto
124 1707 124 1669 124 1643 curveto
stroke
0.000 0.000 0.000 edgecolor
newpath 127.5 1643 moveto
124 1633 lineto
120.5 1643 lineto
closepath fill
1 setlinewidth
solid
0.000 0.000 0.000 edgecolor
newpath 127.5 1643 moveto
124 1633 lineto
120.5 1643 lineto
closepath stroke
0.000 0.000 0.000 edgecolor
14.00 /Times-Roman set_font
124.625 1675.4 moveto 6.75 (1) alignedtext
grestore
% node4
gsave
1 setlinewidth
0.000 0.000 0.000 nodecolor
39 1479 32.1348 18.3848 ellipse_path stroke
0.000 0.000 0.000 nodecolor
14.00 /Times-Roman set_font
20.25 1475.4 moveto 37.5 (State 4) alignedtext
grestore
% node3->node4
gsave
1 setlinewidth
0.000 0.000 0.000 edgecolor
newpath 39 1595 moveto
39 1572 39 1534 39 1508 curveto
stroke
0.000 0.000 0.000 edgecolor
newpath 42.5001 1508 moveto
39 1498 lineto
35.5001 1508 lineto
closepath fill
1 setlinewidth
solid
0.000 0.000 0.000 edgecolor
newpath 42.5001 1508 moveto
39 1498 lineto
35.5001 1508 lineto
closepath stroke
0.000 0.000 0.000 edgecolor
14.00 /Times-Roman set_font
39.625 1545.4 moveto 6.75 (5) alignedtext
grestore
% node5
gsave
2 setlinewidth
bold
0.000 0.000 0.000 nodecolor
38 1339 37.8302 37.8302 ellipse_path stroke
0.000 0.000 0.000 nodecolor
14.00 /Times-Roman set_font
19.25 1335.4 moveto 37.5 (State 5) alignedtext
grestore
% node4->node5
gsave
1 setlinewidth
0.000 0.000 0.000 edgecolor
newpath 39 1460 moveto
39 1442 39 1412 38 1387 curveto
stroke
0.000 0.000 0.000 edgecolor
newpath 41.5001 1387 moveto
38 1377 lineto
34.5001 1387 lineto
closepath fill
1 setlinewidth
solid
0.000 0.000 0.000 edgecolor
newpath 41.5001 1387 moveto
38 1377 lineto
34.5001 1387 lineto
closepath stroke
0.000 0.000 0.000 edgecolor
14.00 /Times-Roman set_font
39.625 1405.4 moveto 6.75 (5) alignedtext
grestore
% node7
gsave
2 setlinewidth
bold
0.000 0.000 0.000 nodecolor
215 1614 37.8302 37.8302 ellipse_path stroke
0.000 0.000 0.000 nodecolor
14.00 /Times-Roman set_font
196.25 1610.4 moveto 37.5 (State 7) alignedtext
grestore
% node6->node7
gsave
1 setlinewidth
0.000 0.000 0.000 edgecolor
newpath 294 1732 moveto
281 1712 260 1680 242 1655 curveto
stroke
0.000 0.000 0.000 edgecolor
newpath 244.459 1652.38 moveto
236 1646 lineto
238.635 1656.26 lineto
closepath fill
1 setlinewidth
solid
0.000 0.000 0.000 edgecolor
newpath 244.459 1652.38 moveto
236 1646 lineto
238.635 1656.26 lineto
closepath stroke
0.000 0.000 0.000 edgecolor
14.00 /Times-Roman set_font
267.625 1675.4 moveto 6.75 (2) alignedtext
grestore
% node34
gsave
1 setlinewidth
0.000 0.000 0.000 nodecolor
306 1614 35.0096 18.3848 ellipse_path stroke
0.000 0.000 0.000 nodecolor
14.00 /Times-Roman set_font
283.875 1610.4 moveto 44.25 (State 34) alignedtext
grestore
% node6->node34
gsave
1 setlinewidth
0.000 0.000 0.000 edgecolor
newpath 306 1730 moveto
306 1707 306 1669 306 1643 curveto
stroke
0.000 0.000 0.000 edgecolor
newpath 309.5 1643 moveto
306 1633 lineto
302.5 1643 lineto
closepath fill
1 setlinewidth
solid
0.000 0.000 0.000 edgecolor
newpath 309.5 1643 moveto
306 1633 lineto
302.5 1643 lineto
closepath stroke
0.000 0.000 0.000 edgecolor
14.00 /Times-Roman set_font
306.625 1675.4 moveto 6.75 (6) alignedtext
grestore
% node9
gsave
1 setlinewidth
0.000 0.000 0.000 nodecolor
391 1614 32.1348 18.3848 ellipse_path stroke
0.000 0.000 0.000 nodecolor
14.00 /Times-Roman set_font
372.25 1610.4 moveto 37.5 (State 9) alignedtext
grestore
% node8->node9
gsave
1 setlinewidth
0.000 0.000 0.000 edgecolor
newpath 407 1731 moveto
404 1708 399 1670 395 1643 curveto
stroke
0.000 0.000 0.000 edgecolor
newpath 398.478 1642.6 moveto
394 1633 lineto
391.512 1643.3 lineto
closepath fill
1 setlinewidth
solid
0.000 0.000 0.000 edgecolor
newpath 398.478 1642.6 moveto
394 1633 lineto
391.512 1643.3 lineto
closepath stroke
0.000 0.000 0.000 edgecolor
14.00 /Times-Roman set_font
403.625 1675.4 moveto 6.75 (0) alignedtext
grestore
% node44
gsave
1 setlinewidth
0.000 0.000 0.000 nodecolor
476 1614 35.0096 18.3848 ellipse_path stroke
0.000 0.000 0.000 nodecolor
14.00 /Times-Roman set_font
453.875 1610.4 moveto 44.25 (State 44) alignedtext
grestore
% node8->node44
gsave
1 setlinewidth
0.000 0.000 0.000 edgecolor
newpath 419 1731 moveto
431 1708 450 1668 463 1641 curveto
stroke
0.000 0.000 0.000 edgecolor
newpath 466.137 1642.56 moveto
467 1632 lineto
459.74 1639.72 lineto
closepath fill
1 setlinewidth
solid
0.000 0.000 0.000 edgecolor
newpath 466.137 1642.56 moveto
467 1632 lineto
459.74 1639.72 lineto
closepath stroke
0.000 0.000 0.000 edgecolor
14.00 /Times-Roman set_font
448.625 1675.4 moveto 6.75 (1) alignedtext
grestore
% node10
gsave
2 setlinewidth
bold
0.000 0.000 0.000 nodecolor
381 1479 42.102 42.6032 ellipse_path stroke
0.000 0.000 0.000 nodecolor
14.00 /Times-Roman set_font
358.875 1475.4 moveto 44.25 (State 10) alignedtext
grestore
% node9->node10
gsave
1 setlinewidth
0.000 0.000 0.000 edgecolor
newpath 390 1596 moveto
388 1580 387 1555 385 1532 curveto
stroke
0.000 0.000 0.000 edgecolor
newpath 388.478 1531.6 moveto
384 1522 lineto
381.512 1532.3 lineto
closepath fill
1 setlinewidth
solid
0.000 0.000 0.000 edgecolor
newpath 388.478 1531.6 moveto
384 1522 lineto
381.512 1532.3 lineto
closepath stroke
0.000 0.000 0.000 edgecolor
14.00 /Times-Roman set_font
388.625 1545.4 moveto 6.75 (9) alignedtext
grestore
% node12
gsave
1 setlinewidth
0.000 0.000 0.000 nodecolor
564 1614 35.0096 18.3848 ellipse_path stroke
0.000 0.000 0.000 nodecolor
14.00 /Times-Roman set_font
541.875 1610.4 moveto 44.25 (State 12) alignedtext
grestore
% node11->node12
gsave
1 setlinewidth
0.000 0.000 0.000 edgecolor
newpath 504 1731 moveto
516 1708 537 1668 550 1641 curveto
stroke
0.000 0.000 0.000 edgecolor
newpath 553.203 1642.44 moveto
555 1632 lineto
547.084 1639.04 lineto
closepath fill
1 setlinewidth
solid
0.000 0.000 0.000 edgecolor
newpath 553.203 1642.44 moveto
555 1632 lineto
547.084 1639.04 lineto
closepath stroke
0.000 0.000 0.000 edgecolor
14.00 /Times-Roman set_font
535.625 1675.4 moveto 6.75 (8) alignedtext
grestore
% node13
gsave
1 setlinewidth
0.000 0.000 0.000 nodecolor
564 1479 35.0096 18.3848 ellipse_path stroke
0.000 0.000 0.000 nodecolor
14.00 /Times-Roman set_font
541.875 1475.4 moveto 44.25 (State 13) alignedtext
grestore
% node12->node13
gsave
1 setlinewidth
0.000 0.000 0.000 edgecolor
newpath 564 1595 moveto
564 1572 564 1534 564 1508 curveto
stroke
0.000 0.000 0.000 edgecolor
newpath 567.5 1508 moveto
564 1498 lineto
560.5 1508 lineto
closepath fill
1 setlinewidth
solid
0.000 0.000 0.000 edgecolor
newpath 567.5 1508 moveto
564 1498 lineto
560.5 1508 lineto
closepath stroke
0.000 0.000 0.000 edgecolor
14.00 /Times-Roman set_font
564.625 1545.4 moveto 6.75 (7) alignedtext
grestore
% node14
gsave
1 setlinewidth
0.000 0.000 0.000 nodecolor
564 1339 35.0096 18.3848 ellipse_path stroke
0.000 0.000 0.000 nodecolor
14.00 /Times-Roman set_font
541.875 1335.4 moveto 44.25 (State 14) alignedtext
grestore
% node13->node14
gsave
1 setlinewidth
0.000 0.000 0.000 edgecolor
newpath 564 1460 moveto
564 1436 564 1395 564 1368 curveto
stroke
0.000 0.000 0.000 edgecolor
newpath 567.5 1368 moveto
564 1358 lineto
560.5 1368 lineto
closepath fill
1 setlinewidth
solid
0.000 0.000 0.000 edgecolor
newpath 567.5 1368 moveto
564 1358 lineto
560.5 1368 lineto
closepath stroke
0.000 0.000 0.000 edgecolor
14.00 /Times-Roman set_font
564.625 1405.4 moveto 6.75 (3) alignedtext
grestore
% node15
gsave
1 setlinewidth
0.000 0.000 0.000 nodecolor
564 1223 35.0096 18.3848 ellipse_path stroke
0.000 0.000 0.000 nodecolor
14.00 /Times-Roman set_font
541.875 1219.4 moveto 44.25 (State 15) alignedtext
grestore
% node14->node15
gsave
1 setlinewidth
0.000 0.000 0.000 edgecolor
newpath 564 1320 moveto
564 1302 564 1273 564 1252 curveto
stroke
0.000 0.000 0.000 edgecolor
newpath 567.5 1252 moveto
564 1242 lineto
560.5 1252 lineto
closepath fill
1 setlinewidth
solid
0.000 0.000 0.000 edgecolor
newpath 567.5 1252 moveto
564 1242 lineto
560.5 1252 lineto
closepath stroke
0.000 0.000 0.000 edgecolor
14.00 /Times-Roman set_font
564.625 1265.4 moveto 6.75 (4) alignedtext
grestore
% node16
gsave
1 setlinewidth
0.000 0.000 0.000 nodecolor
564 1131 35.0096 18.3848 ellipse_path stroke
0.000 0.000 0.000 nodecolor
14.00 /Times-Roman set_font
541.875 1127.4 moveto 44.25 (State 16) alignedtext
grestore
% node15->node16
gsave
1 setlinewidth
0.000 0.000 0.000 edgecolor
newpath 564 1204 moveto
564 1191 564 1175 564 1160 curveto
stroke
0.000 0.000 0.000 edgecolor
newpath 567.5 1160 moveto
564 1150 lineto
560.5 1160 lineto
closepath fill
1 setlinewidth
solid
0.000 0.000 0.000 edgecolor
newpath 567.5 1160 moveto
564 1150 lineto
560.5 1160 lineto
closepath stroke
0.000 0.000 0.000 edgecolor
14.00 /Times-Roman set_font
564.625 1173.4 moveto 6.75 (7) alignedtext
grestore
% node17
gsave
1 setlinewidth
0.000 0.000 0.000 nodecolor
566 1015 35.0096 18.3848 ellipse_path stroke
0.000 0.000 0.000 nodecolor
14.00 /Times-Roman set_font
543.875 1011.4 moveto 44.25 (State 17) alignedtext
grestore
% node16->node17
gsave
1 setlinewidth
0.000 0.000 0.000 edgecolor
newpath 564 1112 moveto
565 1094 565 1065 566 1044 curveto
stroke
0.000 0.000 0.000 edgecolor
newpath 569.5 1044 moveto
566 1034 lineto
562.5 1044 lineto
closepath fill
1 setlinewidth
solid
0.000 0.000 0.000 edgecolor
newpath 569.5 1044 moveto
566 1034 lineto
562.5 1044 lineto
closepath stroke
0.000 0.000 0.000 edgecolor
14.00 /Times-Roman set_font
566.625 1081.4 moveto 6.75 (5) alignedtext
grestore
% node18
gsave
1 setlinewidth
0.000 0.000 0.000 nodecolor
566 899 35.0096 18.3848 ellipse_path stroke
0.000 0.000 0.000 nodecolor
14.00 /Times-Roman set_font
543.875 895.4 moveto 44.25 (State 18) alignedtext
grestore
% node17->node18
gsave
1 setlinewidth
0.000 0.000 0.000 edgecolor
newpath 566 996 moveto
566 978 566 949 566 928 curveto
stroke
0.000 0.000 0.000 edgecolor
newpath 569.5 928 moveto
566 918 lineto
562.5 928 lineto
closepath fill
1 setlinewidth
solid
0.000 0.000 0.000 edgecolor
newpath 569.5 928 moveto
566 918 lineto
562.5 928 lineto
closepath stroke
0.000 0.000 0.000 edgecolor
14.00 /Times-Roman set_font
566.625 941.4 moveto 6.75 (3) alignedtext
grestore
% node19
gsave
1 setlinewidth
0.000 0.000 0.000 nodecolor
569 807 35.0096 18.3848 ellipse_path stroke
0.000 0.000 0.000 nodecolor
14.00 /Times-Roman set_font
546.875 803.4 moveto 44.25 (State 19) alignedtext
grestore
% node18->node19
gsave
1 setlinewidth
0.000 0.000 0.000 edgecolor
newpath 567 880 moveto
567 867 568 851 568 836 curveto
stroke
0.000 0.000 0.000 edgecolor
newpath 571.5 836 moveto
568 826 lineto
564.5 836 lineto
closepath fill
1 setlinewidth
solid
0.000 0.000 0.000 edgecolor
newpath 571.5 836 moveto
568 826 lineto
564.5 836 lineto
closepath stroke
0.000 0.000 0.000 edgecolor
14.00 /Times-Roman set_font
569.625 849.4 moveto 6.75 (2) alignedtext
grestore
% node20
gsave
1 setlinewidth
0.000 0.000 0.000 nodecolor
569 691 35.0096 18.3848 ellipse_path stroke
0.000 0.000 0.000 nodecolor
14.00 /Times-Roman set_font
546.875 687.4 moveto 44.25 (State 20) alignedtext
grestore
% node19->node20
gsave
1 setlinewidth
0.000 0.000 0.000 edgecolor
newpath 569 788 moveto
569 770 569 741 569 720 curveto
stroke
0.000 0.000 0.000 edgecolor
newpath 572.5 720 moveto
569 710 lineto
565.5 720 lineto
closepath fill
1 setlinewidth
solid
0.000 0.000 0.000 edgecolor
newpath 572.5 720 moveto
569 710 lineto
565.5 720 lineto
closepath stroke
0.000 0.000 0.000 edgecolor
14.00 /Times-Roman set_font
569.625 757.4 moveto 6.75 (6) alignedtext
grestore
% node21
gsave
2 setlinewidth
bold
0.000 0.000 0.000 nodecolor
569 551 42.102 42.6032 ellipse_path stroke
0.000 0.000 0.000 nodecolor
14.00 /Times-Roman set_font
546.875 547.4 moveto 44.25 (State 21) alignedtext
grestore
% node20->node21
gsave
1 setlinewidth
0.000 0.000 0.000 edgecolor
newpath 569 672 moveto
569 655 569 628 569 604 curveto
stroke
0.000 0.000 0.000 edgecolor
newpath 572.5 604 moveto
569 594 lineto
565.5 604 lineto
closepath fill
1 setlinewidth
solid
0.000 0.000 0.000 edgecolor
newpath 572.5 604 moveto
569 594 lineto
565.5 604 lineto
closepath stroke
0.000 0.000 0.000 edgecolor
14.00 /Times-Roman set_font
569.625 617.4 moveto 6.75 (1) alignedtext
grestore
% node23
gsave
1 setlinewidth
0.000 0.000 0.000 nodecolor
861 1749 35.0096 18.3848 ellipse_path stroke
0.000 0.000 0.000 nodecolor
14.00 /Times-Roman set_font
838.875 1745.4 moveto 44.25 (State 23) alignedtext
grestore
% node22->node23
gsave
1 setlinewidth
0.000 0.000 0.000 edgecolor
newpath 747 1849 moveto
765 1835 793 1813 817 1792 curveto
823 1786 830 1779 837 1772 curveto
stroke
0.000 0.000 0.000 edgecolor
newpath 839.404 1774.55 moveto
844 1765 lineto
834.454 1769.6 lineto
closepath fill
1 setlinewidth
solid
0.000 0.000 0.000 edgecolor
newpath 839.404 1774.55 moveto
844 1765 lineto
834.454 1769.6 lineto
closepath stroke
0.000 0.000 0.000 edgecolor
14.00 /Times-Roman set_font
792.625 1815.4 moveto 6.75 (0) alignedtext
grestore
% node24
gsave
1 setlinewidth
0.000 0.000 0.000 nodecolor
862 1614 35.0096 18.3848 ellipse_path stroke
0.000 0.000 0.000 nodecolor
14.00 /Times-Roman set_font
839.875 1610.4 moveto 44.25 (State 24) alignedtext
grestore
% node23->node24
gsave
1 setlinewidth
0.000 0.000 0.000 edgecolor
newpath 861 1730 moveto
861 1707 861 1669 862 1643 curveto
stroke
0.000 0.000 0.000 edgecolor
newpath 865.5 1643 moveto
862 1633 lineto
858.5 1643 lineto
closepath fill
1 setlinewidth
solid
0.000 0.000 0.000 edgecolor
newpath 865.5 1643 moveto
862 1633 lineto
858.5 1643 lineto
closepath stroke
0.000 0.000 0.000 edgecolor
14.00 /Times-Roman set_font
860.625 1675.4 moveto 6.75 (8) alignedtext
grestore
% node25
gsave
1 setlinewidth
0.000 0.000 0.000 nodecolor
862 1479 35.0096 18.3848 ellipse_path stroke
0.000 0.000 0.000 nodecolor
14.00 /Times-Roman set_font
839.875 1475.4 moveto 44.25 (State 25) alignedtext
grestore
% node24->node25
gsave
1 setlinewidth
0.000 0.000 0.000 edgecolor
newpath 862 1595 moveto
862 1572 862 1534 862 1508 curveto
stroke
0.000 0.000 0.000 edgecolor
newpath 865.5 1508 moveto
862 1498 lineto
858.5 1508 lineto
closepath fill
1 setlinewidth
solid
0.000 0.000 0.000 edgecolor
newpath 865.5 1508 moveto
862 1498 lineto
858.5 1508 lineto
closepath stroke
0.000 0.000 0.000 edgecolor
14.00 /Times-Roman set_font
861.625 1545.4 moveto 6.75 (3) alignedtext
grestore
% node53
gsave
1 setlinewidth
0.000 0.000 0.000 nodecolor
950 1479 35.0096 18.3848 ellipse_path stroke
0.000 0.000 0.000 nodecolor
14.00 /Times-Roman set_font
927.875 1475.4 moveto 44.25 (State 53) alignedtext
grestore
% node24->node53
gsave
1 setlinewidth
0.000 0.000 0.000 edgecolor
newpath 874 1596 moveto
888 1574 916 1533 933 1506 curveto
stroke
0.000 0.000 0.000 edgecolor
newpath 936.203 1507.44 moveto
938 1497 lineto
930.084 1504.04 lineto
closepath fill
1 setlinewidth
solid
0.000 0.000 0.000 edgecolor
newpath 936.203 1507.44 moveto
938 1497 lineto
930.084 1504.04 lineto
closepath stroke
0.000 0.000 0.000 edgecolor
14.00 /Times-Roman set_font
906.625 1545.4 moveto 6.75 (8) alignedtext
grestore
% node26
gsave
1 setlinewidth
0.000 0.000 0.000 nodecolor
862 1339 35.0096 18.3848 ellipse_path stroke
0.000 0.000 0.000 nodecolor
14.00 /Times-Roman set_font
839.875 1335.4 moveto 44.25 (State 26) alignedtext
grestore
% node25->node26
gsave
1 setlinewidth
0.000 0.000 0.000 edgecolor
newpath 862 1460 moveto
862 1436 862 1395 862 1368 curveto
stroke
0.000 0.000 0.000 edgecolor
newpath 865.5 1368 moveto
862 1358 lineto
858.5 1368 lineto
closepath fill
1 setlinewidth
solid
0.000 0.000 0.000 edgecolor
newpath 865.5 1368 moveto
862 1358 lineto
858.5 1368 lineto
closepath stroke
0.000 0.000 0.000 edgecolor
14.00 /Times-Roman set_font
861.625 1405.4 moveto 6.75 (2) alignedtext
grestore
% node27
gsave
1 setlinewidth
0.000 0.000 0.000 nodecolor
862 1223 35.0096 18.3848 ellipse_path stroke
0.000 0.000 0.000 nodecolor
14.00 /Times-Roman set_font
839.875 1219.4 moveto 44.25 (State 27) alignedtext
grestore
% node26->node27
gsave
1 setlinewidth
0.000 0.000 0.000 edgecolor
newpath 862 1320 moveto
862 1302 862 1273 862 1252 curveto
stroke
0.000 0.000 0.000 edgecolor
newpath 865.5 1252 moveto
862 1242 lineto
858.5 1252 lineto
closepath fill
1 setlinewidth
solid
0.000 0.000 0.000 edgecolor
newpath 865.5 1252 moveto
862 1242 lineto
858.5 1252 lineto
closepath stroke
0.000 0.000 0.000 edgecolor
14.00 /Times-Roman set_font
861.625 1265.4 moveto 6.75 (3) alignedtext
grestore
% node28
gsave
1 setlinewidth
0.000 0.000 0.000 nodecolor
859 1131 35.0096 18.3848 ellipse_path stroke
0.000 0.000 0.000 nodecolor
14.00 /Times-Roman set_font
836.875 1127.4 moveto 44.25 (State 28) alignedtext
grestore
% node27->node28
gsave
1 setlinewidth
0.000 0.000 0.000 edgecolor
newpath 861 1204 moveto
861 1191 860 1175 860 1160 curveto
stroke
0.000 0.000 0.000 edgecolor
newpath 863.5 1160 moveto
860 1150 lineto
856.5 1160 lineto
closepath fill
1 setlinewidth
solid
0.000 0.000 0.000 edgecolor
newpath 863.5 1160 moveto
860 1150 lineto
856.5 1160 lineto
closepath stroke
0.000 0.000 0.000 edgecolor
14.00 /Times-Roman set_font
859.625 1173.4 moveto 6.75 (5) alignedtext
grestore
% node29
gsave
2 setlinewidth
bold
0.000 0.000 0.000 nodecolor
855 1015 42.102 42.6032 ellipse_path stroke
0.000 0.000 0.000 nodecolor
14.00 /Times-Roman set_font
832.875 1011.4 moveto 44.25 (State 29) alignedtext
grestore
% node28->node29
gsave
1 setlinewidth
0.000 0.000 0.000 edgecolor
newpath 858 1112 moveto
858 1101 857 1084 857 1068 curveto
stroke
0.000 0.000 0.000 edgecolor
newpath 860.478 1067.6 moveto
856 1058 lineto
853.512 1068.3 lineto
closepath fill
1 setlinewidth
solid
0.000 0.000 0.000 edgecolor
newpath 860.478 1067.6 moveto
856 1058 lineto
853.512 1068.3 lineto
closepath stroke
0.000 0.000 0.000 edgecolor
14.00 /Times-Roman set_font
856.625 1081.4 moveto 6.75 (9) alignedtext
grestore
% node31
gsave
1 setlinewidth
0.000 0.000 0.000 nodecolor
655 1614 35.0096 18.3848 ellipse_path stroke
0.000 0.000 0.000 nodecolor
14.00 /Times-Roman set_font
632.875 1610.4 moveto 44.25 (State 31) alignedtext
grestore
% node30->node31
gsave
1 setlinewidth
0.000 0.000 0.000 edgecolor
newpath 593 1731 moveto
605 1708 626 1668 640 1641 curveto
stroke
0.000 0.000 0.000 edgecolor
newpath 643.203 1642.44 moveto
645 1632 lineto
637.084 1639.04 lineto
closepath fill
1 setlinewidth
solid
0.000 0.000 0.000 edgecolor
newpath 643.203 1642.44 moveto
645 1632 lineto
637.084 1639.04 lineto
closepath stroke
0.000 0.000 0.000 edgecolor
14.00 /Times-Roman set_font
624.625 1675.4 moveto 6.75 (2) alignedtext
grestore
% node32
gsave
2 setlinewidth
bold
0.000 0.000 0.000 nodecolor
659 1479 42.102 42.6032 ellipse_path stroke
0.000 0.000 0.000 nodecolor
14.00 /Times-Roman set_font
636.875 1475.4 moveto 44.25 (State 32) alignedtext
grestore
% node31->node32
gsave
1 setlinewidth
0.000 0.000 0.000 edgecolor
newpath 656 1595 moveto
657 1579 657 1554 658 1532 curveto
stroke
0.000 0.000 0.000 edgecolor
newpath 661.5 1532 moveto
658 1522 lineto
654.5 1532 lineto
closepath fill
1 setlinewidth
solid
0.000 0.000 0.000 edgecolor
newpath 661.5 1532 moveto
658 1522 lineto
654.5 1532 lineto
closepath stroke
0.000 0.000 0.000 edgecolor
14.00 /Times-Roman set_font
659.625 1545.4 moveto 6.75 (6) alignedtext
grestore
% node35
gsave
1 setlinewidth
0.000 0.000 0.000 nodecolor
286 1479 35.0096 18.3848 ellipse_path stroke
0.000 0.000 0.000 nodecolor
14.00 /Times-Roman set_font
263.875 1475.4 moveto 44.25 (State 35) alignedtext
grestore
% node34->node35
gsave
1 setlinewidth
0.000 0.000 0.000 edgecolor
newpath 303 1596 moveto
300 1573 295 1535 291 1508 curveto
stroke
0.000 0.000 0.000 edgecolor
newpath 294.393 1507.12 moveto
289 1498 lineto
287.529 1508.49 lineto
closepath fill
1 setlinewidth
solid
0.000 0.000 0.000 edgecolor
newpath 294.393 1507.12 moveto
289 1498 lineto
287.529 1508.49 lineto
closepath stroke
0.000 0.000 0.000 edgecolor
14.00 /Times-Roman set_font
299.625 1545.4 moveto 6.75 (0) alignedtext
grestore
% node36
gsave
1 setlinewidth
0.000 0.000 0.000 nodecolor
286 1339 35.0096 18.3848 ellipse_path stroke
0.000 0.000 0.000 nodecolor
14.00 /Times-Roman set_font
263.875 1335.4 moveto 44.25 (State 36) alignedtext
grestore
% node35->node36
gsave
1 setlinewidth
0.000 0.000 0.000 edgecolor
newpath 286 1460 moveto
286 1436 286 1395 286 1368 curveto
stroke
0.000 0.000 0.000 edgecolor
newpath 289.5 1368 moveto
286 1358 lineto
282.5 1368 lineto
closepath fill
1 setlinewidth
solid
0.000 0.000 0.000 edgecolor
newpath 289.5 1368 moveto
286 1358 lineto
282.5 1368 lineto
closepath stroke
0.000 0.000 0.000 edgecolor
14.00 /Times-Roman set_font
286.625 1405.4 moveto 6.75 (2) alignedtext
grestore
% node37
gsave
1 setlinewidth
0.000 0.000 0.000 nodecolor
286 1223 35.0096 18.3848 ellipse_path stroke
0.000 0.000 0.000 nodecolor
14.00 /Times-Roman set_font
263.875 1219.4 moveto 44.25 (State 37) alignedtext
grestore
% node36->node37
gsave
1 setlinewidth
0.000 0.000 0.000 edgecolor
newpath 286 1320 moveto
286 1302 286 1273 286 1252 curveto
stroke
0.000 0.000 0.000 edgecolor
newpath 289.5 1252 moveto
286 1242 lineto
282.5 1252 lineto
closepath fill
1 setlinewidth
solid
0.000 0.000 0.000 edgecolor
newpath 289.5 1252 moveto
286 1242 lineto
282.5 1252 lineto
closepath stroke
0.000 0.000 0.000 edgecolor
14.00 /Times-Roman set_font
286.625 1265.4 moveto 6.75 (5) alignedtext
grestore
% node38
gsave
1 setlinewidth
0.000 0.000 0.000 nodecolor
286 1131 35.0096 18.3848 ellipse_path stroke
0.000 0.000 0.000 nodecolor
14.00 /Times-Roman set_font
263.875 1127.4 moveto 44.25 (State 38) alignedtext
grestore
% node37->node38
gsave
1 setlinewidth
0.000 0.000 0.000 edgecolor
newpath 286 1204 moveto
286 1191 286 1175 286 1160 curveto
stroke
0.000 0.000 0.000 edgecolor
newpath 289.5 1160 moveto
286 1150 lineto
282.5 1160 lineto
closepath fill
1 setlinewidth
solid
0.000 0.000 0.000 edgecolor
newpath 289.5 1160 moveto
286 1150 lineto
282.5 1160 lineto
closepath stroke
0.000 0.000 0.000 edgecolor
14.00 /Times-Roman set_font
286.625 1173.4 moveto 6.75 (1) alignedtext
grestore
% node39
gsave
2 setlinewidth
bold
0.000 0.000 0.000 nodecolor
286 1015 42.102 42.6032 ellipse_path stroke
0.000 0.000 0.000 nodecolor
14.00 /Times-Roman set_font
263.875 1011.4 moveto 44.25 (State 39) alignedtext
grestore
% node38->node39
gsave
1 setlinewidth
0.000 0.000 0.000 edgecolor
newpath 286 1112 moveto
286 1101 286 1084 286 1068 curveto
stroke
0.000 0.000 0.000 edgecolor
newpath 289.5 1068 moveto
286 1058 lineto
282.5 1068 lineto
closepath fill
1 setlinewidth
solid
0.000 0.000 0.000 edgecolor
newpath 289.5 1068 moveto
286 1058 lineto
282.5 1068 lineto
closepath stroke
0.000 0.000 0.000 edgecolor
14.00 /Times-Roman set_font
286.625 1081.4 moveto 6.75 (6) alignedtext
grestore
% node41
gsave
1 setlinewidth
0.000 0.000 0.000 nodecolor
773 1614 35.0096 18.3848 ellipse_path stroke
0.000 0.000 0.000 nodecolor
14.00 /Times-Roman set_font
750.875 1610.4 moveto 44.25 (State 41) alignedtext
grestore
% node40->node41
gsave
1 setlinewidth
0.000 0.000 0.000 edgecolor
newpath 773 1730 moveto
773 1707 773 1669 773 1643 curveto
stroke
0.000 0.000 0.000 edgecolor
newpath 776.5 1643 moveto
773 1633 lineto
769.5 1643 lineto
closepath fill
1 setlinewidth
solid
0.000 0.000 0.000 edgecolor
newpath 776.5 1643 moveto
773 1633 lineto
769.5 1643 lineto
closepath stroke
0.000 0.000 0.000 edgecolor
14.00 /Times-Roman set_font
772.625 1675.4 moveto 6.75 (2) alignedtext
grestore
% node42
gsave
1 setlinewidth
0.000 0.000 0.000 nodecolor
768 1479 35.0096 18.3848 ellipse_path stroke
0.000 0.000 0.000 nodecolor
14.00 /Times-Roman set_font
745.875 1475.4 moveto 44.25 (State 42) alignedtext
grestore
% node41->node42
gsave
1 setlinewidth
0.000 0.000 0.000 edgecolor
newpath 772 1595 moveto
771 1572 770 1534 769 1508 curveto
stroke
0.000 0.000 0.000 edgecolor
newpath 772.5 1508 moveto
769 1498 lineto
765.5 1508 lineto
closepath fill
1 setlinewidth
solid
0.000 0.000 0.000 edgecolor
newpath 772.5 1508 moveto
769 1498 lineto
765.5 1508 lineto
closepath stroke
0.000 0.000 0.000 edgecolor
14.00 /Times-Roman set_font
769.625 1545.4 moveto 6.75 (4) alignedtext
grestore
% node43
gsave
2 setlinewidth
bold
0.000 0.000 0.000 nodecolor
767 1339 42.102 42.6032 ellipse_path stroke
0.000 0.000 0.000 nodecolor
14.00 /Times-Roman set_font
744.875 1335.4 moveto 44.25 (State 43) alignedtext
grestore
% node42->node43
gsave
1 setlinewidth
0.000 0.000 0.000 edgecolor
newpath 768 1460 moveto
768 1443 768 1416 767 1392 curveto
stroke
0.000 0.000 0.000 edgecolor
newpath 770.5 1392 moveto
767 1382 lineto
763.5 1392 lineto
closepath fill
1 setlinewidth
solid
0.000 0.000 0.000 edgecolor
newpath 770.5 1392 moveto
767 1382 lineto
763.5 1392 lineto
closepath stroke
0.000 0.000 0.000 edgecolor
14.00 /Times-Roman set_font
766.625 1405.4 moveto 6.75 (6) alignedtext
grestore
% node45
gsave
1 setlinewidth
0.000 0.000 0.000 nodecolor
476 1479 35.0096 18.3848 ellipse_path stroke
0.000 0.000 0.000 nodecolor
14.00 /Times-Roman set_font
453.875 1475.4 moveto 44.25 (State 45) alignedtext
grestore
% node44->node45
gsave
1 setlinewidth
0.000 0.000 0.000 edgecolor
newpath 476 1595 moveto
476 1572 476 1534 476 1508 curveto
stroke
0.000 0.000 0.000 edgecolor
newpath 479.5 1508 moveto
476 1498 lineto
472.5 1508 lineto
closepath fill
1 setlinewidth
solid
0.000 0.000 0.000 edgecolor
newpath 479.5 1508 moveto
476 1498 lineto
472.5 1508 lineto
closepath stroke
0.000 0.000 0.000 edgecolor
14.00 /Times-Roman set_font
476.625 1545.4 moveto 6.75 (0) alignedtext
grestore
% node46
gsave
1 setlinewidth
0.000 0.000 0.000 nodecolor
476 1339 35.0096 18.3848 ellipse_path stroke
0.000 0.000 0.000 nodecolor
14.00 /Times-Roman set_font
453.875 1335.4 moveto 44.25 (State 46) alignedtext
grestore
% node45->node46
gsave
1 setlinewidth
0.000 0.000 0.000 edgecolor
newpath 476 1460 moveto
476 1436 476 1395 476 1368 curveto
stroke
0.000 0.000 0.000 edgecolor
newpath 479.5 1368 moveto
476 1358 lineto
472.5 1368 lineto
closepath fill
1 setlinewidth
solid
0.000 0.000 0.000 edgecolor
newpath 479.5 1368 moveto
476 1358 lineto
472.5 1368 lineto
closepath stroke
0.000 0.000 0.000 edgecolor
14.00 /Times-Roman set_font
476.625 1405.4 moveto 6.75 (2) alignedtext
grestore
% node47
gsave
1 setlinewidth
0.000 0.000 0.000 nodecolor
476 1223 35.0096 18.3848 ellipse_path stroke
0.000 0.000 0.000 nodecolor
14.00 /Times-Roman set_font
453.875 1219.4 moveto 44.25 (State 47) alignedtext
grestore
% node46->node47
gsave
1 setlinewidth
0.000 0.000 0.000 edgecolor
newpath 476 1320 moveto
476 1302 476 1273 476 1252 curveto
stroke
0.000 0.000 0.000 edgecolor
newpath 479.5 1252 moveto
476 1242 lineto
472.5 1252 lineto
closepath fill
1 setlinewidth
solid
0.000 0.000 0.000 edgecolor
newpath 479.5 1252 moveto
476 1242 lineto
472.5 1252 lineto
closepath stroke
0.000 0.000 0.000 edgecolor
14.00 /Times-Roman set_font
476.625 1265.4 moveto 6.75 (1) alignedtext
grestore
% node48
gsave
1 setlinewidth
0.000 0.000 0.000 nodecolor
476 1131 35.0096 18.3848 ellipse_path stroke
0.000 0.000 0.000 nodecolor
14.00 /Times-Roman set_font
453.875 1127.4 moveto 44.25 (State 48) alignedtext
grestore
% node47->node48
gsave
1 setlinewidth
0.000 0.000 0.000 edgecolor
newpath 476 1204 moveto
476 1191 476 1175 476 1160 curveto
stroke
0.000 0.000 0.000 edgecolor
newpath 479.5 1160 moveto
476 1150 lineto
472.5 1160 lineto
closepath fill
1 setlinewidth
solid
0.000 0.000 0.000 edgecolor
newpath 479.5 1160 moveto
476 1150 lineto
472.5 1160 lineto
closepath stroke
0.000 0.000 0.000 edgecolor
14.00 /Times-Roman set_font
476.625 1173.4 moveto 6.75 (5) alignedtext
grestore
% node49
gsave
1 setlinewidth
0.000 0.000 0.000 nodecolor
476 1015 35.0096 18.3848 ellipse_path stroke
0.000 0.000 0.000 nodecolor
14.00 /Times-Roman set_font
453.875 1011.4 moveto 44.25 (State 49) alignedtext
grestore
% node48->node49
gsave
1 setlinewidth
0.000 0.000 0.000 edgecolor
newpath 476 1112 moveto
476 1094 476 1065 476 1044 curveto
stroke
0.000 0.000 0.000 edgecolor
newpath 479.5 1044 moveto
476 1034 lineto
472.5 1044 lineto
closepath fill
1 setlinewidth
solid
0.000 0.000 0.000 edgecolor
newpath 479.5 1044 moveto
476 1034 lineto
472.5 1044 lineto
closepath stroke
0.000 0.000 0.000 edgecolor
14.00 /Times-Roman set_font
476.625 1081.4 moveto 6.75 (8) alignedtext
grestore
% node50
gsave
1 setlinewidth
0.000 0.000 0.000 nodecolor
475 899 35.0096 18.3848 ellipse_path stroke
0.000 0.000 0.000 nodecolor
14.00 /Times-Roman set_font
452.875 895.4 moveto 44.25 (State 50) alignedtext
grestore
% node49->node50
gsave
1 setlinewidth
0.000 0.000 0.000 edgecolor
newpath 476 996 moveto
476 978 476 949 475 928 curveto
stroke
0.000 0.000 0.000 edgecolor
newpath 478.5 928 moveto
475 918 lineto
471.5 928 lineto
closepath fill
1 setlinewidth
solid
0.000 0.000 0.000 edgecolor
newpath 478.5 928 moveto
475 918 lineto
471.5 928 lineto
closepath stroke
0.000 0.000 0.000 edgecolor
14.00 /Times-Roman set_font
476.625 941.4 moveto 6.75 (1) alignedtext
grestore
% node51
gsave
1 setlinewidth
0.000 0.000 0.000 nodecolor
474 807 35.0096 18.3848 ellipse_path stroke
0.000 0.000 0.000 nodecolor
14.00 /Times-Roman set_font
451.875 803.4 moveto 44.25 (State 51) alignedtext
grestore
% node50->node51
gsave
1 setlinewidth
0.000 0.000 0.000 edgecolor
newpath 475 880 moveto
475 867 475 851 474 836 curveto
stroke
0.000 0.000 0.000 edgecolor
newpath 477.5 836 moveto
474 826 lineto
470.5 836 lineto
closepath fill
1 setlinewidth
solid
0.000 0.000 0.000 edgecolor
newpath 477.5 836 moveto
474 826 lineto
470.5 836 lineto
closepath stroke
0.000 0.000 0.000 edgecolor
14.00 /Times-Roman set_font
475.625 849.4 moveto 6.75 (7) alignedtext
grestore
% node52
gsave
2 setlinewidth
bold
0.000 0.000 0.000 nodecolor
474 691 42.102 42.6032 ellipse_path stroke
0.000 0.000 0.000 nodecolor
14.00 /Times-Roman set_font
451.875 687.4 moveto 44.25 (State 52) alignedtext
grestore
% node51->node52
gsave
1 setlinewidth
0.000 0.000 0.000 edgecolor
newpath 474 788 moveto
474 777 474 760 474 744 curveto
stroke
0.000 0.000 0.000 edgecolor
newpath 477.5 744 moveto
474 734 lineto
470.5 744 lineto
closepath fill
1 setlinewidth
solid
0.000 0.000 0.000 edgecolor
newpath 477.5 744 moveto
474 734 lineto
470.5 744 lineto
closepath stroke
0.000 0.000 0.000 edgecolor
14.00 /Times-Roman set_font
474.625 757.4 moveto 6.75 (9) alignedtext
grestore
% node54
gsave
1 setlinewidth
0.000 0.000 0.000 nodecolor
950 1339 35.0096 18.3848 ellipse_path stroke
0.000 0.000 0.000 nodecolor
14.00 /Times-Roman set_font
927.875 1335.4 moveto 44.25 (State 54) alignedtext
grestore
% node53->node54
gsave
1 setlinewidth
0.000 0.000 0.000 edgecolor
newpath 950 1460 moveto
950 1436 950 1395 950 1368 curveto
stroke
0.000 0.000 0.000 edgecolor
newpath 953.5 1368 moveto
950 1358 lineto
946.5 1368 lineto
closepath fill
1 setlinewidth
solid
0.000 0.000 0.000 edgecolor
newpath 953.5 1368 moveto
950 1358 lineto
946.5 1368 lineto
closepath stroke
0.000 0.000 0.000 edgecolor
14.00 /Times-Roman set_font
949.625 1405.4 moveto 6.75 (5) alignedtext
grestore
% node55
gsave
1 setlinewidth
0.000 0.000 0.000 nodecolor
951 1223 35.0096 18.3848 ellipse_path stroke
0.000 0.000 0.000 nodecolor
14.00 /Times-Roman set_font
928.875 1219.4 moveto 44.25 (State 55) alignedtext
grestore
% node54->node55
gsave
1 setlinewidth
0.000 0.000 0.000 edgecolor
newpath 950 1320 moveto
950 1302 950 1273 951 1252 curveto
stroke
0.000 0.000 0.000 edgecolor
newpath 954.5 1252 moveto
951 1242 lineto
947.5 1252 lineto
closepath fill
1 setlinewidth
solid
0.000 0.000 0.000 edgecolor
newpath 954.5 1252 moveto
951 1242 lineto
947.5 1252 lineto
closepath stroke
0.000 0.000 0.000 edgecolor
14.00 /Times-Roman set_font
949.625 1265.4 moveto 6.75 (7) alignedtext
grestore
% node56
gsave
1 setlinewidth
0.000 0.000 0.000 nodecolor
954 1131 35.0096 18.3848 ellipse_path stroke
0.000 0.000 0.000 nodecolor
14.00 /Times-Roman set_font
931.875 1127.4 moveto 44.25 (State 56) alignedtext
grestore
% node55->node56
gsave
1 setlinewidth
0.000 0.000 0.000 edgecolor
newpath 952 1204 moveto
952 1191 953 1175 953 1160 curveto
stroke
0.000 0.000 0.000 edgecolor
newpath 956.5 1160 moveto
953 1150 lineto
949.5 1160 lineto
closepath fill
1 setlinewidth
solid
0.000 0.000 0.000 edgecolor
newpath 956.5 1160 moveto
953 1150 lineto
949.5 1160 lineto
closepath stroke
0.000 0.000 0.000 edgecolor
14.00 /Times-Roman set_font
951.625 1173.4 moveto 6.75 (3) alignedtext
grestore
% node57
gsave
2 setlinewidth
bold
0.000 0.000 0.000 nodecolor
957 1015 42.102 42.6032 ellipse_path stroke
0.000 0.000 0.000 nodecolor
14.00 /Times-Roman set_font
934.875 1011.4 moveto 44.25 (State 57) alignedtext
grestore
% node56->node57
gsave
1 setlinewidth
0.000 0.000 0.000 edgecolor
newpath 954 1112 moveto
954 1101 955 1084 955 1068 curveto
stroke
0.000 0.000 0.000 edgecolor
newpath 958.488 1068.3 moveto
956 1058 lineto
951.522 1067.6 lineto
closepath fill
1 setlinewidth
solid
0.000 0.000 0.000 edgecolor
newpath 958.488 1068.3 moveto
956 1058 lineto
951.522 1067.6 lineto
closepath stroke
0.000 0.000 0.000 edgecolor
14.00 /Times-Roman set_font
953.625 1081.4 moveto 6.75 (6) alignedtext
grestore
% node59
gsave
1 setlinewidth
0.000 0.000 0.000 nodecolor
125 1479 35.0096 18.3848 ellipse_path stroke
0.000 0.000 0.000 nodecolor
14.00 /Times-Roman set_font
102.875 1475.4 moveto 44.25 (State 59) alignedtext
grestore
% node58->node59
gsave
1 setlinewidth
0.000 0.000 0.000 edgecolor
newpath 124 1595 moveto
124 1572 124 1534 125 1508 curveto
stroke
0.000 0.000 0.000 edgecolor
newpath 128.5 1508 moveto
125 1498 lineto
121.5 1508 lineto
closepath fill
1 setlinewidth
solid
0.000 0.000 0.000 edgecolor
newpath 128.5 1508 moveto
125 1498 lineto
121.5 1508 lineto
closepath stroke
0.000 0.000 0.000 edgecolor
14.00 /Times-Roman set_font
125.625 1545.4 moveto 6.75 (1) alignedtext
grestore
% node60
gsave
1 setlinewidth
0.000 0.000 0.000 nodecolor
129 1339 35.0096 18.3848 ellipse_path stroke
0.000 0.000 0.000 nodecolor
14.00 /Times-Roman set_font
106.875 1335.4 moveto 44.25 (State 60) alignedtext
grestore
% node59->node60
gsave
1 setlinewidth
0.000 0.000 0.000 edgecolor
newpath 126 1460 moveto
127 1436 128 1395 129 1368 curveto
stroke
0.000 0.000 0.000 edgecolor
newpath 132.5 1368 moveto
129 1358 lineto
125.5 1368 lineto
closepath fill
1 setlinewidth
solid
0.000 0.000 0.000 edgecolor
newpath 132.5 1368 moveto
129 1358 lineto
125.5 1368 lineto
closepath stroke
0.000 0.000 0.000 edgecolor
14.00 /Times-Roman set_font
129.625 1405.4 moveto 6.75 (5) alignedtext
grestore
% node61
gsave
1 setlinewidth
0.000 0.000 0.000 nodecolor
129 1223 35.0096 18.3848 ellipse_path stroke
0.000 0.000 0.000 nodecolor
14.00 /Times-Roman set_font
106.875 1219.4 moveto 44.25 (State 61) alignedtext
grestore
% node60->node61
gsave
1 setlinewidth
0.000 0.000 0.000 edgecolor
newpath 129 1320 moveto
129 1302 129 1273 129 1252 curveto
stroke
0.000 0.000 0.000 edgecolor
newpath 132.5 1252 moveto
129 1242 lineto
125.5 1252 lineto
closepath fill
1 setlinewidth
solid
0.000 0.000 0.000 edgecolor
newpath 132.5 1252 moveto
129 1242 lineto
125.5 1252 lineto
closepath stroke
0.000 0.000 0.000 edgecolor
14.00 /Times-Roman set_font
129.625 1265.4 moveto 6.75 (2) alignedtext
grestore
% node62
gsave
1 setlinewidth
0.000 0.000 0.000 nodecolor
129 1131 35.0096 18.3848 ellipse_path stroke
0.000 0.000 0.000 nodecolor
14.00 /Times-Roman set_font
106.875 1127.4 moveto 44.25 (State 62) alignedtext
grestore
% node61->node62
gsave
1 setlinewidth
0.000 0.000 0.000 edgecolor
newpath 129 1204 moveto
129 1191 129 1175 129 1160 curveto
stroke
0.000 0.000 0.000 edgecolor
newpath 132.5 1160 moveto
129 1150 lineto
125.5 1160 lineto
closepath fill
1 setlinewidth
solid
0.000 0.000 0.000 edgecolor
newpath 132.5 1160 moveto
129 1150 lineto
125.5 1160 lineto
closepath stroke
0.000 0.000 0.000 edgecolor
14.00 /Times-Roman set_font
129.625 1173.4 moveto 6.75 (3) alignedtext
grestore
% node63
gsave
1 setlinewidth
0.000 0.000 0.000 nodecolor
129 1015 35.0096 18.3848 ellipse_path stroke
0.000 0.000 0.000 nodecolor
14.00 /Times-Roman set_font
106.875 1011.4 moveto 44.25 (State 63) alignedtext
grestore
% node62->node63
gsave
1 setlinewidth
0.000 0.000 0.000 edgecolor
newpath 129 1112 moveto
129 1094 129 1065 129 1044 curveto
stroke
0.000 0.000 0.000 edgecolor
newpath 132.5 1044 moveto
129 1034 lineto
125.5 1044 lineto
closepath fill
1 setlinewidth
solid
0.000 0.000 0.000 edgecolor
newpath 132.5 1044 moveto
129 1034 lineto
125.5 1044 lineto
closepath stroke
0.000 0.000 0.000 edgecolor
14.00 /Times-Roman set_font
129.625 1081.4 moveto 6.75 (1) alignedtext
grestore
% node64
gsave
1 setlinewidth
0.000 0.000 0.000 nodecolor
129 899 35.0096 18.3848 ellipse_path stroke
0.000 0.000 0.000 nodecolor
14.00 /Times-Roman set_font
106.875 895.4 moveto 44.25 (State 64) alignedtext
grestore
% node63->node64
gsave
1 setlinewidth
0.000 0.000 0.000 edgecolor
newpath 129 996 moveto
129 978 129 949 129 928 curveto
stroke
0.000 0.000 0.000 edgecolor
newpath 132.5 928 moveto
129 918 lineto
125.5 928 lineto
closepath fill
1 setlinewidth
solid
0.000 0.000 0.000 edgecolor
newpath 132.5 928 moveto
129 918 lineto
125.5 928 lineto
closepath stroke
0.000 0.000 0.000 edgecolor
14.00 /Times-Roman set_font
129.625 941.4 moveto 6.75 (1) alignedtext
grestore
% node65
gsave
1 setlinewidth
0.000 0.000 0.000 nodecolor
129 807 35.0096 18.3848 ellipse_path stroke
0.000 0.000 0.000 nodecolor
14.00 /Times-Roman set_font
106.875 803.4 moveto 44.25 (State 65) alignedtext
grestore
% node64->node65
gsave
1 setlinewidth
0.000 0.000 0.000 edgecolor
newpath 129 880 moveto
129 867 129 851 129 836 curveto
stroke
0.000 0.000 0.000 edgecolor
newpath 132.5 836 moveto
129 826 lineto
125.5 836 lineto
closepath fill
1 setlinewidth
solid
0.000 0.000 0.000 edgecolor
newpath 132.5 836 moveto
129 826 lineto
125.5 836 lineto
closepath stroke
0.000 0.000 0.000 edgecolor
14.00 /Times-Roman set_font
129.625 849.4 moveto 6.75 (7) alignedtext
grestore
% node66
gsave
1 setlinewidth
0.000 0.000 0.000 nodecolor
129 691 35.0096 18.3848 ellipse_path stroke
0.000 0.000 0.000 nodecolor
14.00 /Times-Roman set_font
106.875 687.4 moveto 44.25 (State 66) alignedtext
grestore
% node65->node66
gsave
1 setlinewidth
0.000 0.000 0.000 edgecolor
newpath 129 788 moveto
129 770 129 741 129 720 curveto
stroke
0.000 0.000 0.000 edgecolor
newpath 132.5 720 moveto
129 710 lineto
125.5 720 lineto
closepath fill
1 setlinewidth
solid
0.000 0.000 0.000 edgecolor
newpath 132.5 720 moveto
129 710 lineto
125.5 720 lineto
closepath stroke
0.000 0.000 0.000 edgecolor
14.00 /Times-Roman set_font
129.625 757.4 moveto 6.75 (3) alignedtext
grestore
% node67
gsave
1 setlinewidth
0.000 0.000 0.000 nodecolor
129 551 35.0096 18.3848 ellipse_path stroke
0.000 0.000 0.000 nodecolor
14.00 /Times-Roman set_font
106.875 547.4 moveto 44.25 (State 67) alignedtext
grestore
% node66->node67
gsave
1 setlinewidth
0.000 0.000 0.000 edgecolor
newpath 129 672 moveto
129 648 129 607 129 580 curveto
stroke
0.000 0.000 0.000 edgecolor
newpath 132.5 580 moveto
129 570 lineto
125.5 580 lineto
closepath fill
1 setlinewidth
solid
0.000 0.000 0.000 edgecolor
newpath 132.5 580 moveto
129 570 lineto
125.5 580 lineto
closepath stroke
0.000 0.000 0.000 edgecolor
14.00 /Times-Roman set_font
129.625 617.4 moveto 6.75 (6) alignedtext
grestore
% node68
gsave
1 setlinewidth
0.000 0.000 0.000 nodecolor
129 435 35.0096 18.3848 ellipse_path stroke
0.000 0.000 0.000 nodecolor
14.00 /Times-Roman set_font
106.875 431.4 moveto 44.25 (State 68) alignedtext
grestore
% node67->node68
gsave
1 setlinewidth
0.000 0.000 0.000 edgecolor
newpath 129 532 moveto
129 514 129 485 129 464 curveto
stroke
0.000 0.000 0.000 edgecolor
newpath 132.5 464 moveto
129 454 lineto
125.5 464 lineto
closepath fill
1 setlinewidth
solid
0.000 0.000 0.000 edgecolor
newpath 132.5 464 moveto
129 454 lineto
125.5 464 lineto
closepath stroke
0.000 0.000 0.000 edgecolor
14.00 /Times-Roman set_font
129.625 477.4 moveto 6.75 (3) alignedtext
grestore
% node69
gsave
1 setlinewidth
0.000 0.000 0.000 nodecolor
129 343 35.0096 18.3848 ellipse_path stroke
0.000 0.000 0.000 nodecolor
14.00 /Times-Roman set_font
106.875 339.4 moveto 44.25 (State 69) alignedtext
grestore
% node68->node69
gsave
1 setlinewidth
0.000 0.000 0.000 edgecolor
newpath 129 416 moveto
129 403 129 387 129 372 curveto
stroke
0.000 0.000 0.000 edgecolor
newpath 132.5 372 moveto
129 362 lineto
125.5 372 lineto
closepath fill
1 setlinewidth
solid
0.000 0.000 0.000 edgecolor
newpath 132.5 372 moveto
129 362 lineto
125.5 372 lineto
closepath stroke
0.000 0.000 0.000 edgecolor
14.00 /Times-Roman set_font
129.625 385.4 moveto 6.75 (0) alignedtext
grestore
% node70
gsave
1 setlinewidth
0.000 0.000 0.000 nodecolor
129 251 35.0096 18.3848 ellipse_path stroke
0.000 0.000 0.000 nodecolor
14.00 /Times-Roman set_font
106.875 247.4 moveto 44.25 (State 70) alignedtext
grestore
% node69->node70
gsave
1 setlinewidth
0.000 0.000 0.000 edgecolor
newpath 129 324 moveto
129 311 129 295 129 280 curveto
stroke
0.000 0.000 0.000 edgecolor
newpath 132.5 280 moveto
129 270 lineto
125.5 280 lineto
closepath fill
1 setlinewidth
solid
0.000 0.000 0.000 edgecolor
newpath 132.5 280 moveto
129 270 lineto
125.5 280 lineto
closepath stroke
0.000 0.000 0.000 edgecolor
14.00 /Times-Roman set_font
129.625 293.4 moveto 6.75 (4) alignedtext
grestore
% node71
gsave
1 setlinewidth
0.000 0.000 0.000 nodecolor
129 159 35.0096 18.3848 ellipse_path stroke
0.000 0.000 0.000 nodecolor
14.00 /Times-Roman set_font
106.875 155.4 moveto 44.25 (State 71) alignedtext
grestore
% node70->node71
gsave
1 setlinewidth
0.000 0.000 0.000 edgecolor
newpath 129 232 moveto
129 219 129 203 129 188 curveto
stroke
0.000 0.000 0.000 edgecolor
newpath 132.5 188 moveto
129 178 lineto
125.5 188 lineto
closepath fill
1 setlinewidth
solid
0.000 0.000 0.000 edgecolor
newpath 132.5 188 moveto
129 178 lineto
125.5 188 lineto
closepath stroke
0.000 0.000 0.000 edgecolor
14.00 /Times-Roman set_font
129.625 201.4 moveto 6.75 (3) alignedtext
grestore
% node72
gsave
2 setlinewidth
bold
0.000 0.000 0.000 nodecolor
129 43 42.102 42.6032 ellipse_path stroke
0.000 0.000 0.000 nodecolor
14.00 /Times-Roman set_font
106.875 39.4 moveto 44.25 (State 72) alignedtext
grestore
% node71->node72
gsave
1 setlinewidth
0.000 0.000 0.000 edgecolor
newpath 129 140 moveto
129 129 129 112 129 96 curveto
stroke
0.000 0.000 0.000 edgecolor
newpath 132.5 96 moveto
129 86 lineto
125.5 96 lineto
closepath fill
1 setlinewidth
solid
0.000 0.000 0.000 edgecolor
newpath 132.5 96 moveto
129 86 lineto
125.5 96 lineto
closepath stroke
0.000 0.000 0.000 edgecolor
14.00 /Times-Roman set_font
129.625 109.4 moveto 6.75 (6) alignedtext
grestore
endpage
showpage
grestore
%%PageTrailer
%%EndPage: 1
%%Trailer
%%Pages: 1
%%BoundingBox: 36 36 1043 2066
end
restore
%%EOF
